{
  "appName": "링크맘",
  "-----공통-----": "-----공통-----",
  "확인": "확인",
  "취소": "취소",
  "예": "예",
  "아니오": "아니오",
  "수정": "수정",
  "삭제": "삭제",
  "추가": "추가",
  "설정": "설정",
  "알림": "알림",
  "에러": "에러",
  "성공": "성공",
  "실패": "실패",
  "계속진행": "계속 진행",
  "업데이트": "업데이트",
  "앱종료": "앱 종료",
  "앱재실행": "앱 재실행",
  "다음": "다음",
  "전체": "전체",
  "없음": "없음",
  "외": "외",
  "회": "회",
  "건": "건",
  "의": "의",
  "을": "을",
  "변경되었습니다": "변경되었습니다.",
  "모드변경": "모드로 변경하였습니다.",
  "잠시만기다려주세요": "잠시만 기다려주세요...",
  "잠시후다시시도해주세요": "잠시 후 다시 시도해주세요.",
  "에러_400": "이용에 불편을 드려 죄송합니다. 잘못된 요청입니다.",
  "에러_401": "세션이 만료 되었습니다. 다시 로그인 해주세요.",
  "에러_403": "이용에 불편을 드려 죄송합니다. 잘못된 요청입니다.",
  "에러_404": "이용에 불편을 드려 죄송합니다. 찾을수 없는 URL입니다.",
  "에러_405": "이용에 불편을 드려 죄송합니다. 잘못된 요청입니다.",
  "에러_413": "선택한 사진을 확인해주세요.\n(최대 25M)",
  "에러_429": "서비스 상태가 원할하지 않습니다. 이용에 불편을 드려 죄송합니다. 잠시 후 다시 시도해주세요.",
  "에러_431": "서비스 상태가 원할하지 않습니다. 이용에 불편을 드려 죄송합니다. 잠시 후 다시 시도해주세요.",
  "에러_500": "서비스 상태가 원할하지 않습니다. 이용에 불편을 드려 죄송합니다. 잠시 후 다시 시도해주세요.",
  "시스템에러": "서비스 상태가 원할하지 않습니다.\n잠시 후 다시 시도해주세요.",
  "조회된데이터가없습니다": "조회된 데이터가 없습니다.",
  "앱종료_메시지": "'뒤로' 버튼을 한번 더 누르시면 앱이 종료됩니다.",
  "자동로그인": "자동로그인",
  "로그인": "로그인",
  "서비스준비중": "서비스 준비중입니다.",
  "네트워크확인": "네트워크를 확인해 주세요.",
  "네트워크확인중": "네트워크 환경 확인중입니다...",
  "로그인중": "로그인 중...",
  "버전체크중": "버전 체크 중...",
  "비밀번호": "비밀번호",
  "-----회원가입-----": "-----회원가입-----",
  "휴대폰번호힌트": "휴대폰번호(-없이 입력)",
  "인증번호": "인증번호",
  "본인인증": "본인인증",
  "회원가입완료메세지": "회원가입이 완료되었습니다",
  "맘대디": "맘대디",
  "링크쌤": "링크쌤",
  "메일_입력": "아이디(이메일)을 \n입력해 주세요.",
  "아이디입력": "아이디 입력",
  "비밀번호입력": "비밀번호 입력",
  "비밀번호입력타이틀": "비밀번호를\n입력해 주세요",
  "비밀번호입력메세지": "비밀번호를 입력해 주세요",
  "탈퇴": "탈퇴하기",
  "탈퇴사유_타이틀": "회원 탈퇴 사유를 알려주세요",
  "보유포인트": "보유 포인트",
  "약관안내": "링크맘 서비스 이용약관에 \n동의해주세요",
  "이름입력힌트": "이름을 입력해 주세요",
  "이메일선택": "이메일 선택",
  "탈퇴완료메세지1": "회원탈퇴가 완료되었습니다",
  "탈퇴완료메세지2": "그동안 저희 서비스를 이용해주셔서 감사합니다.",
  "비밀번호안내": "영문,숫자,특수문자 조합8~16자리 입력해 주세요",
  "에러_인증번호확인": "인증번호를 다시 확인해 주세요.",
  "재전송": "재전송",
  "등록하기": "등록하기",
  "약관동의": "약관동의",
  "전체동의": "전체 동의합니다.",
  "이용약관동의": "통합 이용약관 동의 ",
  "개인정보수집": "개인정보처리방침 동의",
  "개인정보제3자": "개인정보 제3자 제공 동의",
  "위치기반서비스": "위치기반 서비스약관 동의",
  "통신사이용약관": "통신사 이용약관 동의",
  "환불및취소약관": "취소 및 환불규정 동의",
  "이벤트광고": "이벤트 및 광고 수신동의",
  "정보입력": "정보입력",
  "아이디이메일": "아이디(이메일)",
  "아이디_힌트": "실제 사용 이메일 입력",
  "직접입력": "직접입력",
  "네이버_이메일": "naver.com",
  "한메일_이메일": "hanmail.net",
  "지메일_이메일": "gmail.com",
  "네이트_이메일": "nate.com",
  "다음_이메일": "daum.net",
  "핫메일_이메일": "hotmail.com",
  "중복확인": "중복확인",
  "비밀번호_힌트": "비밀번호(영문,숫자,특수문자 조합 8~16자리)",
  "비밀번호_재입력_힌트": "비밀번호 재입력해주세요.",
  "휴대폰번호": "휴대폰 번호",
  "이름": "이름",
  "회원가입완료": "가입완료",
  "회원가입완료_화면선택": "이용하실 화면을 선택해주세요.",
  "부모님화면": "부모님 화면",
  "돌봄이화면": "돌봄이 화면",
  "아이디찾기": "아이디 찾기",
  "아이디확인": "아이디 확인",
  "아이디확인_메시지1": "회원님의 이메일아이디는",
  "아이디확인_메시지2": " 입니다.",
  "비밀번호찾기": "비밀번호 찾기",
  "비밀번호변경": "비밀번호 변경",
  "비밀번호재설정": "비밀번호 재설정",
  "비밀번호찾기_에러_영문": "영문자가 포함되어야 합니다.",
  "비밀번호찾기_에러_숫자": "숫자가 포함되어야 합니다",
  "비밀번호찾기_에러_특수문자": "특수문자가 포함되어야 합니다",
  "휴대폰번호_힌트": "휴대폰번호 (-없이 입력)",
  "인증번호입력": "인증번호 입력",
  "에러_아이디_확인": "아이디(이메일) 입력해주세요.",
  "에러_아이디_확인2": "아이디(이메일)를 확인해주세요.",
  "에러_아이디_확인3": "아이디(이메일)를 4자이상 입력해주세요.",
  "에러_비밀번호확인": "비밀번호를 확인해주세요.",
  "에러_비밀번호불일치": "비밀번호가 일치하지 않습니다.",
  "에러_이름": "실명을 입력해 주세요.",
  "에러_휴대폰번호": "휴대폰 번호를 확인해주세요.",
  "에러_인증번호": "인증 번호를 확인해주세요.",
  "에러_예외처리확인": "예외 처리 확인 바랍니다.",
  "커뮤니티": "커뮤니티",
  "홈": "홈",
  "채팅": "채팅",
  "회원가입": "회원가입",
  "메인_돌봄신청하기": "돌봄 신청하기",
  "-----집안환경----": "-----집안환경----",
  "집안환경": "집안 환경",
  "돌봄신청전": "돌봄 신청 전,",
  "링크쌤등록전": "링크쌤 등록 전,",
  "집안환경_선택": "\n집안 환경을 선택해 주세요.",
  "집안환경_설명": "조건에 맞는 맞춤 매칭이 가능합니다.",
  "집안환경_설명2": "집안 환경을 선택하면 인증 배지를 부여합니다.",
  "집안환경_설명3": "한번 등록을 하면 다음 돌봄 신청 때는 화면이 나오지 않습니다.",
  "맞춤매칭": "맞춤 매칭",
  "인증배지": "인증 배지",
  "환경인증_우리집환경": "우리집 집안 환경",
  "환경인증_우리집주거타입": "우리집 주거타입",
  "환경인증_아파트": "아파트",
  "환경인증_오피스텔": "오피스텔",
  "환경인증_빌라": "빌라",
  "환경인증_전원주택": "전원주택",
  "환경인증_CCTV": "CCTV 설치 유무",
  "환경인증_CCTV있음": "있다",
  "환경인증_CCTV없음": "없다",
  "환경인증_설치예정": "설치예정",
  "환경인증_반려동물": "반려동물 유무",
  "환경인증_강아지": "강아지",
  "환경인증_고양이": "고양이",
  "환경인증_우리집사진등록": "우리집 사진 등록",
  "환경인증_이웃집사진등록": "이웃집 사진 등록 유무",
  "환경인증_사진등록": "사진 등록",
  "환경인증_사진등록_안내": "최대 2장까지 등록 가능",
  "환경인증_이웃집환경": "이웃집의 원하는 집안 환경",
  "환경인증_선택해주세요": "선택해주세요",
  "환경인증_이웃집설명내용": "이웃집에 아이를 맡길 경우,\n원하는 이웃집 환경을 선택해주세요.",
  "환경인증_이웃집주거타입": "이웃집 주거타입",
  "환경인증_있어도괜찮아요": "있어도 괜찮아요",
  "환경인증_없었으면좋겠어요": "없었으면 좋겠어요",
  "환경인증_있으면좋겠어요": "있으면 좋겠어요",
  "환경인증_없어도괜찮아요": "없어도 괜찮아요",
  "환경인증_우리집_안내": "집안 환경 등록시, 신뢰도가 높아지므로\n매칭이 더 잘 될수 있습니다.",
  "환경인증_우리집_안내_하이라이트": "매칭이 더 잘 될수 있습니다.",
  "환경인증_이웃집_안내": "서로에 대한 환경이 궁금할 수 있으므로\n원하는 이웃집 환경을 선택해주세요.",
  "사진선택": "사진 선택",
  "사진찍기": "사진 찍기",
  "환경인증_환경인증등록": "환경인증 등록",
  "-----아이선택화면-----": "-----아이선택 화면-----",
  "아이선택_안내": "아이를 선택해 주세요",
  "아이정보_안내": "아이의 기본 정보를 입력해 주세요",
  "아이정보수정_안내": "아이정보를 수정하시면 기존의 돌봄신청서와 계약서의 아이정보 내용도 변경됩니다.",
  "아이정보수정저장_안내": "아이정보를 수정하시면 기존의 돌봄신청서와 계약서의 아이정보 내용이 모두 변경됩니다. 정말로 수정하시겠습니까?",
  "아이등록": "아이 등록",
  "+아이추가": "+ 아이 추가",
  "아이정보": "아이 정보",
  "아이등록_아이이름": "아이 이름",
  "아이등록_아이이름힌트": "실명으로 입력해주세요.",
  "아이등록_아이성별": "아이 성별",
  "남아": "남아",
  "여아": "여아",
  "생년월일": "생년월일",
  "년도": "년도",
  "년": "년",
  "닫기": "닫기",
  "선택": "선택",
  "세": "세",
  "저장": "저장",
  "아이등록_아이가다니는보육기관": "아이가 다니는 보육기관",
  "아이등록_어린이집": "어린이집",
  "아이등록_유치원": "유치원",
  "아이등록_초등학교": "초등학교",
  "아이등록_중고등학교": "중/고등학교",
  "아이등록_가정보육": "가정보육",
  "아이등록_특수학교": "특수학교",
  "기타": "기타",
  "아이등록_아이성향_조건": "3개까지 선택 가능",
  "아이등록_아이성향_키워드": "키워드 선택",
  "아이등록_아이성향": "아이 성향",
  "아이등록_소심함": "소심함",
  "아이등록_섬세함": "섬세함",
  "아이등록_활발함": "활발함",
  "아이등록_낮가림": "낯가림",
  "아이등록_조용한편임": "조용한 편임",
  "아이등록_사교성이좋음": "사교성이 좋음",
  "아이등록_호기심이많음": "호기심이 많음",
  "아이등록_승부욕이강함": "승부욕이 강함",
  "아이등록_말하기좋아함": "말하기 좋아함",
  "아이등록_자기주장이강함": "자기주장이 강함",
  "임시저장": "임시저장",
  "투약의뢰서": "투약의뢰서",
  "투약의뢰서_안내": "최근 3개월의 투약의뢰서를 보실 수 있습니다.",
  "투약의뢰하기": "투약 의뢰하기",
  "투약의뢰서불러오기": "투약의뢰서 불러오기",
  "투약의뢰서_약추가하기": "약 추가하기",
  "투약의뢰서_아이이름": "아이 이름",
  "투약의뢰서_증상": "증상",
  "투약의뢰서_증상힌트": "예) 감기, 몸살",
  "투약의뢰서_투약날짜": "투약 날짜",
  "투약의뢰서_투약시작힌트": "날짜를 선택해주세요.",
  "투약의뢰서_투약시간": "투약시간",
  "투약의뢰서_약종류": "약종류/용량",
  "투약의뢰서_가루약": "가루약",
  "투약의뢰서_물약": "물약",
  "투약의뢰서_연고": "연고",
  "투약의뢰서_보관방법": "보관방법",
  "투약의뢰서_실온": "실온",
  "투약의뢰서_냉장": "냉장",
  "투약의뢰서_투약횟수": "투약횟수",
  "ml/cc": "ml/cc",
  "추가전달사항": "추가 전달 사항",
  "추가전달사항_힌트": "예) 알레르기가 있어요, 약을 잘 먹지 않아요.",
  "투약의뢰서_고지내용1": "- 약은 부모님께서 꼭 챙겨주시기 바랍니다.",
  "투약의뢰서_고지내용2": "- 필요 시, 해열제 여분 또한 부모님이 챙겨주셔야합니다.",
  "투약의뢰서_고지내용3": "- 투약으로 인한 책임은 보호자가 집니다.",
  "투약의뢰서_서명내용": "금일 자녀의 투약을 돌봄이(링크쌤)에게 의뢰합니다.",
  "투약의뢰서_서명하기": "서명을 해주세요.",
  "서명하기": "서명하기",
  "서명하기_다시서명하기": "다시서명하기",
  "서명하기_서명저장": "서명저장",
  "step": "STEP",
  "-----돌봄유형화면-----": "-----돌봄유형 화면-----",
  "돌봄유형": "돌봄 유형",
  "돌봄유형_안내메시지": "돌봄 유형을 선택해주세요",
  "등원돌봄": "등원돌봄",
  "하원돌봄": "하원돌봄",
  "보육돌봄": "보육돌봄",
  "학습돌봄": "학습돌봄",
  "입주가사": "입주가사",
  "이유식반찬": "이유식반찬",
  "등원_메시지": "아이를 목적지까지 데려다 주는 서비스",
  "하원_메시지": "아이를 목적지로 데려오거나 돌보는 서비스",
  "보육_메시지": "아이를 가정 보육 해주는 서비스",
  "등원": "등원",
  "하원": "하원",
  "학습": "학습",
  "그룹": "그룹",
  "-----보육장소-----": "-----보육장소-----",
  "그룹보육가능": "그룹보육 가능",
  "그룹보육가능_여부": "그룹보육이 가능하신가요?",
  "그룹보육가능_안내": "아이 1명 외 여러 명을 동시에 그룹으로 돌봐 주는 보육을 의미합니다. (최대 4명까지 가능)",
  "동시보육가능": "동시보육 가능",
  "동시보육가능_여부": "동시보육이 가능하신가요?",
  "동시보육가능_안내": "돌봄 아이 집에 형제자매 아이를 동시에 돌봐 주는 보육을 의미합니다.",
  "돌봄장소_선택": "돌봄 장소를 선택해 주세요",
  "돌봄장소_선택_구직": "돌봄 가능 장소를 선택해 주세요",
  "우리집": "우리집",
  "이웃집": "이웃집",
  "맘대디집": "맘대디 집",
  "링크쌤집": "링크쌤 집",
  "우리집_등원_메시지": "링크쌤이 우리집으로 방문하여 아이를 ",
  "이웃집_등원_메시지": "링크쌤 집에 아이를 맡긴 후 아이를 ",
  "링크쌤집_메시지": "링크쌤 본인 집에서 아이를 보육을 해주는 장소",
  "맘대디집_메시지": "돌봄 아이집으로 방문하여 아이를 보육을 해주는 장소",
  "우리집_등원_안내": "링크쌤이 우리집으로 방문하여 아이를 등원 시켜주는 서비스",
  "이웃집_등원_안내": "링크쌤 집에 아이를 맡기면 링크쌤이 아이를 등원 시켜주는 서비스",
  "우리집_하원_안내": "링크쌤이 아이 하원을 도와 우리집에서 돌봐주는 서비스",
  "이웃집_하원_안내": "링크쌤이 아이 하원을 도와 링크쌤 집에서 돌봐주는 서비스",
  "우리집_보육_안내": "링크쌤이 우리집으로 방문하여 아이를 보육 해주는 서비스",
  "이웃집_보육_안내": "링크쌤 집에 아이를 맡기면 링크쌤이 아이를 보육 해주는 서비스",
  "장소변경안내": "장소 변경시 저장 값이 사라집니다. 변경하시겠습니까?",
  "-----이동방법-----": "-----이동방법-----",
  "이동방법": "이동방법",
  "돌봄주소": "돌봄 주소",
  "이동_메시지": "이동 방법을 선택해 주세요",
  "돌봄장소": "돌봄 장소",
  "보육장소_메시지": "보육하는 주소를 입력해 주세요",
  "돌봄장소_이웃집": "링크쌤집 주소",
  "도보": "도보",
  "도보_메시지": "도보를 이용해서 아이를 목적지까지 이동",
  "도보_아이템_1": "도보로 10분 이내",
  "도보_아이템_2": "도보로 20분 이내",
  "자동차": "자동차",
  "자동차_메시지": "링크쌤 자차를  이용해서 아이를 목적지까지 이동",
  "자동차_아이템_1": "카시트 또는 어린이 안전벨트가 필요합니다",
  "자동차_아이템_2": "카시트 또는 어린이 안전벨트가 필요하지 않습니다",
  "자동차_안내": "카시트, 안전벨트 필수(주유비 협의)",
  "대중교통": "대중교통",
  "대중교통_메시지": "대중교통을 이용해서 아이를 목적지까지 이동",
  "대중교통_안내": "지하철, 버스, 택시 이용(교통비 협의)",
  "출발장소": "출발 장소",
  "장소_힌트": "링크쌤이 아이와 만나는 장소",
  "장소_에러": "장소를 입력해주세요",
  "장소_상세_힌트": "상세 주소를 입력해 주세요",
  "출발시간": "출발 시간",
  "출발시간_힌트": "링크쌤이 아이와 출발해야 하는 시간",
  "도착시간": "도착 시간",
  "도착시간_힌트": "아이와 도착장소에 도착해야 하는 시간",
  "장소설명": "장소 설명",
  "장소설명_힌트": "장소에 대한 설명이 필요하면 입력해 주세요",
  "출발추가설명_힌트": "출발 전 알려주실 내용이 있으면 입력해 주세요",
  "도착장소": "도착 장소",
  "도착장소_힌트": "링크쌤이 아이를 데려다 줘야 하는 장소",
  "추가설명": "추가 설명",
  "추가설명_힌트": "ex) 등교시간은 8시50분까지 입니다",
  "도착추가설명_힌트": "도착 시 알려주실 내용이 있으면 입력해 주세요",
  "경유지장소": "경유지 장소",
  "경유지장소_힌트": "추가 이동 장소가 있다면 입력해 주세요 (ex.학원,병원 등) ",
  "보육추가설명_힌트": "알려주실 내용이 있으면 입력해 주세요",
  "위치검색": "위치검색",
  "날짜시간": "날짜/시간",
  "총": "총",
  "시간선택": "시간 선택",
  "매주반복": "매주 반복",
  "돌봄신청": "돌봄신청",
  "우리집돌봄": "우리집 돌봄",
  "이웃집돌봄": "이웃집 돌봄",
  "돌봄날짜": "돌봄 날짜",
  "돌봄시간": "돌봄 시간",
  "돌봄날짜확인": "돌봄 날짜 확인",
  "돌봄날짜시간": "돌봄 날짜 시간",
  "식사협의_안내": "*링크쌤의 식사는 합의해주세요.",
  "금액": "금액",
  "원": "원",
  "돌봄신청하기": "돌봄 신청하기",
  "날짜시간변경안내_1": "지난 날짜는 돌봄진행이 불가하므로,",
  "날짜시간변경안내_2": "이후의 날짜와 시간으로 선택 후 돌봄신청서를 저장해주세요.",
  "링크쌤이주소등록": "링크쌤이 주소 등록",
  "돌봄이용시간안내": "돌봄 이용 시간 범위를 벗어났습니다. 돌봄 이용 시간 범위 내로 시간을 다시 선택해 주세요.",
  "돌봄이용시간안내_출발": "출발시간이 도착시간보다 느린 시간으로 등록될 수 없습니다. 출발시간을 다시 선택해 주세요.",
  "돌봄이용시간안내_도착": "도착시간이 출발시간보다 앞선 시간으로 등록될 수 없습니다. 도착시간을 다시 선택해 주세요.",
  "필요한돌봄안내": "시간이 변경되어 필요한 돌봄에 영향을 줄 수 있습니다. 필요한 돌봄을 수정하시겠습니까?",
  "-----돌봄신청완료-----": "-----돌봄신청완료-----",
  "신청완료": "신청완료",
  "돌봄신청완료_메시지": "돌봄 신청이 완료 되었습니다",
  "신청완료_돌봄관리_안내": "원하는 링크쌤을 찾아 매칭해 보세요.",
  "신청완료_돌봄관리_안내_힌트": "링크쌤을 찾아 매칭",
  "신청완료_돌봄관리_안내_2": "돌봄진행상황은 돌봄관리에서 확인할 수 있어요.",
  "신청완료_돌봄관리_안내_2_힌트": "돌봄관리",
  "홈으로": "홈으로",
  "추가돌봄신청": "추가 돌봄 신청",
  "보육서비스": "보육서비스",
  "놀이서비스": "놀이서비스",
  "가사서비스": "가사서비스",
  "등원돌봄놀이안내": "등원돌봄은 놀이서비스가\n제공되지 않습니다.",
  "등원돌봄가사안내": "장소가 링크쌤 집이면\n가사서비스가 제공되지 않습니다.",
  "-----동시보육화면-----": "-----동시보육화면-----",
  "동시보육이란?": "동시보육이란?",
  "동시보육_안내": "링크쌤이 우리집에 와서 2명 이상의 우리 아이들을 동시에 돌보면 돌봄비를 줄일 수 있어요.",
  "동시보육으로": "동시보육으로",
  "시간당돌봄비인하": "시간당 돌봄비 인하",
  "우리아이1명": "우리아이 1명",
  "우리아이2명": "우리아이 2명",
  "우리아이3명": "우리아이 3명",
  "우리아이4명": "우리아이 4명",
  "동시보육돌봄비안내": "돌봄비는 협의 가능합니다.",
  "그룹보육이란?": "그룹보육이란?",
  "그룹보육_안내": "친구와 함께 놀며 학습할 수 있는 아이들은 링크쌤 집에 그룹돌봄으로 맡기면 돌봄비를 줄일 수 있어요.",
  "최대4명그룹돌봄으로": "최대4명 그룹돌봄으로",
  "시간당돌봄비반값": "시간당 돌봄비 반값",
  "링크쌤집에서그룹보육도괜찮아요": "링크쌤 집에서 그룹보육도 괜찮아요",
  "링크쌤집에서그룹보육괜찮으신가요": "링크쌤 집에서 그룹보육 괜찮으신가요?",
  "아이추가시": "아이 추가 시 1시간당 비용",
  "예시": "예시",
  "우리아이만": "우리아이만 보육",
  "우리아이외1명": "우리 아이 외 1명",
  "우리아이외2명": "우리 아이 외 2명",
  "우리아이외3명": "우리 아이 외 3명",
  "1명": "1명",
  "2명": "2명",
  "3명": "3명",
  "기본시급": "기본 시급",
  "우리아이외1명%": "10%↓",
  "우리아이외2명%": "20%↓",
  "우리아이외3명%": "30%↓",
  "그룹보육신청": "그룹 보육 신청",
  "그룹보육내용": "우리아이외 보육이 가능한 아이숫자를 선택해주세요.",
  "그룹보육설명": "(선택시 돌봄확정 후 결제 단계에서 할인이 적용됩니다)",
  "아이1명만": "우리 아이 외 아이 1명만 (10%↓)",
  "아이2명이하": "우리 아이 외 아이 2명이하 (20%↓)",
  "아이3명이하": "우리 아이 외 아이 3명이하 (30%↓)",
  "신청내역": "신청내역",
  "시급": "시급",
  "돌봄시급": "돌봄 시급",
  "돌봄시급_안내": "돌봄이에게 지급 할 시급을 정해주세요.",
  "돌봄시급_가격": "(최저 5,000원~최대 50,000원)",
  "돌봄신청등록": "돌봄 신청 등록",
  "서비스선택": "개의 서비스를 선택하였습니다.",
  "추가이동장소-": "추가 이동 장소-",
  "추가이동장소": "추가 이동 장소",
  "불러오기": "불러오기",
  "나가기": "나가기",
  "임시저장불러오기": "가장 최근에\n저장된 내용을 불러 올까요?",
  "임시저장설명": "작성중인 내용이 있습니다.\n임시저장을 하지 않고,\n페이지를 나갈 경우,\n지금까지 작성한 내용이 사라집니다.",
  "원하는링크쌤집위치": "원하는 링크쌤집 위치",
  "원하는링크쌤집위치_줄바꿈": "원하는\n링크쌤집 위치",
  "이웃집출발장소_안내": "링크쌤집 주소는 매칭 후 링크쌤이 직접 등록",
  "1km이내": "1km이내",
  "5km이내": "5km이내",
  "10km이내": "10km이내",
  "서비스제공안내문구": "서비스가 제공되지 않습니다.",
  "내위치에서링크쌤집거리": "내 위치에서 링크쌤집 거리",
  "오전": "오전",
  "오후": "오후",
  "분": "분",
  "시": "시",
  "기본": "기본",
  "소요": "소요",
  "(중복가능)": "(중복가능)",
  "-----필요한돌봄-----": "----- 필요한돌봄 -----",
  "필요한돌봄_안내": "필요한 돌봄이 있다면 선택해 주세요",
  "필요한돌봄": "필요한 돌봄",
  "필요한돌봄알림": "필요한 돌봄 알림",
  "필요한돌봄가이드": "필요한 돌봄 가이드",
  "필요한돌봄가이드안내": "시간 대비 업무량이 많으면 매칭이 어려울 수 있습니다.",
  "보육": "보육",
  "가사": "가사",
  "놀이": "놀이",
  "보육장소": "보육 장소",
  "이동수단": "이동 수단",
  "필요한돌봄_추가내용": "*추가로 필요한 돌봄이 있다면 매칭 후 협의해 주세요.",
  "ex)준비물구입등": "ex) 준비물 구입 등",
  "ex)쓰레기버리기등": "ex) 쓰레기 버리기 등",
  "ex)학습지도등": "ex) 학습지도 등",
  "돌봄이용시간": "돌봄 이용 시간",
  "서비스선택_초과안내": "시간 대비 서비스를 많이 선택하였습니다. 매칭의 효율이 떨어질 수 있으므로 시간을 늘려주시거나 더 빠른 매칭을 원한다면 스피드매칭으로 비용을 조정해 주세요.",
  "-----결제금액화면-----": "----- 결제 금액 화면 -----",
  "결제금액": "결제 금액",
  "시급입력": "시급 입력",
  "협의가능": "협의 가능",
  "신청기간": "신청 기간",
  "신청시간": "신청 시간",
  "신청금액": "신청 금액",
  "10분당": "10분당",
  "원단위절사": "원단위 절사",
  "신청금액_안내": "(신청기간x시급)",
  "결제예상금액": "결제 예상 금액",
  "-----스피드매칭팝업-----": "----- 스피드매칭 팝업 -----",
  "스피드매칭_내용": "단계가 높아질 수록 매칭이 빨라질 수 있습니다.",
  "스피드매칭": "스피드 매칭",
  "스피드매칭이란?": "스피드 매칭 이란?",
  "스피드매칭_안내_1": "더 빠른 매칭을 원한다면 기본금액에서",
  "스피드매칭_안내_2": "금액을 올려서 주변의 링크쌤에게\n올린 비용으로알림을 보내줍니다.",
  "스피드매칭_더빠른매칭": "더 빠른 매칭",
  "스피드매칭_주변의링크쌤": "주변의 링크쌤",
  "스피드매칭_기본금액": "기본 금액",
  "스피드매칭금액": "스피드 매칭 금액",
  "스피드매칭_주변링크쌤": "주변 링크쌤",
  "스피드매칭_선택": "스피드 선택",
  "스피드매칭_선택_내용": "단계가 높아질 수록 매칭이 빨라질 수 있습니다",
  "스피드1": "스피드 1단계",
  "스피드2": "스피드 2단계",
  "스피드3": "스피드 3단계",
  "스피드1내용": "5,000원",
  "스피드2내용": "10,000원",
  "스피드3내용": "20,000원",
  "-----위치검색화면-----": "----- 위치검색화면 -----",
  "시/도": "시/도",
  "시/구/군": "시/구/군",
  "동/읍/면": "동/읍/면",
  "주소를선택해주세요.": "주소를 선택해 주세요.",
  "1순위": "1순위",
  "2순위": "2순위",
  "주소선택_힌트": "구, 동명으로 검색(ex. 분당구, 정자동)",
  "-----구직신청-----": "-----구직신청-----",
  "링크쌤신청등록": "링크쌤 신청 등록",
  "희망근무조건": "희망 근무 조건",
  "희망근무조건선택": "희망 근무 조건을 선택해 주세요",
  "희망지역": "희망 지역",
  "희망시급": "희망 시급",
  "최소": "최소",
  "최대": "최대",
  "돌봄대상": "돌봄 대상",
  "신생아": "신생아",
  "영아": "영아",
  "유아": "유아",
  "초등학생": "초등학생",
  "중학생": "중학생",
  "고등학생": "고등학생",
  "(0-6개월)": "(0-6개월)",
  "(7-36개월)": "(7-36개월)",
  "(4세-7세)": "(4세-7세)",
  "(8세-13세)": "(8세-13세)",
  "(14세-16세)": "(14세-16세)",
  "(17세-19세)": "(17세-19세)",
  "한줄자기소개": "한줄 자기 소개",
  "한줄자기소개_힌트": "예) 두아이의 엄마입니다. 등원보육가능합니다.",
  "구직신청_나가기_안내": "페이지를 나갈 경우,\n지금까지 작성한 내용이 사라집니다.",
  "돌봄신청서": "돌봄 신청서",
  "-----등록내역-----": "-----등록내역-----",
  "등록내역": "등록 내역",
  "근무날짜": "근무 날짜",
  "근무날짜확인": "근무 날짜 확인",
  "-----등록완료-----": "-----등록완료-----",
  "등록완료": "등록 완료",
  "등록이완료되었습니다": "등록이 완료 되었습니다.",
  "수정이완료되었습니다": "수정이 완료 되었습니다.",
  "수정하시겠습니까": "수정 하시겠습니까?",
  "-----인증센터-----": "-----인증센터-----",
  "인증센터": "인증 센터",
  "인증센터_본인인증": "본인인증",
  "인증센터_동네인증": "동네인증",
  "인증센터_집안환경": "집안환경",
  "인증센터_범죄인증": "범죄이력 조회",
  "인증센터_건강인증": "건강인증",
  "인증센터_등본인증": "등본인증",
  "인증센터_경력인증": "경력인증",
  "인증센터_학력인증": "학력인증",
  "인증센터_교육인증": "교육인증",
  "본인인증_안내": "본인 인증은 가입 시\n휴대폰 인증으로 확인이 되었어요!",
  "동네인증_안내": "동네 이웃임을 확인하기 위해서\n현재 위치와 휴대폰의 GPS가 일치해야되요!",
  "집안환경_안내": "맘대디가 링크쌤 집에 아이를 맡길 때,\n링크쌤의 집안 환경이 궁금할 수 있어요!",
  "등본인증_안내": "자녀가 있는지 사는 곳이 맞는지\n확인이 필요해요!",
  "건강인증_안내": "링크쌤의 건강을 확인 한다면\n우리아이를 안심하고 맡길 수 있어요!",
  "교육인증_안내": "유아 관련 수료증이 있다면\n신뢰도는 더욱 올라갈꺼예요!",
  "경력인증_안내": "유아관련 경력과 자격증이 있다면\n신뢰도는 더욱 올라갈꺼예요!",
  "학력인증_안내": "전공분야를 확인하면\n학습분야는 더욱 믿고 맡길 수 있어요!",
  "범죄인증_안내": "서로 신뢰하는 돌봄을 위해\n가장 중요하게 생각하는 인증이예요!",
  "우리집사진": "우리집 사진",
  "집안환경등록": "집안 환경 등록",
  "-----나의정보-----": "-----나의정보-----",
  "나의정보": "나의 정보",
  "성별": "성별",
  "남자": "남자",
  "여자": "여자",
  "나의주소": "나의 주소",
  "아이가있으신가요?": "아이가 있으신가요?",
  "3명이상": "3명이상",
  "현재나의직업": "현재 나의 직업",
  "현재나의직업_안내": "나의 직업을 선택해주세요.",
  "전업맘대디": "전업 맘/대디",
  "워킹맘대디": "워킹 맘/대디",
  "출산휴가육아휴직": "출산휴가/육아휴직",
  "프리랜서파트타임": "프리랜서/파트타임",
  "자영업": "자영업",
  "전문직강사": "전문직/강사",
  "대학생": "대학생",
  "미취업자취준생": "미취업자/취준생",
  "회사원": "회사원",
  "미등록": "미등록",
  "맘대디등급": "맘대디 등급",
  "링크쌤등급": "링크쌤 등급",
  "맘대디_0": "새싹 맘대디",
  "맘대디_0_안내": "신규 가입회원",
  "맘대디_1": "성실 맘대디",
  "맘대디_1_안내": "정산 금액 20만원 이상 &\n상대방에게 남긴 좋아요 5건 이상",
  "맘대디_2": "우수 맘대디",
  "맘대디_2_안내": "정산 금액 50만원 이상 &\n상대방에게 남긴 좋아요 10건 이상",
  "맘대디_3": "성실 맘대디",
  "맘대디_3_안내": "정산 금액 100만원 이상 &\n상대방에게 남긴 좋아요 20건 이상",
  "링크쌤_0": "웰컴 링크쌤",
  "링크쌤_0_안내": "신규 가입회원",
  "링크쌤_1": "성실한 링크쌤",
  "링크쌤_1_안내": "정산 받은 금액 20만원 이상 &\n내가 받은 좋아요 5건 이상",
  "링크쌤_2": "고마운 링크쌤",
  "링크쌤_2_안내": "정산 받은 금액 50만원 이상 &\n내가 받은 좋아요 10건 이상",
  "링크쌤_3": "최고의 링크쌤",
  "링크쌤_3_안내": "정산 받은 금액 100만원 이상 &\n내가 받은 좋아요 20건 이상",
  "개": "개",
  "후기": "후기",
  "동네인증체크_안내_2": "링크쌤 서비스를 이용하시려면 동네인증이 필요합니다. 동네인증을 진행해 주세요.",
  "-----나의동네인증-----": "-----나의동네인증-----",
  "동네인증": "동네 인증",
  "현재위치": "현재 위치",
  "최근주소": "최근 주소",
  "동네인증하기": "동네 인증하기",
  "동네인증_완료": "동네 인증이 되었습니다",
  "동네인증_인증후": "동네 인증 후 사용해주세요",
  "동네인증_주소가져오기": "주소를 가져오는 중입니다...",
  "동네인증_GPS가져오기": "GPS가 수신되지 않아 동네 인증에 실패하였습니다. 야외로 이동하여 다시 동네 인증을 진행해 주세요.",
  "동네인증_GPS_OFF": "위치(GPS)가 비활성화 되어있습니다. 활성화 후 이용해 주세요.",
  "동네인증을왜하나요": "동네 인증을 왜 하나요?",
  "동네인증하기_안내": "링크쌤은 근거리 이웃 회원간 아이돌봄을 위해 교류할 수 있는 서비스에요. 그래서 서로의 신뢰를 높이기 위해 우리 동네 이웃임을 확인하고 사기방지에서 우리 아이를 안전하게 보호할 수 있도록 동네인증을 필수로 해주셔야 해요.",
  "동네인증하기_GPS_안내": "※ GPS 정보 수신이 원활하지 않거나 경계지역에서 인증된 동네가 잘 못 나오는 경우, 실외에서 다시 시도해 주세요.",
  "동네인증_기본변경": "인증된 기본 동네 변경",
  "인증된동네": "인증된 동네",
  "인증동네_링크쌤안내": "동네인증을 변경하시면 링크쌤 지원서의 기본 동네도 변경됩니다.",
  "-----돌봄,링크쌤리스트-----": "-----돌봄,링크쌤 리스트-----",
  "명": "명",
  "최근등록순": "최근 등록순",
  "빠른날짜순": "빠른 날짜순",
  "낮은금액순": "낮은 금액순",
  "높은금액순": "높은 금액순",
  "맘대디인증": "맘대디 인증",
  "링크쌤인증": "링크쌤 인증",
  "좋아요순": "좋아요순",
  "상세검색": "상세 검색",
  "초기화": "초기화",
  "돌봄지역": "돌봄 지역",
  "돌봄요일": "돌봄 요일",
  "인증태그": "인증 태그",
  "채팅하기": "채팅하기",
  "돌봄활동이가능한지역": "돌봄 활동이 가능한 지역",
  "월": "월",
  "화": "화",
  "수": "수",
  "목": "목",
  "금": "금",
  "토": "토",
  "일": "일",
  "요일": "요일",
  "돌봄예상금액": "돌봄 예상 금액",
  "10분당환산금액": "10분당 환산 금액",
  "CCTV있음": "CCTV있음",
  "반려동물있음": "반려동물있음",
  "코로나백신": "코로나백신",
  "등본인증": "등본인증",
  "범죄회보조회": "범죄회보조회",
  "인적성검사": "인적성검사",
  "건강진단서": "건강진단서",
  "보육교사": "보육교사(1~3급)",
  "교육인증": "교육인증",
  "교사자격증": "교사자격증",
  "학력인증": "학력인증",
  "베이비시터": "베이비시터",
  "-----캘린더-----": "-----캘린더-----",
  "시간선택요청": "날짜와 시간을 선택해 주세요.",
  "시간추가": "시간 추가",
  "오늘": "오늘",
  "날짜선택요청": "달력의 날짜를 먼저 선택해 주세요.",
  "매주반복해제": "날짜변경을 원하시면,\n매주반복을 해제해주세요.",
  "날짜선택_에러": "하루 이상 선택해주세요.",
  "삭제확인_타이틀": "삭제하시겠습니까?",
  "삭제확인_메세지": "선택된 날짜도 같이 삭제됩니다.\n정말로 삭제하시겠습니까?",
  "돌봄_시간추가에러": "같은 날짜에 다른 시간이 불가능하며,\n시간변경만 가능합니다.",
  "이용시간": "이용시간",
  "돌봄_날짜선택_에러": "돌봄 신청서는 최대 30일까지\n이용할 수 있습니다.",
  "최대1년까지선택할수있습니다.": "최대 1년까지 선택 할 수 있습니다.",
  "시간": "시간",
  "시간추가_에러_중복": "시간이 중복됩니다. 확인해주세요.",
  "시간추가_에러_초과": "시간은 3개까지 추가 가능합니다.",
  "날짜선택_에러_요청": "날짜 수정을 원하시면 날짜 수정 버튼을 눌러주세요.",
  "봉지": "봉지",
  "이메일인증_안내": "실제 사용하는 이메일을 입력 후 메일 전송 버튼을 눌러주세요.\n입력하신 메일주소로 인증메일을 보내드립니다.\n수신 된 메일을 확인 후 인증 버튼을 눌러주세요.",
  "이메일인증_안내_2": "원활한 결제 진행을 위해 이메일 인증이 필요합니다. 이메일 인증을 진행해 주세요.",
  "이메일인증_안내_3": "으로 이메일이 발송되었습니다. 수신 된 메일을 확인 후 인증 버튼을 눌러주세요.",
  "이메일인증하기": "이메일 인증하기",
  "이메일인증_내용": "- 링크쌤은 정산내역, 맘대디는 결제내역을 받아 보실 수 있습니다.\n- 변경된 약관 내용 등을 고지해 드립니다.",
  "이메일인증_메일전송": "메일 전송",
  "계정관리": "계정관리",
  "이메일인증_인증": "이메일이 인증되었습니다.",
  "이메일인증_미인증": "이메일이 인증되지 않았습니다.",
  "이메일인증_변경": "이메일 변경",
  "이메일인증_이메일주소": "이메일 주소",
  "이메일인증_안내_스팸": "(*인증메일이 오지 않았을 경우, 스팸메일함을 확인해 주세요.)",
  "아이등록_생년월일_초과오류": "19세미만의 아이만 등록 가능합니다.",
  "매주반복안내": "매주 반복의 종료날짜를 선택해주세요.",
  "매주반복안내_돌봄": "종료날짜를 선택하지 않으면\n최대30일까지 돌봄날짜가 선택됩니다.",
  "매주반복안내_하이라이트1": "종료날짜",
  "매주반복안내_하이라이트2_돌봄": "최대30일",
  "매주반복안내_하이라이트2_구직": "최대1년",
  "매주반복안내_구직": "종료날짜를 선택하지 않으면\n최대1년까지 돌봄날짜가 선택됩니다.",
  "종료날짜": "종료 날짜",
  "매주반복_에러": "매주반복을 실행할 수 없는 일정입니다.",
  "-----채팅-----": "-----채팅-----",
  "일반": "일반",
  "매너있게대화해주세요": "매너있게 대화해 주세요",
  "매너있게대화해주세요_안내": "서로간의 예의를 지켜 대화해 주세요. 부적절한 대화 및 광고, 불법행위 등이 있을 경우 서비스 사용에 제약이 있을 수 있습니다.\n\n당사자 간 직접 결제, 거래에 대해서는 문제 발생 시 당사에서 조정해드릴 수 없으니 링크맘 앱의 채팅을 통해 안전하게 거래하시기 바랍니다.",
  "수정관련_안내_맘대디_1": "매칭요청, 매칭취소, 결제하기 등의 기능은 좌측 하단의",
  "수정관련_안내_맘대디_2": "계약서 서명 후에는 돌봄 신청서 내용의 수정이 불가합니다. 수정을 원하시면 링크쌤에게 매칭요청 전에 수정해 주세요.",
  "수정관련_안내_맘대디_3": "계약 완료 후 돌봄 비용, 돌봄 일자 등의 수정이 필요하면 새로운 돌봄 신청서를 등록하여 다시 진행해 주세요.",
  "버튼을눌러진행해주세요": "버튼을 눌러 진행해 주세요.",
  "신청서수정": "돌봄 신청서 수정하기",
  "수정관련_안내_링크쌤": "매칭요청, 매칭취소 등의 기능은 하단의",
  "돌봄신청서_공유": "내 돌봄 의뢰하기",
  "돌봄신청서_공유_안내_1": "내 돌봄 신청서가 없습니다.",
  "돌봄신청서_공유_안내_2": "에서 내 신청서를 확인해주세요.",
  "공유하기": "공유하기",
  "매칭요청하기": "매칭 요청하기",
  "매칭취소하기": "매칭 취소하기",
  "돌봄취소하기": "돌봄 취소하기",
  "사진": "사진",
  "돌봄신청서_안내": "원하는 돌봄 신청서를 골라 링크쌤에게 공유해 주세요.",
  "돌봄신청서안내_내용1": "구인 중인 돌봄 신청서만 보여집니다.",
  "돌봄신청서안내_내용2": "최근 등록된 돌봄 신청서 기준으로 최대 10개의 신청서가 보여집니다. ",
  "메시지를입력해주세요.": "메시지를 입력해주세요.",
  "매칭진행_안내": "매칭 진행을 위해 계약서에 서명해 주세요.\n\n돌봄 신청서 내용의 수정이 필요하면 서명전에 수정해주십시오.\n\n계약완료 후에는 돌봄신청서 내용의 수정이 불가능합니다.",
  "돌봄계약서": "돌봄 계약서",
  "돌봄계약서_안내": "본 돌봄 계약서 내용으로 돌봄 활동이 진행되는 것에 동의합니다. 본 돌봄 활동과 관련하여 분쟁 발생 시 거래 당사자 간의 합의를 원칙으로 하며, 합의가 이루어지지 않을 경우 이용약관에 의거하여 처리됩니다.",
  "서명하기_안내": "매칭 진행을 위해 서명해 주세요.",
  "에게": "에게",
  "가": "가",
  "이": "이",
  "과": "과",
  "와": "와",
  "까지": "까지",
  "매칭요청_메시지": "매칭을 요청하였습니다.",
  "매칭을요청": "매칭을 요청",
  "매칭이완료": "매칭이 완료",
  "매칭완료_메시지": "매칭이 완료되었습니다.",
  "서명시한": "서명 시한",
  "결제시한": "결제 시한",
  "돌봄계약서확인": "돌봄 계약서 확인",
  "매칭요청수락_메시지": "매칭 요청에 수락하였습니다.",
  "매칭요청거절_메시지": "매칭 요청에 거절하였습니다.",
  "매칭요청에거절": "매칭 요청에 거절",
  "매칭요청을거절_메시지": "매칭 요청을 거절하였습니다.",
  "매칭요청을거절": "매칭 요청을 거절",
  "매칭거절_메시지": "매칭을\n거절하시겠습니까?",
  "매칭취소하기_안내": "서로간의 약속이므로 일방적인 취소는 자제해주세요.\n취소 시 먼저 상대방의 양해를 구해주세요.",
  "매칭취소하기_취소": "매칭을 취소하시겠습니까?",
  "매칭취소_메시지": "매칭을 취소하였습니다.",
  "매칭이취소_메시지": "매칭이 취소되었습니다.",
  "매칭이취소": "매칭이 취소",
  "매칭응답_메시지": "매칭 요청에 응답이 없습니다.",
  "돌봄취소하기_안내": "서로간의 약속이므로 일방적인 취소는 자제해주세요. 취소 시 먼저 상대방의 양해를 구해주세요.\n\n정산완료, 정산보류, 돌봄이 시작된 돌봄 신청 건은 취소가 불가능합니다.\n\n돌봄 취소 시 취소 시점 기준에 따라 차감환불 및 벌점패널티가 부과됩니다.",
  "거절하기": "거절하기",
  "수락하기": "수락하기",
  "매칭수락하기": "매칭 수락하기",
  "결제완료_메시지": "결제 완료! 돌봄이 확정되었어요.",
  "결제완료_메시지_맘대디_안내": "돌봄이 종료되면 돌봄일기 확인 후 정산해 주세요.",
  "결제완료_메시지_링크쌤_안내": "돌봄활동 후 돌봄일기를 정성껏 작성해 주세요.\n맘대디가 돌봄일기 확인 후 정산이 완료됩니다.",
  "결제완료!": "결제 완료!",
  "결제가완료되었습니다": "결제가 완료되었습니다.",
  "돌봄이확정_맘대디_안내": "맘대디의 결제 완료 후 돌봄이 확정됩니다.",
  "돌봄일정취소_메시지_맘대디": "예정된 돌봄 일정이\n맘대디측의 사유로",
  "돌봄일정취소_메시지_맘대디측": "맘대디측의 사유로",
  "돌봄일정취소_메시지_링크쌤": "예정된 돌봄 일정이\n링크쌤측의 사유로",
  "돌봄일정취소_메시지_링크쌤측": "링크쌤측의 사유로",
  "돌봄일정취소_메시지": "예정된 돌봄 일정이 취소되었습니다.",
  "돌봄일정취소_사유_안내": "취소사유에 문제가 있어 소명이 필요하면",
  "돌봄일정취소_취소시점": "취소 시점 기준으로 취소에 따른 패널티가 부과됩니다.",
  "부분취소": "부분 취소",
  "되었습니다": "되었습니다.",
  "취소내역확인하기": "취소 내역 확인하기",
  "환불규정확인하기": "환불규정 확인하기",
  "개인정보제3자제공동의": "개인정보 제3자 제공 동의",
  "개인정보제공받는자": "개인정보 제공받는자",
  "개인정보제공받는자_내용": "(주)일상의 감동\n매칭 링크쌤",
  "제공목적": "제공 목적",
  "제공목적_내용": "돌봄 활동을 위해 필요한\n개인정보 확인",
  "제공정보": "제공 정보",
  "제공정보_내용": "맘대디 성명, 연락처, 돌봄장소, 주소, 아이정보",
  "보유및이용기간": "보유 및 이용기간",
  "보유및이용기간_내용": "서비스 종료 후 5년후 폐기",
  "채팅삭제_내용": "채팅방을 나가시면 대화내용이 모두 삭제되고\n채팅 목록에서도 삭제됩니다.\n채팅방을 나가시겠습니까?",
  "채팅입력": "메시지를 입력해 주세요.",
  "계약완료": "계약 완료",
  "사진을보냈습니다": "사진을 보냈습니다.",
  "소명내용_안내": "소명 내용을 확인해주세요.",
  "돌봄신청서_수정_메시지_맘대디": "돌봄 신청서가 수정되어\n다시 매칭을 진행해 주셔야 합니다.",
  "돌봄신청서_수정_메시지_맘대디_힌트": "돌봄 신청서가 수정",
  "돌봄신청서_수정_메시지_링크쌤": "돌봄 신청서를 수정하였습니다.",
  "돌봄신청서_수정_메시지_링크쌤_힌트": "돌봄 신청서를 수정",
  "돌봄신청서_수정_메시지_링크쌤_안내": "돌봄 계약서 확인 후 다시 매칭을 진행해 주세요.",
  "계약서확인후서명하기": "계약서 확인 후 서명하기",
  "-----결제하기-----": "-----돌봄취소-----",
  "설정시급": "설정 시급",
  "보유캐시": "보유 캐시",
  "포인트사용안내": "1 포인트 단위로 사용 가능합니다.(1포인트=1원)",
  "캐시사용안내": "1 캐시 단위로 사용가능합니다.(1캐시=1원)",
  "전액사용": "전액 사용",
  "사용안함": "사용 안함",
  "결제내역": "결제 내역",
  "남은결제금액": "남은 결제 금액",
  "최종결제금액": "최종 결제 금액",
  "결제방법": "결제 방법",
  "간편결제(카카오페이)": "간편결제(카카오페이)",
  "계좌이체/무통장입금": "계좌이체/무통장 입금",
  "전체동의_결제": "전체동의",
  "결제대행서비스이용약관동의": "결제대행서비스 이용 약관 동의",
  "구매조건확인및결제진행동의": "구매조건 확인 및 결제 진행 동의",
  "캐시가부족합니다": "캐시가 부족합니다.",
  "결제중입니다": "결제 중입니다...",
  "-----돌봄취소-----": "-----돌봄취소-----",
  "서비스신청내역": "서비스 신청 내역",
  "돌봄신청내역": "돌봄 신청 내역",
  "취소날짜선택": "취소 날짜 선택",
  "취소할날짜": "취소 할 날짜",
  "취소상태": "취소 상태",
  "취소금액": "취소 금액",
  "환불규정": "환불 규정",
  "환불비율": "환불 비율",
  "정산비율": "정산 비율",
  "환불예정금액": "환불 예정 금액",
  "캐시": "캐시",
  "포인트사용": "포인트 사용",
  "캐시사용": "캐시 사용",
  "신용카드": "신용카드",
  "환불내역": "환불 내역",
  "환불_포인트": "환불 포인트",
  "만료_포인트": "만료 포인트",
  "환불_캐시": "환불 캐시",
  "취소내역": "취소 내역",
  "취소날짜": "취소 날짜",
  "보상예정금액": "보상 예정 금액",
  "플랫폼이용료": "플랫폼 이용료(5%)",
  "총보상예정금액": "총 보상 예정 금액",
  "보상금액": "보상 금액",
  "총보상금액": "총 보상 금액",
  "환불금액": "환불 금액",
  "취소날짜를선택해주세요": "취소 날짜를 선택 해주세요",
  "총부과벌점스티커": "총 부과 벌점 스티커",
  "환불예정포인트_안내_1": "사용한 포인트는 결제 취소 시 원복되며, 취소시점 기준 유효기간이 만료된 포인트는 소멸되어 환불되지 않습니다.",
  "환불예정포인트_안내_2": "단, 귀책사유가 링크쌤에게 있을 경우 귀책사유를 확인할 내용과 이미지를 보내주시면 확인 후 환불됩니다.",
  "취소날짜선택_안내_맘대디_1": "결제일로 부터 영업일 기준 00일 이내의 환불은 결제했던 수단으로 환불되며 00일 이후의 환불은 캐시로 환불 됩니다.",
  "취소날짜선택_안내_맘대디_2": "링크쌤측 사유로 취소 시, 링크쌤에게 취소 시점 기준 3차례에 거쳐 관리자가 소명요청을 하였음에도 소명이 없을 경우 맘대디에게 환불해 드립니다.",
  "취소날짜선택_안내_맘대디_3": "단, 링크쌤의 소명이 있을 경우 소명 완료 시점 기준 48시간 이내에 사실 관계 확인 후 합의된 내용으로 환불 및 정산이 진행됩니다.",
  "취소날짜선택_안내_맘대디_1_힌트": "영업일 기준 00일",
  "취소날짜선택_안내_맘대디_2_힌트": "소명이 없을 경우",
  "취소날짜선택_안내_맘대디_3_힌트": "링크쌤의 소명이 있을 경우",
  "취소날짜선택_안내_링크쌤_1": "취소사유가 본인에게 있을 경우 환불 규정에 따라 취소 시점 기준으로 벌점패널티가 부과되며 취소금액을 맘대디에게 환불해 드립니다.",
  "취소날짜선택_안내_링크쌤_2": "맘대디측 사유로 취소 시, 맘대디에게 취소 시점 기준 3차례에 거쳐 관리자가 소명요청을 하였음에도 소명이 없을 경우 링크쌤에게 정산해 드립니다.",
  "취소날짜선택_안내_링크쌤_3": "단, 맘대디의 소명이 있을 경우 소명 완료 시점 기준 48시간 이내에 사실 관계 확인 후 합의된 내용으로 정산 및 환불이 진행됩니다.",
  "취소날짜선택_안내_링크쌤_1_힌트": "벌점패널티가 부과",
  "취소날짜선택_안내_링크쌤_2_힌트": "소명이 없을 경우",
  "취소날짜선택_안내_링크쌤_3_힌트": "맘대디의 소명이 있을 경우",
  "취소사유내역": "취소 사유 내역",
  "취소사유를선택해주세요": "취소 사유를 선택해 주세요",
  "맘대디(본인)": "맘대디(본인) 사유",
  "취소사유선택_맘대디_안내1": "맘대디(본인) 사유 : 환불규정에 따라 취소 시점 기준 환불비율로 환불됩니다.",
  "링크쌤귀책사유": "링크쌤(상대방) 사유",
  "취소사유선택_맘대디_안내2": "링크쌤(상대방) 사유 : 링크쌤에게 취소 시점 기준 3차례에 거쳐 관리자가 소명요청을 하였음에도 소명이 없을 경우 맘대디에게 환불해 드립니다.",
  "취소사유선택_맘대디_안내3": "단, 링크쌤의 소명이 있을 경우 소명 완료 시점 기준 48시간 이내에 사실 관계 확인 후 합의된 내용으로 환불 및 정산이 진행됩니다.",
  "링크쌤(본인)": "링크쌤(본인) 사유",
  "취소사유선택_링크쌤_안내1": "링크쌤(본인) 사유 : 환불 규정에 따라 취소 시점 기준으로 벌점패널티가 부과됩니다.",
  "맘대디귀책사유": "맘대디(상대방) 사유",
  "취소사유선택_링크쌤_안내2": "맘대디(상대방) 사유 : 맘대디에게 취소 시점 기준 3차례에 거쳐 관리자가 소명요청을 하였음에도 소명이 없을 경우 링크쌤에게 정산해 드립니다.",
  "취소사유선택_링크쌤_안내3": "단, 맘대디의 소명이 있을 경우 소명 완료 시점 기준 48시간 이내에 사실 관계 확인 후 합의된 내용으로 정산 및 환불이 진행됩니다.",
  "취소사유변경": "취소 사유를 변경 하시겠습니까?",
  "취소사유변경_안내": "사유가 변경되면 취소날짜를 다시 선택해야합니다.",
  "맘대디측사유": "맘대디 측 사유",
  "맘대디_취소사유_1": "돌봄 필요한 일정이 바뀌었어요.",
  "맘대디_취소사유_2": "링크쌤과 돌봄 성향이 맞지 않아요.",
  "맘대디_취소사유_3": "질병, 사고 등으로 인해 서비스 이용이 어려워요.",
  "맘대디_취소사유_4": "더 이상 돌봄이 필요 없어 졌어요.",
  "맘대디_취소사유_5": "링크쌤이 취소를 요청해 왔어요.",
  "맘대디_취소사유_6": "돌봄 당일 연락없이 출근하지 않았어요.",
  "맘대디_취소사유_7": "질병, 사고 등으로 인해 서비스 제공이 어려워요.",
  "링크쌤측사유": "링크쌤 측 사유",
  "링크쌤_취소사유_1": "돌봄 필요한 일정이 바뀌었어요.",
  "링크쌤_취소사유_2": "맘대디와 돌봄 성향이 맞지 않아요.",
  "링크쌤_취소사유_3": "질병, 사고 등으로 인해 서비스 제공이 어려워요.",
  "링크쌤_취소사유_4": "당분간 돌봄 활동을 하지 않을 생각이에요.",
  "링크쌤_취소사유_5": "맘대디가 취소를 요청해 왔어요.",
  "링크쌤_취소사유_6": "돌봄 당일 미리 연락없이 아이를 맡기지 않았어요.",
  "링크쌤_취소사유_7": "질병, 사고 등으로 인해 서비스 이용이 어려워요.",
  "취소사유_맘대디_안내": "링크쌤 측 원인으로 취소 요청하는 경우 상세 취소 사유를 꼭 입력해 주세요. 사실 여부 확인을 위해 취소 사유는 상대 링크쌤에게도 전송됩니다.",
  "취소사유_링크쌤_안내": "맘대디 측 원인으로 취소 요청하는 경우 상세 취소 사유를 꼭 입력해 주세요. 사실 여부 확인을 위해 취소 사유는 상대 맘대디에게도 전송됩니다.",
  "취소사유_안내_맘대디힌트": "상대에 대한 감정적인 마음과 미흡한 돌봄의 이유는 상대방 사유로 취소 될 수 없습니다.",
  "취소사유_안내_링크쌤힌트": "상대에 대한 감정적인 이유는 상대방 사유로 취소 될 수 없습니다.",
  "소명하기_안내1": "취소사유에 대한 ",
  "취소신청하기_안내": "돌봄 취소 신청한 내용은 수정되지 않습니다.\n\n정말 취소 하시겠습니까?",
  "취소신청하기": "취소 신청하기",
  "합계": "합 계",
  "돌봄취소안내": "돌봄 취소 안내",
  "돌봄취소안내_안내_맘대디_1": "맘대디 사유로 돌봄 시작 시간 6시간 이내 취소 시 환불이 불가하며, 돌봄비용 전액이 링크쌤에게 지급됩니다. (수수료 차감 후 지급)",
  "돌봄취소안내_안내_맘대디_2": "맘대디 사유로 취소 시 취소 시점 기준에 따라 맘대디가 환불 받을 금액을 제외한 차액이 링크쌤에게 지급됩니다. (수수료 차감 후 지급)",
  "돌봄취소안내_안내_맘대디_3": "링크쌤 사유로 취소 시 취소 시점 기준에 따라 링크쌤에게 벌점패널티가 부과되며, 돌봄이 종료된 일정을 제외한 전액이 맘대디에게 환불됩니다.",
  "돌봄취소안내_안내_맘대디_4": "링크쌤 사유로 취소 시 받은 벌점 스티커 수에 따라 활동에 제약이 있을 수 있습니다.",
  "돌봄취소안내_안내_맘대디_5": "상대방 사유로 취소 시 취소 사유와 상대방의 소명내용에 대한 사실 관계 확인 후 환불 혹은 정산이 진행됩니다.",
  "돌봄취소안내_안내_맘대디_6": "결제일로 부터 1년 이내의 환불은 결제했던 수단으로 환불되며, 취소 요청일로 부터 7일 이내에 환불처리됩니다.",
  "돌봄취소안내_안내_링크쌤_1": "링크쌤 사유로 취소 시 취소 시점 기준에 따라 링크쌤에게 벌점패널티가 부과되며, 돌봄이 종료된 일정을 제외한 전액이 맘대디에게 환불됩니다.",
  "돌봄취소안내_안내_링크쌤_2": "링크쌤 사유로 취소 시 받은 벌점 스티커 수에 따라 활동에 제약이 있을 수 있습니다.",
  "돌봄취소안내_안내_링크쌤_3": "맘대디 사유로 돌봄 시작 시간 6시간 이내 취소 시 환불이 불가하며, 돌봄비용 전액이 링크쌤에게 지급됩니다. (수수료 차감 후 지급)",
  "돌봄취소안내_안내_링크쌤_4": "맘대디 사유로 취소 시 취소 시점 기준에 따라 맘대디가 환불 받을 금액을 제외한 차액이 링크쌤에게 지급됩니다. (수수료 차감 후 지급)",
  "돌봄취소안내_안내_링크쌤_5": "상대방 사유로 취소 시 취소 사유와 상대방의 소명내용에 대한 사실 관계 확인 후 환불 혹은 정산이 진행됩니다.",
  "돌봄취소안내_6시간": "6시간 이내 취소 시 환불이 불가",
  "돌봄취소안내_받은벌점": "받은 벌점 스티커 수에 따라 활동에 제약",
  "돌봄취소안내_맘대디사유취소": "맘대디 사유로 취소 시",
  "돌봄취소안내_링크쌤사유로취소": "링크쌤 사유로 취소 시",
  "돌봄취소안내_상대방사유로취소": "상대방 사유로 취소 시",
  "돌봄취소안내_결제했던수단": "결제했던 수단으로 환불",
  "벌점스티커자세히보기": "벌점 스티커 자세히보기",
  "맘대디사유취소요청시": "[맘대디 사유] 취소 요청 시",
  "돌봄시작시간": "돌봄 시작시간",
  "불가": "불가",
  "환불": "환불",
  "이상": "이상",
  "미만": "미만",
  "시작전": "시작 전",
  "시작후": "시작 후",
  "100%취소보상": "돌봄비용\n100% 취소 보상",
  "80%취소보상": "돌봄비용\n80% 취소 보상",
  "50%취소보상": "돌봄비용\n50% 취소 보상",
  "취소보상없음": "돌봄비용\n취소 보상 없음",
  "취소보상": "취소 보상",
  "링크쌤사유취소요청시": "[링크쌤 사유] 취소 요청 시",
  "포인트환불안내": "포인트 환불 안내",
  "취소신청완료": "취소 신청 완료",
  "돌봄취소신청이완료되었습니다": "돌봄 취소 신청이 완료되었습니다.",
  "-----벌점스티커-----": "-----벌점스티커-----",
  "벌점스티커": "벌점 스티커",
  "내가받은벌점": "내가 받은 벌점",
  "후기블록": "후기 블록",
  "사용중지": "사용 중지",
  "-----마이페이지-----": "-----마이페이지-----",
  "나의성향": "나의 성향",
  "관심목록": "관심 목록",
  "후기관리": "후기 관리",
  "고객센터": "고객 센터",
  "버전정보": "버전 정보",
  "맘대디_1_안내_1": "정산 금액 20만원 이상 &",
  "맘대디_1_안내_2": "상대방에게 남긴 좋아요 5건 이상",
  "맘대디_2_안내_1": "정산 금액 50만원 이상 &",
  "맘대디_2_안내_2": "상대방에게 남긴 좋아요 10건 이상",
  "맘대디_3_안내_1": "정산 금액 100만원 이상 &",
  "맘대디_3_안내_2": "상대방에게 남긴 좋아요 20건 이상",
  "링크쌤_1_안내_1": "정산 받은 금액 20만원 이상 &",
  "링크쌤_1_안내_2": "내가 받은 좋아요 5건 이상",
  "링크쌤_2_안내_1": "정산 받은 금액 50만원 이상 &",
  "링크쌤_2_안내_2": "내가 받은 좋아요 10건 이상",
  "링크쌤_3_안내_1": "정산 받은 금액 100만원 이상 &",
  "링크쌤_3_안내_2": "내가 받은 좋아요 20건 이상",
  "20만원": "20만원",
  "5건": "5건",
  "50만원": "50만원",
  "10건": "10건",
  "100만원": "100만원",
  "20건": "20건",
  "직업_0": "전업 맘/대디",
  "직업_1": "워킹 맘/대디",
  "직업_2": "출산휴가/육아휴직",
  "직업_3": "프리랜서/부업/파트타임",
  "직업_4": "자영업",
  "직업_5": "전문직/강사",
  "직업_6": "대학생",
  "직업_7": "미취업자/취준생",
  "직업_99": "미등록",
  "전혀": "전혀 없다",
  "가끔": "종종 그렇다",
  "상당히자주": "항상 그렇다",
  "날짜수정": "날짜수정",
  "마이페이지": "마이페이지",
  "우리아이": "우리아이",
  "현재버전": "현재버전",
  "인증센터_코로나": "코로나 자가진단",
  "인증센터_스트레스": "스트레스 검사",
  "인증센터_인적성": "인적성 검사",
  "미완료": "미완료",
  "나의성향_안내": "링크맘에서 만든 성향 테스트 입니다. 성향 테스트를 하시면  나와 맞는 돌보미(링크쌤)를 매칭해 드립니다.",
  "나의성향_완료": "성향 테스트가 완료되었습니다.",
  "나의성향_매칭안내": "성향이 비슷한 링크쌤으로 \n빠르게 매칭을 해드리겠습니다.",
  "--인증센터--": "--인증센터--",
  "예시이미지": "예시 이미지",
  "인증배지부여": "* 이 중 한 개만 등록 하셔도 인증 배지 부여",
  "발급방법": "발급 방법",
  "개인정보처리동의": "개인정보 처리방침 동의",
  "인증신청": "인증 신청",
  "사진등록": "사진 등록",
  "스트레스검사_안내": "나의 육아 스트레스를 테스트합니다.",
  "테스트시작": "테스트 시작",
  "다시하기": "다시하기",
  "나의점수": "나의 점수",
  "평가기준": "평가 기준",
  "1점이상": "5~8점",
  "9점이상": "9~14점",
  "18점이상": "15점 이상",
  "스트레스_낮음": "스트레스 낮음",
  "스트레스_보통": "스트레스 보통",
  "스트레스_심함": "스트레스 심함",
  "스트레스_낮음_안내": "평안한 스트레스 상태여서\n아이 돌봄이 충분히 가능해요!",
  "스트레스_낮음_안내_설명": "심리적으로 안정되어 있으셔서 \n아이를 돌보다 스트레스를 받으시더라도\n스스로 관리할 수 있는 일상적인 수준입니다.",
  "스트레스_보통_안내": "긍정적 스트레스 상태여서\n아이 돌봄이 가능해요!",
  "스트레스_보통_안내_설명": "아이를 돌보며 건강한 일상생활을 유지하기\n위해서는 긍정적인 생각과 운동, 취미생활 등\n자신만의 스트레스 대응책이 필요합니다.",
  "스트레스_심함_안내": "높은 수준의 스트레스 상태로\n지금은 휴식이 필요합니다!",
  "스트레스_심함_안내_설명": "지금 상태가 지속된다면 불안과 우울을\n일으키는 나쁜 스트레스 결과가 나타날 수 있으니\n전문가의 상담을 통해 관리하시길 권합니다.",
  "스트레스_출처": "출처:BEPSI-K 스트레스 자가진단 척도",
  "스트레스_재검사안내": "스트레스 검사는 6개월 한번 재검사를 진행합니다.",
  "주민번호안내": "- 개인정보 보호를 위해 주민번호 뒷자리는 미포함 발급 또는 뒷자리를 가린 후 제출합니다.",
  "주민번호안내_하이라이트": "주민번호 뒷자리는 미포함 발급 또는 뒷자리를 가린 후 제출",
  "폐기안내": "- 서류는 확인 후 보관하고 탈퇴 시 폐기합니다.",
  "발급일안내": "-  발급일로 부터 6개월 이내 유효합니다.",
  "발급일안내_1년": "-  발급일로 부터 1년 이내 유효합니다.",
  "건강인증_타이틀": "나의 건강에 대한 확인서를\n사진으로 찍어서 제출해 주세요.",
  "건강인증_1": "가까운 병원 또는 보건소를 방문 (신분증 필수 지참)",
  "건강인증_2": "건강진단결과서(보건증)으로 검사를 받는다.",
  "건강인증_3": "검사를 받은 후 약 3~5일 후 방문, 우편, 인터넷 발급으로\n받을 수 있습니다.\n(인터넷 발급은 보건소 홈페이지, 공공보건포털, 정부24)",
  "건강인증_코로나": "* 코로나 백신 접종 후 질병관리청에서 발급이 가능합니다.",
  "교육인증_타이틀": "온,오프라인으로 수강한 수료증을\n사진으로 찍어서 제출해 주세요.",
  "등본인증_타이틀": "주민등록 등본을\n사진으로 찍어서 제출해 주세요.",
  "경력인증_타이틀": "경력증명서 또는 자격증을\n사진으로 찍어서 제출해 주세요.",
  "학력인증_타이틀": "전공을 확인 할 수 있는 증명서를 사진으로 찍어서 제출해 주세요.",
  "인적성_타이틀": "현재 돌봄활동이 가능한지\n검사를 진행해 주세요.",
  "주민등록등본": "주민등록 등본",
  "체크사항": "체크사항",
  "본인_이름및주민번호": "본인의 이름 주민번호 앞자리를 입력해 주세요.",
  "본인이름": "본인 이름",
  "주민번호앞자리": "주민번호 앞자리",
  "주소입력요청": "현재 거주하는 주소를 입력해 주세요.",
  "상세주소입력요청": "상세주소를 입력해 주세요.",
  "자녀_이름및주민번호": "자녀의 정보를 입력해 주세요.",
  "자녀이름": "자녀이름",
  "등본일치확인": "* 등본에 적혀 있는 내용과 입력하신 내용이 일치하는지 확인합니다.",
  "코로나_자가_진단": "코로나 자가 진단",
  "모두_아니오": "모두 아니오",
  "자가_진단_완료": "자가 진단 완료",
  "코로나_증상_의심": "★ 코로나 증상 의심 ★",
  "코로나_증상_의심_안내": "코로나 증상이 있는 부분이 체크 되었습니다.\n증상이 있다면, 아이와 만나는 약속은\n미루거나 취소해 주세요!",
  "다시확인하기": "다시확인하기",
  "인적성_안내_시간제한": "- 본 검사는 시간이 정해져 있습니다.",
  "인적성_안내_재응시": "- 1번 응시 후 재응시는 6개월에 한번 가능합니다.",
  "인적성_안내_불이익": "- 본인 외 타인이 검사할 경우 불이익은 본인의 책임입니다.",
  "링크쌤_인적성_검사": "[링크쌤 인적성 검사]",
  "링크쌤_인적성_검사_안내": "링크쌤의 돌봄 활동이 적합성과 응답률의 신뢰도를 종합하여 기준 점수를 통과하면 뱃지를 부여해 드립니다.",
  "인적성_검사_시작": "인적성 검사 시작",
  "필수": "필수",
  "이용약관": "이용약관",
  "비밀번호변경_완료": "비밀번호 변경이 완료되었습니다.\n",
  "비밀번호변경_재로그인": "다시 로그인 해주세요.",
  "웰컴포인트": "웰컴포인트",
  "웰컴포인트_안내": "실제 사용하는 이메일 주소를 입력해 주세요. \n해당 이메일 주소로 웰컴포인트를 보내드립니다.",
  "시간확인": "선택한 시간을 확인해 주세요.",
  "서비스알림": "서비스 알림",
  "맘대디알림": "맘대디 알림",
  "링크쌤알림": "링크쌤 알림",
  "돌봄신청서알림": "돌봄 신청서 알림",
  "링크쌤지원서알림": "링크쌤 지원서 알림",
  "이벤트알림": "이벤트 및 마케팅 알림",
  "알림_안내": "중요 공지 및 알림 등은 설정에 관계없이 발송됩니다.",
  "민감정보동의": "민감정보 수집/이용 동의",
  "범죄이력조회_타이틀": "범죄이력 조회는\n아래와 같이 진행해주세요.",
  "유효기간_안내": "-  조회 후 유효기간 1년이며, 1년 후 재검사합니다.",
  "범죄이력_조회_동의서": "범죄이력 조회 동의서",
  "숫자만입력": "숫자만 입력해주세요",
  "연락처": "연락처",
  "동의자": "동의자",
  "동의서제출": "동의서 제출",
  "범죄이력_조회_동의안내": "본인은 링크쌤 취업예정자로서,「아동ㆍ청소년의 성보호에 관한 법률」제56조 및 같은 법 시행령 제25조에 따른 성범죄경력 조회에 동의합니다.",
  "범죄이력_조회_개인정보안내": "1. 개인정보 수집항목: 성명, 주민등록번호(외국인의 경우 외국인등록번호 및 국적) \n2. 개인정보 제공 거부에 따른 제한사항: 귀하는 개인정보 제공 동의를 거부할 권리가 있으나, 동의 거부 시에는 취업에 제한을 받을 수 있습니다.\n3. 개인정보의 수집ㆍ이용 목적: 수집된 개인정보는 아동 성범죄 및 학대관련 범죄여부 조회 신청 등을 위하여 사용됩니다.\n4. 동의자가 2인 이상일 경우에는 뒤쪽에 일괄하여 작성할 수 있습니다.",
  "등본인증_팝업": "서로의 신뢰도를 위해 현재 살고 있는 주소, 본인이름, 주민번호 앞자리, 자녀정보를 확인합니다. 날짜가 임박한 등본을 제출했을 경우, 반려처리 될 수 있으니 최근 날짜의 등본으로 제출 부탁드립니다.",
  "범죄인증_팝업": "아동 성범죄 및 학대관련 범죄여부 조회 목적으로 범죄이력조회 동의서를 제출하시면 경찰서에 가서 직접 확인합니다. (직접 확인하는 부분이기에 약 2주일 정도 소요 됩니다.)",
  "교육인증_팝업": "개인이 유아 관련 교육을 듣고 받은 수료증을 확인합니다.\n\n - 교육 수료증 : 베이비시터 교육, 응급처치교육, 안전사고 등\n - 심리 자격증 : 아동 심리 치료사(언어, 발달, 미술 등) \n - 그외 자격증 : 손유희, 동화구연 등",
  "학력인증_팝업": "전문 분야 관련 전공을 확인합니다.",
  "경력인증_팝업": "유아 관련 경력에 대한 자격증이 있는지 확인하는 목적입니다.\n\n- 보육교사 자격증 : 1급~3급\n- 교사 자격증 : 유치원 정교사 자격증, 초등학교 정교사 자격증\n- 유아 특수 교사 : 장애영유아 보육교사 등\n- 유아 예체능 교서 : 체육, 음악, 미술 등 예체능 관련 유아 자격증",
  "건강인증_팝업": "각종 질병, 전염병에 대한 항목을 체크합니다.(세균성이질, 장티푸스, 전염성피부질환, 콜레라, 폐결핵 그외 코로나 등 유행성 전염병 등)",
  "집안인증_팝업": "집안 환경 등록 시, 신뢰도가 높아지므로\n매칭이 더 잘 될 수 있습니다.",
  "서명완료": "서명을 완료했습니다",
  "인증받기": "인증 받기",
  "허위서류_안내": "제출 서류가 허위 사실임이 밝혀질 경우,\n제출한 본인이 법적 책임을 지어야 합니다.",
  "응급처치교육안전사고": "응급 처치 교육 / 안전 사고",
  "아동심리치료사": "아동 심리 치료사",
  "그외자격증": "그 외 자격증",
  "재학휴학재적증명서": "재학/휴학/재적 증명서",
  "졸업증명서": "졸업 증명서",
  "백신접종확인서": "백신 접종 확인서",
  "건강진단결과서": "건강진단결과서(보건증)",
  "유치원정교사": "유치원 정교사",
  "초등학교정교사": "초등학교 정교사",
  "유아특수교사": "유아 특수 교사",
  "유아예체능교사": "유아 예체능 교사",
  "성명": "성명",
  "주민등록번호": "주민등록번호",
  "돌봄신청서_기간안내": "돌봄 신청서는 최대 30일까지 이용할 수 있습니다.",
  "로그아웃": "로그아웃",
  "탈퇴하기": "탈퇴하기",
  "투약의뢰서_최대갯수": "3개까지 추가할 수 있습니다.",
  "누락된정보확인": "누락된 정보가 없는 지 확인해 주세요.",
  "새비밀번호": "새 비밀번호",
  "휴대폰번호변경": "휴대폰 번호 변경",
  "최대1년": "(최대 1년)",
  "자녀": "자녀",
  "차단관리": "차단 관리",
  "내가받은후기": "내가 받은 후기",
  "맘대디_부모님": "맘대디\n(부모님)",
  "링크쌤_돌보미": "링크쌤\n(돌보미)",
  "전체보기": "전체 보기",
  "찜한목록": "찜한 목록",
  "지난돌봄목록": "지난 돌봄 목록",
  "낮음": "낮음",
  "보통": "보통",
  "심함": "심함",
  "점": "점",
  "로그아웃안내": "로그아웃하시겠습니까?",
  "자가진단항목": "자가 진단 항목",
  "가입날짜": "가입 날짜",
  "찜한링크쌤": "찜 한 링크쌤",
  "찜한맘대디": "찜 한 맘대디",
  "날짜가지난돌봄": "날짜가 지난 돌봄입니다.",
  "투약예정": "투약예정",
  "차단해제": "차단해제",
  "차단이해제되었습니다": "차단이 해제 되었습니다.",
  "스트레스검사": "스트레스 검사",
  "1개월전": "1개월 전",
  "1개월후": "1개월 후",
  "2개월전": "2개월 전",
  "2개월후": "2개월 후",
  "3개월전": "3개월 전",
  "3개월후": "3개월 후",
  "날짜선택": "날짜 선택",
  "예정된돌봄일정이없어요": "예정된 돌봄 일정이 없어요.",
  "최대3개월단위로조회": "최대 3개월 단위로 조회하실 수 있습니다.",
  "날짜를선택해주세요": "날짜를 선택해주세요(최근 1년간의 기간 조회 가능)",
  "최대3개월단위로조회가능": "• 최대 3개월 단위로 조회 가능",
  "조회하기": "조회하기",
  "최소한개는선택되어야합니다": "최소 한 개는 선택되어야 합니다",
  "상세조회": "상세 조회",
  "조회기간": "조회 기간",
  "돌봄관리": "돌봄 관리",
  "내신청서": "내 신청서",
  "구인중": "구인중",
  "구인종료": "구인종료",
  "돌봄예정": "돌봄예정",
  "돌봄중": "돌봄 중",
  "돌봄종료": "돌봄 종료",
  "돌봄취소": "돌봄 취소",
  "나에게지원한": "나에게 지원한",
  "내가지원한": "내가 지원한",
  "내돌봄신청서가없어요": "내 돌봄 신청서가 없어요.",
  "마음에드는링크쌤을": "마음에 드는 링크쌤을 찾아보세요!",
  "매칭진행상황": "매칭 진행 상황",
  "후기남기기": "후기 남기기",
  "내가남긴후기": "내가 남긴 후기",
  "맘대디의후기를작성해주세요": "맘대디의 후기를 작성해 주세요",
  "링크쌤의후기작성이완료되었습니다": "링크쌤의 후기 작성이 완료되었습니다",
  "차단된계정": "차단된 계정",
  "완료된후기총": "완료된 후기 총 ",
  "개가있습니다": "개가 있습니다.",
  "작성안된후기총": "작성 안된 후기 총 ",
  "작성된후기가없습니다": "작성된 후기가 없습니다",
  "맘대디에게후기를요청해주세요": "맘대디에게 후기를 요청해 주세요",
  "총후기": "총 후기",
  "좋아요": "좋아요",
  "1개월": "1개월",
  "2개월": "2개월",
  "3개월": "3개월",
  "6개월": "6개월",
  "구인중_설명": "구인 중 : 맘대디가 링크쌤을 찾고 있는 돌봄 신청건",
  "구인종료_설명": "구인 종료 : 맘대디가 더 이상 구인을 하지 않는 돌봄 신청건",
  "나에게지원한_설명": "나에게 지원한 : 나에게 돌봄 활동을 요청한 돌봄 건",
  "내가지원한_설명": "내가 지원한 : 내가 먼저 돌봄 활동 가능 의사를 표시한 돌봄 건",
  "돌봄예정_설명": "돌봄예정 : 돌봄 시작 전",
  "돌봄중_설명": "돌봄 중 : 돌봄 시작 ~돌봄 종료 전",
  "돌봄종료_설명": "돌봄 종료 : 돌봄일이 지나 돌봄이 종료된 것",
  "돌봄취소_설명": "돌봄 취소 : 돌봄이 취소된 것",
  "정산_금액": "정산 금액",
  "맘대디에게후기를남겨주세요": "맘대디에게 후기를 남겨주세요",
  "링크쌤이마음에드셨다면": "링크쌤에게 후기를 남겨주세요",
  "근무관리": "근무 관리",
  "지원내역": "지원내역",
  "돌봄진행상황": "돌봄 진행 상황",
  "지원주체": "지원 주체",
  "돌봄일기": "돌봄일기",
  "돌봄서비스가예정되어있습니다": "돌봄 서비스가 예정되어 있습니다.",
  "돌봄서비스가진행중입니다": "돌봄 서비스가 진행 중 입니다.",
  "돌봄서비스가종료되었습니다": "돌봄 서비스가 종료되었습니다.\n돌봄일기를 확인해 주세요.",
  "돌봄서비스가취소되었습니다": "돌봄 서비스가 취소되었습니다.",
  "나의서명을기다리고있어요": "나의 서명을 기다리고 있어요.\n매칭 성공을 위해 계약서에 서명해 주세요.",
  "매칭이되지않았네요_맘대디": "매칭이 되지 않았네요. 새로운 링크쌤을 찾아보세요!",
  "맘대디가": "맘대디가",
  "미결제시매칭이취소됩니다": "미결제 시 매칭이 취소됩니다.",
  "결제가진행되지않아매칭이취소되었습니다": "결제가 진행되지 않아 매칭이 취소되었습니다.",
  "매칭이취소되었네요_맘대디": "매칭이 취소되었네요. 새로운 링크쌤을 찾아보세요!",
  "매칭이취소되었네요_링크쌤": "매칭이 취소되었네요. 새로운 맘대디를 찾아보세요!",
  "결제가완료되어돌봄이확정되었습니다": "결제가 완료되어 돌봄이 확정되었습니다.",
  "매칭중": "매칭 중",
  "매칭실패": "매칭 실패",
  "매칭취소": "매칭 취소",
  "매칭대기": "매칭 대기",
  "매칭성공": "매칭 성공",
  "결제완료": "결제완료",
  "결제하기": "결제하기",
  "결제대기": "결제대기",
  "결제실패": "결제 실패",
  "나에게지원": "나에게 지원",
  "내가지원": "내가 지원",
  "삭제하기": "삭제하기",
  "신고하기": "신고하기",
  "신고완료": "신고 완료",
  "차단하기": "차단하기",
  "내역이없습니다": "내역이 없습니다.",
  "협의된업무불이행": "협의된 업무 불이행",
  "약속된근무시간불이행": "약속된 근무시간 불이행",
  "돌봄당일노쇼": "돌봄 당일 No-show (예약 불이행/연락두절)",
  "협의되지않은추가비용요구": "협의되지 않은 추가비용 요구",
  "협의된비용의일방적인할인요구": "협의된 비용의 일방적인 할인 요구",
  "협의되지않은추가업무요구": "협의되지 않은 추가업무 요구",
  "추가시간업무에따른비용미지급": "추가시간 업무에 따른 비용 미지급",
  "링크맘외의거래결제유도": "링크맘 외의 거래, 결제유도 (보상 포인트 지급)",
  "폭언": "폭언",
  "폭행": "폭행",
  "광고홍보": "광고/홍보",
  "음란부적절한대화": "음란/부적절한 대화",
  "기타_신고항목추가요청": "기타 (신고항목 추가요청)",
  "신고하기_힌트": "신고항목 추가요청을 원하시거나, 보상 포인트 지급이 필요한 신고항목은 내용과 대화내용 캡쳐 이미지 등을 올려주세요.",
  "신고사유를선택해주세요": "신고사유를 선택해 주세요.",
  "신고접수가완료되었습니다": "신고 접수가 완료되었습니다.",
  "돌봄신청건이없어요": "지원한 돌봄 신청건이 없어요.",
  "원하는맘대디를": "원하는 근무조건의 맘대디를 찾아보세요!",
  "매칭취소가접수되어매칭이취소되었습니다": "매칭 취소가 접수되어 매칭이 취소되었습니다.",
  "맘대디찾기": "맘대디 찾기",
  "링크쌤찾기": "링크쌤 찾기",
  "맘대디에게결제요청하기": "맘대디에게 결제요청하기",
  "서명요청하기": "서명 요청하기",
  "결제대기중일경우맘대디에게": "결제 대기 중일 경우 맘대디에게 결제요청 메시지를 보내보세요.",
  "상대방의서명을기다리고있어요": "상대방의 서명을 기다리고 있어요.",
  "나에게지원한맘대디": "나에게 지원한 맘대디",
  "내가지원한맘대디": "내가 지원한 맘대디",
  "차단하시겠습니까": "님을 차단하시겠습니까?",
  "맘대디를차단하시겠습니까": "맘대디를 차단하시겠습니까?",
  "맘대디차단_안내": "차단하시면 상대방의 돌봄신청서가 보이지 않습니다. 또한, 차단한 상대방과는 채팅이 불가능합니다.",
  "링크쌤을차단하시겠습니까": "링크쌤을 차단하시겠습니까?",
  "링크쌤차단_안내": "차단하시면 상대방의 링크쌤 지원서가 보이지 않습니다. 또한, 차단한 상대방과는 채팅이 불가능합니다.",
  "매칭이되지않았네요_링크쌤": "매칭이 되지 않았네요. 새로운 맘대디를 찾아보세요!",
  "결제를진행해주세요": "결제를 진행해 주세요.",
  "링크쌤내역을삭제하시겠습니까": "링크쌤 내역을 삭제하시겠습니까?",
  "맘대디내역을삭제하시겠습니까": "맘대디 내역을 삭제하시겠습니까?",
  "아직매칭요청을안하셨네요": "아직 매칭요청을 안하셨네요",
  "상대방이마음에드셨다면": "상대방이 마음에 드셨다면 먼저 매칭 요청을 해보세요!",
  "돌봄일기안내_맘대디_1": "돌봄일기는 링크쌤이 작성하는 돌봄활동일지로, 돌봄이 시작되면 링크쌤이 작성할 수 있습니다.",
  "돌봄일기안내_맘대디_강조": "링크쌤이 작성하는 돌봄활동일지로",
  "돌봄일기안내_맘대디_2": "돌봄일기가 작성되면 확인 후 링크쌤에게 정산을 진행해 주세요.",
  "링크쌤의후기를작성해주세요": "링크쌤에게 후기를 작성해 주세요",
  "링크쌤이나에게남긴후기에요": "링크쌤이 나에게 남긴 후기에요",
  "링크쌤에게후기를요청해주세요": "링크쌤에게 후기를 요청해 주세요",
  "현재비밀번호": "현재 비밀번호",
  "맘대디가링크쌤의돌봄활동에대해남겨주는좋아요입니다": "맘대디가 링크쌤의 돌봄활동에 대해 남겨주는 좋아요입니다.",
  "돌봄일기_투약완료": "투약의뢰서 확인 후 투약완료",
  "돌봄일기_투약하기": "투약의뢰서 확인 후 투약하기",
  "진행한돌봄에체크하기": "진행한 돌봄에 체크하기",
  "돌봄일기_힌트": "아이가 어떻게 지냈을까요?",
  "돌봄일기_힌트_1": "· 아이와 활동했던 사진과 돌봄활동 내용 혹은 맘대디에게\n전하고 싶은 이야기를 작성해주세요.\n· 사진은 필수로 꼭 등록해주세요.",
  "돌봄일기_링크쌤_돌봄확인": "진행한 돌봄 항목에 체크해 주세요!",
  "돌봄일기_맘대디_돌봄확인": "체크된 항목의 돌봄을 진행했어요!",
  "완료": "완료",
  "돌봄시작": "돌봄 시작",
  "정산하기": "정산하기",
  "정산완료": "정산 완료",
  "정산예정": "정산 예정",
  "정산보류": "정산 보류",
  "정산보류중": "정산보류 중",
  "정산대기": "정산 대기",
  "수정하기": "수정하기",
  "전체완료": "전체완료",
  "소명하기": "소명하기",
  "소명하기_맘대디": "링크쌤의 돌봄 취소 사유에 대한 소명을 해주시기 바랍니다.  증거자료가 될 수 있는 사진, 캡쳐 이미지 등을 첨부해 주셔야 소명 시 유리합니다.",
  "소명하기_맘대디2": "사실 관계 확인을 위해 소명내용은 링크쌤에게도 전송됩니다.",
  "소명하기_링크쌤": "맘대디의 취소요청에 대한 소명을 해주시기 바랍니다.  증거자료가 될 수 있는 사진, 캡쳐 이미지 등을 첨부해 주셔야 소명 시 유리합니다.",
  "소명하기_링크쌤2": "사실 관계 확인을 위해 소명내용은 맘대디에게도 전송됩니다.",
  "소명하기_안내": "소명한 내용은 수정이 불가합니다.\n정말 소명 하시겠습니까?",
  "소명접수": "소명이 접수되었습니다.",
  "접수완료": "접수완료",
  "작성대기": "작성대기",
  "작성완료": "작성완료",
  "정산_소명요청안내": "맘대디의 정산보류요청에 대한 소명을 해주시기 바랍니다. 증거자료가 될 수 있는 사진, 캡쳐 이미지 등을 첨부해 주셔야 소명 시 유리합니다.",
  "정산_소명요청완료": "소명 신청이 접수되었습니다.",
  "정산_소명요청완료안내": "해당 사유에 대한 소명이 완료된 시점 기준 48시간 이내에 사실 관계 확인 후 정산이 진행됩니다.",
  "취소_소명요청완료안내": "해당 사유에 대한 소명이 완료된 시점 기준 48시간 이내에 사실 관계 확인 후 취소가 진행됩니다.",
  "돌봄일기_투약완료_팝업": "투약의뢰서 내용으로 투약이 완료되었나요? 체크후에는 수정이 불가능합니다.",
  "돌봄일기_투약완료_안내": "의뢰하신 내용으로 투약하였습니다.",
  "열람여부": "열람여부",
  "안읽음": "안읽음",
  "읽음": "읽음",
  "정산_정산보류_안내": "맘대디의 정산보류요청이\n접수되었습니다.",
  "정산_정산보류_소명안내_1": "위 사유로 맘대디가 정산보류요청을 접수하였습니다.",
  "정산_정산보류_소명안내_2_1": "정산보류요청에 대해 24시간 이내 ",
  "정산_정산보류_소명안내_2_2": "소명이 없다면 정산진행이 불가할 수 있으니 소명이 필요하다면 소명을 진행해 주세요.",
  "정산_정산보류_소명안내_3": "해당 사유에 대한 소명이 완료되면, 소명 완료시점 기준 48시간 이내에 사실 관계 확인 후 정산 및 환불이 진행됩니다.",
  "정산_정산보류_소명안내_2_3": "소명 완료시점 기준 48시간 이내에 사실 관계 확인 후 정산 및 환불이 진행될 수 있습니다.",
  "정산_정산보류_상태": "정산보류요청이 접수된 상태입니다.",
  "정산보류취소하기": "정산보류 취소하기",
  "정산_정산보류_취소": "정산보류요청이 취소되었습니다.",
  "돌봄일기_좋아요": "돌봄이 만족스러우셨다면\n오늘의 돌봄 좋아요를 눌러주세요!",
  "투약": "투약",
  "돌봄일기를기다려주세요": "돌봄일기를 기다려주세요",
  "돌봄일기작성하기": "돌봄일기 작성하기",
  "돌봄일기_미작성": "아직 돌봄일기 작성 전이에요.",
  "오늘의돌봄좋아요": "오늘의 돌봄 좋아요",
  "정산_정산보류하기": "돌봄에 문제가 있어 정산보류가 필요하다면 여기를 눌러주세요.",
  "돌봄일기_정산안내_타이틀": "돌봄 서비스는 잘 받으셨나요?",
  "돌봄일기_정산안내_안내": "돌봄일기가 작성되면 24시간 후 자동정산 됩니다. 링크쌤에게 즉시 정산을 원하시면 정산하기를 눌러 정산해 주세요.",
  "돌봄일기_정산안내_안내_2": "24시간 후 자동정산",
  "돌봄일기_작성안내_타이틀": "돌봄 정산정책 확인하기",
  "돌봄일기_작성안내_안내": "돌봄일기를 작성하시면 맘대디가 빠른 정산을 진행할 수 있어요. 만일, 돌봄일기를 작성하지 않으시면 돌봄 종료일로부터 10일 후 자동정산됩니다.",
  "돌봄일기_작성안내_안내_1": "돌봄 종료 후 12시간이 지나면 돌봄일기 작성 및 수정이 불가하니 서둘러 작성해주세요.",
  "돌봄일기_작성안내_안내_2": "맘대디가 빠른 정산을 진행",
  "돌봄일기_작성안내_안내_3": "10일 후 자동정산",
  "돌봄일기_작성안내_안내_4": "12시간",
  "댓글을삭제하시겠습니까": "댓글을 삭제하시겠습니까?",
  "정산_정산보류_선택": "정산을 보류하려는 사유 선택 후\n내용을 입력해 주세요.",
  "정산_정산보류_힌트": "신고사유에 해당하는 상세 내용과 증거자료가 될 수 있는 사진, 캡쳐 이미지 등을 첨부해 주세요.",
  "요청하기": "요청하기",
  "정산_정산보류_전송안내": "사실 관계 확인을 위해 정산보류요청한 사유는 상대\n링크쌤에게도 전송됩니다.",
  "정산_정산보류_접수안내": "정산보류요청이 접수되었습니다.",
  "정산보류요청취소": "정산보류요청취소",
  "정산_정산대기": "맘대디의 정산을 기다리고 있어요.",
  "정산일": "정산일",
  "결제요금": "결제 요금",
  "정산요금": "정산 요금",
  "캐시소득": "캐시 소득",
  "첫번째댓글을남겨주세요": "첫번째 댓글을 남겨주세요!",
  "삭제된메세지입니다": "삭제된 메세지입니다.",
  "스티커_5개": "5개 누적 : 7일간 후기 블록처리",
  "스티커_5개_하이라이트": "7일간 후기 블록처리",
  "스티커_10개": "기존 5개 + 추가 5개 (총 10개 누적 시) : 7일간 사용중지",
  "스티커_10개_하이라이트": "7일간 후기 블록처리",
  "스티커_15개": "기존 10개 + 추가 5개 (총15개 누적 시) : 탈퇴처리",
  "스티커_15개_하이라이트": "탈퇴처리",
  "벌점스티커내역": "벌점 스티커 내역",
  "벌점스티커없애기": "벌점 스티커 없애기",
  "회원탈퇴": "회원 탈퇴",
  "부과기준": "벌점 부과 기준",
  "없애려는스티커를선택해주세요": "없애려는 스티커를 선택해 주세요.",
  "스티커_제거안내": "벌점 스티커와 교환할 차감 항목을 선택해 주세요.",
  "차감불가": "차감불가",
  "스티커_차감안내_1": "맘대디는 벌점 스티커 1개를 없애기 위해 받은 후기 중 5개를 차감해야 합니다.",
  "스티커_차감안내_2": "링크쌤은 벌점 스티커 1개를 없애기 위해 좋아요 5개 혹은 받은 후기 중 5개를 차감해야 합니다.",
  "스티커_차감안내_3": "맘대디로 받은 후기와 링크쌤으로 받은 후기가 모두 있을 경우 맘대디로 받은 후기 부터 차감이 시작됩니다.",
  "스티커_차감안내_4": "좋아요 혹은 후기가 5개 이상일 경우 벌점스티커 없애기가 가능합니다.",
  "음란대화또는욕설게시": "음란대화 또는 욕설 게시",
  "불법정보또는홍보성내용": "불법정보 또는 홍보성 내용",
  "회원분란유도타인비방": "회원 분란 유도 / 타인 비방",
  "게시글댓글도배": "게시글/ 댓글 도배",
  "개인사생활침해개인정보노출": "개인 사생활 침해 / 개인정보 노출",
  "신고하기_타플랫폼요구안내_1": "링크맘 앱이 아닌 타 수단을 통해 돌봄 활동을 원하는 분을 발견하면 신고해 주세요.",
  "신고하기_타플랫폼요구안내_2": "대화내용 캡쳐 이미지 등 증거자료 확인 후 10,000 포인트를 지급해 드립니다.\n(월 최대 5회)",
  "만포인트": "10,000 포인트",
  "출근": "출근",
  "퇴근": "퇴근",
  "출근알림": "출근 알림",
  "퇴근알림": "퇴근 알림",
  "정산_정산보류_안내1": "정산보류요청 시 링크쌤에게 돌봄 비용 정산이 보류되며 \n입력해 주신 사유 기반으로 24시간 이내 링크쌤 측의 확인 \n절차를 거칩니다. 링크쌤의 소명이 있을 경우 맘대디 측의 \n확인 절차를 거쳐 정산 및 환불이 진행됩니다",
  "정산_정산보류_안내2": "정산보류요청은 1회만 요청할 수 있습니다.",
  "식전": "식전",
  "출퇴근알림": "출퇴근 알림",
  "신고전유의사항": "신고 전 유의사항",
  "커뮤니티_신고하기_1": "음란성 게시글 또는 댓글, 욕설, 불법(도박), 사기, 광고성 댓글 등 그 위반 정도가 중한 경우 게시물은 통보 없이 즉시 삭제됩니다.",
  "커뮤니티_신고하기_2": "그 외 신고 항목은 관리자가 24시간 이내 사실관계 확인을 위해 신고자에게 객관적인 자료를 요청할 수 있습니다.",
  "커뮤니티_신고하기_3": "관리자 확인 후 사실이면 삭제 조치 되며, 허위 사실인 경우 게시글은 복구될 수 있습니다.",
  "커뮤니티_신고하기_4": "신고 대상은 벌점 규정에 따라 활동에 불이익을 받을 수 있으며, 사실관계 확인 시 쌍방과실 혹은 허위 사실일 경우 신고자 또한 벌점 규정에 따라 불이익을 받을 수 있습니다.",
  "커뮤니티_신고하기_5": "물건 거래 중 피해를 당한 경우에는 경찰청 사이버수사국으로 신고해 주시기 바랍니다.",
  "소통나눔": "링크 광장",
  "링크쌤랭킹": "링크쌤 랭킹",
  "이벤트": "이벤트",
  "육아소통": "육아소통",
  "물건나눔": "플리마켓",
  "내게시글": "내 게시글",
  "진행중인이벤트": "진행중인 이벤트",
  "종료된이벤트": "종료된 이벤트",
  "커뮤니티_글쓰기_힌트": "육아 관련 이야기나 정보들을 자유롭게 공유해보세요.",
  "플리마켓_글쓰기_힌트": "집에서 잠자고 있는 물건들을 이웃과 나눠보세요.",
  "내용이비어있습니다": "내용이 비어있습니다.",
  "카테고리를선택해주세요": "카테고리를 선택해주세요.",
  "제목": "제목",
  "글쓰기": "글쓰기",
  "카테고리선택": "카테고리 선택",
  "댓글을남겨주세요": "댓글을 남겨주세요",
  "진행중": "진행중",
  "나눔완료": "나눔완료",
  "예약중": "예약중",
  "등록": "등록",
  "댓글": "댓글",
  "돌봄누적소득": "돌봄 누적 소득",
  "랭킹집계기준": "* 최근 30일간의 정보로 매일 집계 됩니다.",
  "금액랭킹": "금액 랭킹",
  "좋아요랭킹": "좋아요 랭킹",
  "후기랭킹": "후기 랭킹",
  "전국": "전국",
  "위": "위",
  "최근활동집계정보": "최근 30일간의 활동 집계 정보입니다!",
  "삼십일간": "30일간의",
  "총돌봄시간": "총 돌봄 시간",
  "배지": "배지",
  "인증배지개수": "인증 배지 개수",
  "정산보류요청": "정산보류요청",
  "공지사항": "공지사항",
  "자주묻는질문": "자주 묻는 질문",
  "돌봄서비스범위": "돌봄 서비스 범위",
  "돌봄이용수칙": "돌봄 이용 수칙",
  "문의하기": "1:1 문의하기",
  "작성하기": "작성하기",
  "구직신청": "구직신청",
  "결제환불": "결제 · 환불",
  "기타문의": "기타문의",
  "서비스이용": "서비스이용",
  "맘대디가이드": "맘대디 가이드",
  "링크쌤가이드": "링크쌤 가이드",
  "우리집에서": "우리집에서 보육 시",
  "이웃집에서": "이웃집에서 보육 시",
  "문의사항_1": "소중한 의견을 빠르고 정확하게 해결하게 위해 최선을 다하겠습니다. 다소, 늦은 답변이여도 양해부탁드립니다.",
  "문의사항_2": "고객센터 상담이 많은 경우 지연될 수 있습니다.",
  "상담시간": "상담 시간",
  "고객센터전화번호": "1:1 채팅상담(주말, 공휴일 제외)",
  "고객센터운영시간": "오전 10:00 ~ 오후 5:00",
  "문의하기_관리자가": "관리자가 문의사항을 확인중입니다.",
  "문의하기_답변설명": "소중한 의견을 빠르고 정확하게 해결하게 위해 최선을 다하겠습니다.",
  "관리자답변": "관리자 답변",
  "문의할내용을입력해주세요": "문의할 내용을 입력해주세요",
  "제목을입력해주세요": "제목을 입력해 주세요",
  "문의유형을선택해주세요": "문의 유형을 선택해 주세요",
  "알림삭제": "알림삭제",
  "최근출퇴근알림목록입니다": "최근 3개월간의 출퇴근 알림 목록입니다.",
  "커뮤니티알림": "커뮤니티 알림",
  "알림메세지_유효기간안내": "알림 메시지는 30일이 경과하면 자동 삭제됩니다.",
  "삭제취소": "삭제취소",
  "돌봄일정": "돌봄일정",
  "미답변": "미답변",
  "벌점10개_로그인_1": "벌점스티커 10개 누적 패널티로",
  "벌점10개_로그인_2": "까지 7일간 서비스 이용이 불가합니다.",
  "벌점15개_로그인": "벌점스티커 15개 누적 패널티로 탈퇴되어 서비스 이용이 불가합니다.",
  "맘대디의후기작성이완료되었습니다": "맘대디의 후기 작성이 완료되었습니다",
  "링크쌤등하원소개": "여유시간 투자로\n등하원 돌보미 되잡!",
  "링크쌤보육가사소개": "우리아이 돌보며\n이웃아이도 돌보잡!",
  "일대일문의": "1:1문의",
  "돌봄일기미작성": "돌봄일기 미작성",
  "맘대디등하원소개": "목적지 도착 알림!\n안심되는 등하원길",
  "맘대디보육가사소개": "가정보육+가사\n한명으로 가격↓",
  "홈맘대디돌봄일기안내": "링크쌤이 작성한 돌봄일기를\n확인하셨다면 정산을 진행해 주세요.\n빠른 정산은 링크쌤에게 큰 힘이 됩니다.\n\n만일, 링크쌤이 돌봄을 진행하지않고 돌봄일기를 작성한 경우 24시간이내에 링크쌤 사유의 돌봄취소를 진행해 주시기 바랍니다.",
  "홈링크쌤돌봄일기안내": "돌봄이 끝나면 꼭 돌봄일기를\n작성해 주세요. 돌봄일기를 작성하셔야\n맘대디가 빠른 정산을 진행할 수 있습니다.",
  "홈링크쌤안내": "내 조건에 딱 맞는\n맘대디 찾아 일하잡!",
  "홈맘대디안내": "우리 동네 아이 돌봄\n‘링크쌤’이 있어요",
  "회원전용서비스입니다": "회원전용 서비스입니다.\n로그인 후 이용해주세요.",
  "등급집계": "등급은 직전 3개월 간의 활동을 기준으로 매월 1일 조정됩니다.",
  "링크쌤지원서보기": "링크쌤 지원서 보기",
  "돌봄신청서보기": "돌봄신청서 보기",
  "벌점이열개": "벌점이 10개이상 되어",
  "사용이중지된계정입니다": "사용이 중지된 계정입니다.",
  "로딩중": "로딩 중",
  "저장소권한요청": "사진 선택에 필요한 저장소 파일 권한이 없습니다. 앱 설정에서 파일 권한을 사용으로 변경해주세요.",
  "더보기": "더보기",
  "정산보류안내_하이라이트": "48시간 이내에 사실 관계 확인 후 정산 및 환불",
  "48시간이내": "48시간 이내",
  "맘대디의정산보류요청이": "맘대디의 정산보류요청이 접수되었습니다.",
  "소명을진행해주세요": "까지 소명을 진행해 주세요.",
  "소명시간이경과하였습니다": "소명시간이 경과하였습니다.",
  "정산보류요청결과": "정산보류요청에 대한 관리자 답변이 등록되었습니다.",
  "마케팅정보수신동의": "마케팅 정보 수신 동의",
  "구매조건확인및취소환불규정": "구매조건 확인 및 취소 환불 규정 동",
  "선택한항목이차감": "선택한 항목의 수량이 차감됩니다.",
  "후기를볼수없는링크쌤입니다": "후기를 볼 수 없는 링크쌤입니다.",
  "링크맘이궁금하세요": "링크맘이 궁금하세요?",
  "위안내사항을모두확인": "위 안내사항을 모두 확인하였으며, 이에 동의합니다.",
  "정산보류상태입니다": "정산보류상태입니다. 정산완료 후 탈퇴 가능합니다.",
  "맘대디로부터정산받을": "맘대디로부터 정산 받을 캐시가 있습니다. 정산완료 후 탈퇴 가능합니다.",
  "링크쌤에게정산이": "링크쌤에게 정산이 완료되지 않았습니다. 탈퇴 시 정산도 동시에 진행됩니다.",
  "계좌번호를입력해주세요": "계좌번호를 입력해주세요",
  "은행명": "은행명",
  "예금주_본인명의계좌만가능": "예금주(본인명의 계좌만 가능)",
  "맘대디로부터정산받을금액이남아있습니다": "맘대디로 부터 정산 받을 금액이 남아 있습니다. 정산 완료 후 탈퇴가능합니다.",
  "해당금액이링크쌤에게정산되고탈퇴처리됩니다": "해당 금액이 링크쌤에게 정산되고 탈퇴 처리됩니다.",
  "보유포인트_전액소멸": "보유포인트(전액소멸)",
  "총소득": "총 소득",
  "신용카드_결제취소": "신용카드(결제취소)",
  "진행한돌봄": "진행한돌봄",
  "이용기간": "이용기간",
  "전체취소": "전체 취소",
  "등급": "등급",
  "돌봄일기_정산": "돌봄일기/정산",
  "인출신청": "인출신청",
  "최신버전": "최신버전",
  "보류사유": "보류사유",
  "소명내용": "소명내용",
  "등록된후기가없습니다": "등록된 후기가 없습니다.",
  "30일이내소멸예정포인트": "30일이내 소멸 예정 포인트",
  "30일이내소멸예정캐시": "30일이내 소멸 예정 캐시",
  "소멸예정캐시가있습니다": "* 소멸예정 캐시가 있습니다. 소멸 전 사용해 주세요.",
  "소멸예정포인트가있습니다": "* 소멸예정 포인트가 있습니다. 소멸 전 사용해 주세요.",
  "포인트적립항목": "포인트 적립 항목",
  "이벤트포인트": "이벤트 포인트",
  "이벤트포인트_설명": "이벤트 포인트 : 이벤트를 통해 발생한 포인트",
  "포인트사용항목": "포인트 사용 항목",
  "포인트환불": "포인트 환불",
  "포인트환불_설명": "포인트 환불 : 돌봄 비용 결제 취소로 환불 받은 포인트",
  "포인트_돌봄요금결제_설명": "돌봄 요금 결제 : 돌봄 비용 결제 시 사용한 포인트",
  "포인트소멸": "포인트 소멸",
  "포인트소멸_설명": "포인트 소멸 : 유효기간 경과로 소멸된 포인트",
  "캐시소득_설명": "캐시 소득 : 링크쌤 돌봄 활동으로 발생한 캐시",
  "돌봄취소_환불": "돌봄취소(환불)",
  "돌봄취소_환불_설명": "돌봄취소(환불) : 결제취소 혹은 돌봄 취소로 환불 받은 캐시",
  "캐시적립항목": "캐시 적립 항목",
  "캐시사용항목": "캐시 사용 항목",
  "캐시인출": "캐시 인출",
  "캐시인출_설명": "캐시 인출 : 보유 캐시 중 통장으로 인출한 캐시",
  "돌봄요금결제": "돌봄 요금 결제",
  "캐시_돌봄요금결제_설명": "돌봄 요금 결제 : 돌봄 비용 결제 시 사용한 캐시",
  "캐시소멸": "캐시 소멸",
  "캐시소멸_설명": "캐시 소멸 : 유효기간 경과로 소멸된 캐시",
  "결제_설명": "결제: 결제수단으로 결제가 완료된 건",
  "결제취소_설명": "결제취소: 결제수단으로 결제 취소된 건",
  "결제": "결제",
  "결제취소": "결제취소",
  "정산보류취소": "정산 보류 취소",
  "정산_정산보류취소후정산": "링크쌤에게 정산을 원하시면 ‘정산하기’를 눌러 정산을 진행해 주세요. 만일, 돌봄일정 취소를 원하시면 ‘결제취소하기’를 눌러 취소를 진행해 주세요.",
  "해당돌봄일정이취소예정": "해당 돌봄 일정이 취소 예정입니다.",
  "예정된돌봄일정이": "예정된 돌봄 일정이\n",
  "링크쌤_취소내역확인": "되었습니다.\n소명이 필요하다면 ‘취소내역 확인’ 버튼을 눌러\n자세한 내용을 확인해 주세요.",
  "돌봄취소예정": "돌봄 취소 예정",
  "돌봄취소완료": "돌봄 취소 완료",
  "알림을모두삭제하시겠습니까": "알림을 모두 삭제 하시겠습니까?",
  "취소예정": "취소예정",
  "취소완료": "취소완료",
  "해당돌봄일정이취소완료": "해당 돌봄 일정이 취소 완료 되었습니다.",
  "총돌봄소득": "총 돌봄 소득",
  "기간만료_설명": "기간만료 : 돌봄시작기간이 지나 구인종료 상태로 전환된 돌봄 신청건",
  "사진권한": "사진 선택에 필요한 저장소 파일 권한 없습니다. 앱 설정에서 파일 권한을 사용으로 변경해주세요.",
  "투약의뢰서_삭제": "투약의뢰서가 삭제됩니다. \n삭제하시겠습니까?",
  "데이터가없습니다": "미안해요ㅜㅜ\n아무리 찾아도\n데이터가 없어요..",
  "우리동네아이돌봄": "우리 동네 아이 돌봄",
  "잠시만요": "잠시만요...\n좋은인연 기다리는 중이에요.",
  "당신과잘맞는링크쌤": "당신과 잘 맞는 링크쌤을 찾아보세요!",
  "링크쌤커뮤니티에서": "링크맘 커뮤니티에서\n소통 친구를 찾아보세요!",
  "당신과잘맞는맘대디": "당신과 잘 맞는 맘대디를 찾아보세요!",
  "채팅친구가없어요": "채팅 친구가 없어요.",
  "커뮤니티마실가기": "커뮤니티 마실가기",
  "데이터를불러오고있습니다": "데이터를 불러오고 있습니다.",
  "등록하고": "를 등록하고",
  "링크쌤지원서": "링크쌤 지원서",
  "실사용이메일입력": "실제 사용하시는 이메일 주소를 입력해 주세요.",
  "어떤서비스가필요하신가요": "어떤 서비스가\n필요하신가요?",
  "입금처리상태": "입금 처리상태",
  "개월": "개월",
  "입금완료": "입금완료",
  "입금예정": "입금예정",
  "입금완료_안내": "입금완료 : 인출요청 계좌로 입금이 완료된 건",
  "입금예정_안내": "입금예정 :  인출요청 계좌로 입금 준비 중인 건",
  "인출요청_안내": "인출 요청 후 5 영업일 이내에 요청하신 계좌로 입금됩니다.",
  "캐시인출하기": "캐시 인출하기",
  "계좌삭제_안내": "등록한 계좌를 정말 삭제하시겠습니까?",
  "인출계좌정보": "인출 계좌정보",
  "입금예정금액": "입금 예정 금액",
  "잔여캐시": "잔여 캐시",
  "인출가능캐시": "인출 가능 캐시",
  "인출신청캐시": "인출 신청 캐시",
  "은행선택": "은행 선택",
  "계좌번호": "계좌번호",
  "예금주": "예금주",
  "인출_안내_1": "※ 가입자 본인명의 계좌로만 입금 가능합니다.",
  "인출_안내_2": "관계법령(전자상거래법 및 정보통신망법)에 따라 캐시 인출을 위해 계좌정보를 수집하며 계좌정보는 안전하게 보관됩니다.",
  "다음에도계좌사용하기": "다음에도 이 계좌 사용하기",
  "계좌정보를입력해주세요": "계좌정보를 입력해주세요",
  "은행을선택해주세요": "은행을 선택해주세요",
  "증권사를선택해주세요": "증권사를 선택해주세요",
  "은행": "은행",
  "증권": "증권",
  "증권사": "증권사",
  "캐시인출요청이접수되었습니다": "캐시 인출 요청이 접수되었습니다",
  "인증시간만료": "인증 시간이 만료 되었습니다. 처음부터 진행해주세요.",
  "회원가입_웰컴포인트안내": "입력한 아이디(이메일)로 혜택(포인트)을 보내드렸습니다. 이메일을 확인해 주세요.",
  "투약의뢰서_연고안내": "예) 연고 투약 내용을 입력해 주세요",
  "투약의뢰서_기타안내": "예) 약종류와 용량을 입력해 주세요",
  "투약시간을입력해주세요": "투약 시간을 입력해 주세요",
  "식간": "식간",
  "식후": "식후",
  "기간만료": "기간만료",
  "랭킹에도전해보세요": "랭킹에 도전해보세요!",
  "이미취소되었습니다": "이미 취소되었습니다.",
  "현재시간이후를선택": "지금으로부터 30분 이후로 신청해주세요.",
  "찜한정보": "찜 한 정보",
  "신청이완료되었습니다": "신청이 완료 되었습니다",
  "정산상태": "정산 상태",
  "벌점부여예정": "벌점 부여 예정",
  "답글달기": "답글달기",
  "작성자": "작성자",
  "돌봄일기작성": "돌봄일기 작성",
  "종료하기": "종료하기",
  "계약취소": "계약 취소",
  "계약대기": "계약 대기",
  "취소내역확인": "취소내역 확인",
  "현재사용중인비밀번호를": "현재 사용중인 비밀번호를 입력해주세요.",
  "신규비밀번호를": "신규 비밀번호를 입력해주세요.",
  "신규비밀번호를재": "신규 비밀번호를 재입력해주세요.",
  "다시매칭요청하기": "다시 매칭 요청하기",
  "자가진단기간안내": "인증센터에서 5일간 자가 진단 일자가 노출됩니다.",
  "휴대폰번호_변경": "휴대폰 번호 변경",
  "취소일자": "취소일자",
  "결제정보": "결제 정보",
  "결제일자": "결제일자",
  "포인트": "포인트",
  "링크쌤등록이완료되었습니다": "링크쌤 지원이 완료 되었습니다",
  "링크쌤_등록완료": "원하는 맘대디를 찾아 매칭해 보세요.",
  "링크쌤_등록완료_힌트": "맘대디를 찾아 매칭",
  "링크쌤_등록완료_2": "돌봄진행상황은 근무관리에서 확인할 수 있어요.",
  "링크쌤_등록완료_2_힌트": "근무관리",
  "정산내역": "정산 내역",
  "차감후": "차감 후",
  "차감전": "차감 전",
  "계좌등록하기": "계좌 등록 하기",
  "인출내역": "인출 내역",
  "캐시_단위": "1캐시 = 1원",
  "구직신청서올리기": "구직신청서 올리기",
  "입금계좌등록": "입금 계좌 등록",
  "인증대기": "인증 대기",
  "매일자가진단이필요": "코로나 자가 진단을 진행해주세요. 돌봄이 예정된 경우, 매일 자가진단이 필요합니다.",
  "이미지를표시할수없습니다": "이미지를 표시할 수 없습니다.",
  "회원탈퇴_사유": "링크맘 서비스를 떠나시려는 이유를 알려주세요. 알려주신 내용은 링크맘 서비스를 더 발전시키는데 반영하도록 참고하겠습니다. (중복선택 가능)",
  "닉네임": "닉네임",
  "구인상태": "구인상태",
  "민감정보수집이용동의": "민감정보 수집 이용 동의",
  "돌봄취소_벌점부과예정": "돌봄취소(벌점부과) 예정",
  "개인정보처리방침": "개인정보처리방침",
  "채팅상담": "채팅 상담",
  "계약서동의": "계약서 동의",
  "계약서동의_안내": "매칭 진행을 위해 서명해 주세요.",
  "나의문의내역": "나의 문의 내역",
  "답변완료": "답변 완료",
  "입금금액": "입금 금액",
  "취소시점기준": "취소 시점 기준 ",
  "5일이내": "5일(영업일 기준) 이내",
  "합의내용을": "에 취소사유에 대한 당사자간 합의 내용을 관리자에게 알려주시면 양측에 부과되었던 ",
  "벌점을다시차감": "벌점 5개를 다시 차감",
  "그대로부과": "벌점 5개가 그대로 부과",
  "해드립니다": "해 드립니다.",
  "합의가이루어지지": "에 합의가 이루어지지 않을 경우 양측에 부과되었던 ",
  "외부기관에": "되며, 관리자가 분쟁조정을 위한 외부기관을 안내해 드리면 취소 요청자가 직접 외부기관에 중재신청을 합니다.",
  "상대방사유로취소시": "상대방 사유로 취소시\n벌점 5개가 양측에 부과됩니다.",
  "상대방사유취소로분쟁시": "상대방 사유 취소로 인한 돌봄 분쟁 시 거래 당사자 간의 합의를 원칙으로 합니다.",
  "상대방사유취소가합의": "1)상대방 사유 취소가 합의된 경우",
  "상대방사유취소가합의되지않은": "2)상대방 사유 취소가 합의되지 않은 경우",
  "부과된벌점으로인해": "부과된 벌점으로 인해 서비스 이용중지 및\n이용계약이 해지될 수 있습니다.",
  "정산보류요청시": "정산 보류 요청시\n벌점 5개가 양측에 부과됩니다.",
  "정산보류로분쟁시": "정산보류로 인한 돌봄 분쟁 시 거래 당사자 간의 합의를 원칙으로 합니다.",
  "정산보류가합의": "1)정산 보류가 합의된 경우",
  "정산보류가합의되지않은": "2)정산 보류가 합의되지 않은 경우",
  "투약예시": "예) 5",
  "요청이완료되었습니다": "요청이 완료 되었습니다.",
  "건너뛰기": "건너뛰기",
  "매칭채팅하기": "매칭 채팅하기",
  "영수증": "영수증",
  "돌봄일자": "돌봄 일자",
  "캐시만료일": "캐시 사용 기한",
  "정산일자": "정산일자",
  "돌봄": "돌봄",
  "동네인증체크_안내": "링크맘 서비스를 이용하시려면 동네인증이 필요합니다. 나의정보로 이동하여 동네인증을 진행해 주세요.",
  "돌봄채팅": "돌봄 채팅",
  "로그인후확인가능합니다": "로그인 후 확인 할 수 있습니다.",
  "등하원": "등하원",
  "보육가사": "보육/가사",
  "사진변경": "사진 변경",
  "이미삭제된댓글입니다": "이미 삭제된 댓글 입니다",
  "이웃돌봄찾아보기": "이웃 돌봄 찾아보기",
  "등록하시겠습니까": "등록 하시겠습니까?",
  "희망급여": "희망급여",
  "형제자매동시보육이필요해요": "형제자매 동시보육이 필요해요",
  "형제자매동시보육이필요하신가요": "형제자매 동시보육이 필요하신가요?",
  "종료된이벤트가없어요": "종료된 이벤트가 없어요.",
  "이벤트준비중이에요": "링크맘 회원을 위한\n이벤트 준비 중이에요.",
  "링크쌤활동회원전용": "링크쌤으로 활동하는 분만 확인 하실수 있습니다.\n지금 바로 구직신청서를 올리고 확인해보세요!",
  "인출일자": "인출 일자",
  "인트로_메세지": "돌봐주고 돌봄받는 ‘육아 품앗이’",
  "예정": "예정",
  "회원인증": "회원 · 인증",
  "오늘도고생": "오늘도 넘넘 고생 많으셨어요.",
  "돌봄일기작성감사합니다": "돌봄일기 작성 감사합니다.",
  "요청": "요청",
  "정산이완료": "정산이 완료되었어요.",
  "다시보지않기": "다시 보지 않기",
  "정산보류가필요하다면": "정산보류가 필요하다면 여기",
  "돌봄취소_시작후_안내": "이미 돌봄이 시작되어 취소를 진행할 수 없습니다. 만일, 정산보류를 진행하시려면 해당 돌봄일기에서 정산보류를 신청해 주시기 바랍니다.",
  "돌봄취소_시작후_안내_힌트": "이미 돌봄이 시작되어 취소를 진행할 수 없습니다.",
  "보상": "보상",
  "돌봄일기_돌봄전": "아직 돌봄이 시작되지 않은 돌봄일기입니다.",
  "벌점스티커_좋아요차감확인": "차감된 좋아요 개수는 매월 1일 등급 조정에 영향을 줍니다. 정말 차감 하시겠습니까?",
  "네이해했어요": "네, 이해했어요",
  "회원가입완료_맘대디": "아이를 믿고\n맡길 수 있는\n이웃 돌보미가\n필요해요.",
  "회원가입완료_링크쌤": "여유시간에\n이웃아이 돌보며\n소득의 성취감을\n느끼고싶어요.",
  "튜토리얼_1_1": "① 하나의 아이디로\n",
  "튜토리얼_1_2": "돌봄을 맡기는 ",
  "튜토리얼_1_3": "맘대디(청록색 화면)",
  "튜토리얼_1_4": "와\n",
  "튜토리얼_1_5": "아이를 돌봐주는",
  "튜토리얼_1_6": "링크쌤(보라색 화면)",
  "튜토리얼_1_7": "으로\n",
  "튜토리얼_1_8": "동시에 활동할 수 있습니다.",
  "튜토리얼_1_9": "② 상단 토글버튼으로 화면을\n",
  "튜토리얼_1_10": "쉽게 전환할 수 있고\n",
  "튜토리얼_1_11": "맘대디",
  "튜토리얼_1_12": "와 ",
  "튜토리얼_1_13": "링크쌤",
  "튜토리얼_1_14": "화면은 컬러로 구분됩니다.",
  "튜토리얼_2_1": "맘대디(부모) 화면",
  "튜토리얼_2_2": "우리 아이에게 필요한 돌봄을\n신청할 수 있어요.",
  "튜토리얼_2_3": "맘대디(부모) 회원의\n활동정보 확인",
  "튜토리얼_2_4": "마음에 드는 링크쌤을 찾아\n매칭하고 관리하세요",
  "튜토리얼_3_1": "링크쌤(돌보미) 화면",
  "튜토리얼_3_2": "돌봄 가능한 시간에 원하는\n근무조건을 신청할 수 있어요.",
  "튜토리얼_3_3": "링크쌤(돌보미) 회원의\n활동정보 확인",
  "튜토리얼_3_4": "마음에 드는 맘대디를 찾아\n매칭하고 관리하세요",
  "인트로_1": "원하는 시간과 장소에서\n돌봐주고 돌봄받는 ‘육아 품앗이’",
  "인트로_2_1": "긴급 돌봄이 필요할 때",
  "긴급돌봄": "긴급 돌봄",
  "인트로_2_2": "가까운 이웃에게 아이를\n빨리 맡길 수 있다면?",
  "인트로_3_1": "당신 근처\n돌보미와\n빠른 매칭!",
  "빠른매칭": "빠른 매칭!",
  "인트로_4_1": "여유시간에 일하고 싶을 때",
  "일하고싶을때": "일하고 싶을 때",
  "인트로_4_2": "이웃 아이 돌보며 소득의\n성취감을 느낄 수 있다면?",
  "인트로_4_3": "링크쌤으로\n일하잡!",
  "일하잡": "일하잡!",
  "인트로_5_1": "9가지 인증절차로\n안전한 돌봄!",
  "9가지인증절차": "9가지 인증절차",
  "인트로_5_2": "인증관리 절차와\n벌점 시스템으로 지속적 관리",
  "인트로_6_1": "링크맘\n매칭비 무료",
  "무료": "매칭비 무료",
  "인트로_6_2": "무제한 매칭 후 돌봄비만 결제",
  "인트로_7_1": "우리집 or 이웃집\n돌봄장소 선택 가능!",
  "보육장소선택가능": "돌봄장소 선택 가능!",
  "인트로_7_2": "링크쌤이 우리집 방문보육 또는\n이웃 링크쌤 집에 아이를 위탁보육",
  "도착알림": "도착알림",
  "인트로_8_1": "으로 안심!\n",
  "인트로_8_2": "원하는 ",
  "인트로_8_3": "필요돌봄 추가",
  "인트로_8_5": "등하원 도착알림",
  "인트로_8_6": "돌보미 출퇴근 알림",
  "인트로_8_7": "아이성장 돌봄일기 기록",
  "인트로_8_7_1": "돌봄일기 기록",
  "인트로_8_8": "필요한 돌봄추가",
  "인트로_8_8_1": "돌봄추가",
  "인트로_8_9": "하원시 경유지추가",
  "인트로_8_9_1": "경유지추가",
  "이모티콘_안내": "이모티콘을 보냈습니다.",
  "돌봄이전_정산보류": "시작되지 않은 돌봄일정은 정산보류를 진행할 수 없습니다. 만일, 돌봄취소를 원하신다면 돌봄진행상황이나 채팅에서 돌봄 취소를 신청해 주시기 바랍니다.",
  "돌봄이전_정산보류_하이라이트": "시작되지 않은 돌봄일정은 정산보류를 진행할 수 없습니다.",
  "정산해줘야하는금액": "정산해줘야 하는 금액",
  "정산받아야하는금액": "정산받아야 하는 금액",
  "매칭이성공적으로취소되었습니다": "매칭이 성공적으로 취소되었습니다.",
  "사유로": "사유로",
  "접수되어벌점": "가 접수되어 벌점 5개가",
  "부과됩니다": "부과됩니다.",
  "사유확인후": "사유 확인 후",
  "협의해주세요": "협의해 주세요.",
  "사유에문제가있어": "사유에 문제가 있어 소명이 필요하다면 ",
  "해주세요": "해 주세요.",
  "시점기준이내": "시점 기준 5일(영업일 기준) 이내 ",
  "당사자간협의내용을카톡상담": "당사자간 협의 내용을 카톡 상담으로 ",
  "관리자에게알려주시면": "관리자에게 알려주시면 ",
  "벌점5개는차감해드리며": "로 인한 벌점 5개는 차감해 드리며, 협의된 결과에 따라 환불 및 정산, 페널티가 부과됩니다.",
  "상대방사유취소로인한돌봄": "상대방 사유 취소로 인한 돌봄 분쟁 시 거래 당사자 간의 합의를 원칙으로 합니다.",
  "취소사유확인": "취소 사유 확인",
  "정산보류사유확인": "정산보류 사유 확인",
  "취소소명하기_힌트": "의 취소사유에 대한 소명을 입력해주세요.  증거자료가 될 수 있는 사진, 캡쳐 이미지 등을 첨부해 주시면 소명 시 유리합니다.",
  "사용기한": "사용 기한",
  "정산하기_확인": "정말로 정산하시겠습니까?",
  "정산하기_시간이전": "돌봄이 시작되지 않아 정산하실 수 없습니다.",
  "안드로이드_정확한위치사용": "현재 위치가 맞지 않으시면 설정 > 권한 > 위치 > 정확한 위치 사용을 ON으로 변경해주세요.",
  "위치가맞지않아요": "위치가 맞지 않아요",
  "돌봄취소가능_안내": "돌봄 취소할 일정이 없습니다.\n돌봄 취소내역으로 가시겠습니까?",
  "취소사유에동의하시나요": "취소사유에 동의하시나요?",
  "소명시간경과_안내": "취소사유에 대한 소명 시간이 경과하였습니다. 3차례에 거쳐 관리자가 요청을 하였음에도 소명이 없을 경우 ",
  "소명시간경과_맘대디": "맘대디에게 환불해 드립니다.",
  "소명시간경과_링크쌤": "링크쌤에게 정산해 드립니다.",
  "고객센터문의": "고객센터 문의",
  "소명이필요": "아니오,\n소명이 필요합니다.",
  "동의합니다": "네,동의합니다",
  "취소사유에": "취소사유에 ",
  "취소기간_이전": "동의여부를 기다리고 있어요",
  "서명": "서명",
  "구직중": "구직 중",
  "구직종료": "구직 종료",
  "돌봄방식": "돌봄 방식",
  "돌봄방식_힌트": "보육/가사/놀이/학습 중 가능한 돌봄을 구체적으로 작성해 주세요.\nex) 보육/놀이 돌봄 가능합니다.\n      아이들 놀리며 간식과 식사 챙겨줄 수 있어요.",
  "일반채팅_신청서안내_1": "매칭을 원한다면 \n좌측 하단의 ",
  "일반채팅_신청서안내_2": " 버튼을 눌러\n",
  "일반채팅_신청서안내_3": " 후 매칭 채팅을 진행해주세요.",
  "스케줄": "스케줄",
  "근무날짜시간더보기": "근무 날짜 시간 더보기",
  "다른지역검색": "다른 지역 검색",
  "동네인증지역": "동네인증 지역",
  "돌봄가능지역": "돌봄가능 지역",
  "배상책임보험_가입": "안전사고 배상책임보험 무료 제공 (최대 1.2억)",
  "배상책임보험_가입_안내": "링크맘 앱에서 돌봄 결제된 건에 한해 무료 제공됩니다.",
  "진행중인계약_안내": "진행중인 계약서가 있습니다. 진행 내용 확인 후 계약을 계속 하시겠습니까?",
  "로그인해주세요": "로그인 해주세요",
  "시작하기": "시작하기",
  "알레르기여부": "알레르기 여부",
  "알레르기가있어요": "알레르기가 있어요",
  "알레르기가_힌트": "알레르기명을 입력해 주세요",
  "알레르기가_힌트2": "피해야하는 음식을 입력해 주세요",
  "알레르기": "알레르기",
  "금기식품": "금기식품",
  "부가정보입력": "부가정보 입력",
  "추천인코드안내": "추천인 초대코드를\n입력해 주세요.",
  "가입경로선택": "가입경로를\n선택해 주세요",
  "초대코드입력": "초대코드 입력",
  "초대코드에러": "존재하지 않는 초대코드입니다",
  "복사완료": "복사 완료",
  "복사되었습니다": "쿠폰번호가 복사되었습니다.",
  "재가입초대코드안내": "탈퇴 후 재가입한 경우 추천인 혜택을 받으실 수 없습니다.",
  "인터넷포털검색": "인터넷 포털 검색",
  "취업포털": "취업포털 (잡코리아, 사람인, 알바몬 등)",
  "SNS": "SNS (인스타, 페이스북, 블로그 등)",
  "커뮤니티_카페": "커뮤니티 (카페, 밴드 등)",
  "서포터즈모집": "서포터즈 모집",
  "타사몰": "타사 몰/앱",
  "주위권유소개": "주위권유/소개",
  "신문기사뉴스": "신문기사/뉴스",
  "전단지플랜카드": "전단지/플랜카드",
  "혜택쿠폰함": "혜택 쿠폰함",
  "사용가능": "사용 가능",
  "사용기간만료": "사용/기간만료",
  "사이트바로가기": "사이트 바로가기",
  "비회원만가능합니다": "비회원만 가능합니다",
  "복사": "복사",
  "링크쌤지원하기": "링크쌤 지원하기",
  "쿠폰이없습니다": "쿠폰이 없습니다",
  "가입경로선택_힌트": "가입경로 선택",
  "범죄인증_안내_3": "- 경찰서에 가서 직접 확인하기 때문에 승인까지 약 2주정도 소요 됩니다.",
  "인증반려": "인증 반려",
  "인증성공": "인증 성공",
  "인증반려_재등록": "인증 반려(재등록)",
  "네": "네",
  "부모님": "부모님",
  "돌보미": "돌보미",
  "등록된장소가없어요": "등록된 장소가 없어요.",
  "등록된장소가없어요_안내": "아이 돌보는 장소를 추가하여\n편리하게 이용해 보세요.",
  "장소선택": "장소 선택",
  "장소관리": "장소 관리",
  "장소변경": "장소 변경",
  "장소추가하기": "장소 추가하기",
  "장소추가하기_안내": "장소는 최대 10개까지 등록가능합니다.",
  "장소수정": "장소 수정",
  "장소명": "장소명",
  "장소명_힌트": "10자 이내로 장소명을 입력해 주세요",
  "정말삭제하시겠습니까": "정말 삭제하시겠습니까?",
  "장소추가": "장소 추가",
  "저장하기": "저장 하기",
  "링크쌤집주소를입력해주세요": "링크쌤집 주소를 입력해주세요",
  "링크쌤집주소입력_안내": "돌봄 장소가 이웃집으로\n신청되어 있어요.\n링크쌤집 주소를 입력해주세요.",
  "결제후확인가능": "결제 후 확인 가능",
  "소명": "소명",
  "동의": "동의",
  "취소일시": "취소 일시",
  "취소날짜확인": "취소 날짜 확인",
  "했어요": "했어요",
  "취소사유": "취소 사유",
  "돌봄일기_시간초과": "돌봄 종료 후 12시간이 경과하여\n돌봄일기를 작성할 수 없어요.",
  "돌봄일기_자동정산_안내": "돌봄비용은 돌봄 종료일로부터\n10일 후 자동정산됩니다.",
  "돌봄일기_즉시정산_안내": "돌봄일기가 작성되면 24시간 후 자동정산됩니다. 만일, 작성되지 않으면 돌봄 종료일로부터 10일 후 자동정산 됩니다.",
  "돌봄일기_즉시정산_안내_1": "돌봄일기가 작성되기 전이라도 링크쌤에게 즉시 정산을 원하시면 정산하기를 눌러 정산해 주세요.",
  "즉시정산": "즉시 정산",
  "정산보류_안내": "정산보류 요청한 내용은 수정되지 않습니다. 정말 정산보류 하시겠습니까?",
  "사진은필수": "사진은 필수로 등록하셔야 해요!",
  "보유캐시가있습니다": "보유 캐시가 있습니다.\n입금계좌를 등록해 주세요.",
  "투약의뢰서바로가기": "투약의뢰서 바로가기",
  "돌봄일기바로가기": "돌봄일기 바로가기",
  "투약의뢰_안내1": "투약의뢰서는 돌봄매칭 후 결제가 완료되면\n마이페이지 > 투약의뢰서에서\n작성하실 수 있습니다.",
  "투약의뢰_안내1_힌트": "결제가 완료",
  "투약의뢰_안내2": "해당 돌봄기간동안 요청드릴 투약의뢰서는\n마이페이지 > 투약의뢰서에서\n작성하실 수 있습니다.",
  "투약의뢰_안내2_힌트": "마이페이지 > 투약의뢰서",
  "투약의뢰_안내3": "투약의뢰서는 맘대디 결제 완료 후 돌봄이 시작되면\n돌봄일기에서 작성하실 수 있습니다.",
  "투약의뢰_안내3_힌트": "돌봄일기에서 작성",
  "투약의뢰_안내4": "투약의뢰서는 돌봄일기 목록>돌봄진행 날짜 선택 후\n돌봄일기에서 작성하실 수 있습니다.",
  "투약의뢰_안내4_힌트": "돌봄일기 목록>돌봄진행 날짜 선택 후",
  "투약시주의사항": "투약 시 주의사항",
  "투약시주의사항_안내": "투약날짜와 시간을 꼭 확인하시고\n아이에게 투약 후 투약완료 여부를\n체크해주세요.",
  "진행중인돌봄이": "진행 중인 돌봄이 있습니다. 돌봄 관리를 확인해 주세요.",
  "탈퇴사유를입력": "자세한 사유를 입력해 주시면 더 좋은 서비스를 위해 참고하겠습니다.",
  "렛츠링크쌤": "렛츠링크쌤",
  "돌봄서비스": "돌봄 서비스",
  "돌봄매칭": "돌봄 매칭",
  "돌봄_일기": "돌봄 일기",
  "급여인출": "급여 인출",
  "탈퇴회원": "탈퇴회원",
  "정산예정소득": "정산 예정 소득",
  "헬로맘대디": "헬로맘대디",
  "빠른_매칭": "빠른 매칭",
  "채팅후매칭": "채팅 후 매칭",
  "정산과후기": "정산과 후기",
  "렛츠링크쌤_안내": "링크쌤이 되어주세요",
  "돌봄서비스_안내": "링크쌤은 이렇게 활동해요",
  "돌봄매칭_안내": "매칭수수료가 없어요",
  "돌봄일기_안내_링크쌤": "빠른 정산을 위해\n돌봄일기를 써주세요",
  "급여인출_안내": "정산된 급여를 인출하세요",
  "헬로맘대디_안내": "링크맘은\n이런 장점들이 있어요",
  "빠른매칭_안내": "링크맘에선\n매칭수수료가 없어요",
  "채팅후매칭_안내": "채팅 먼저하고\n매칭할 수도 있어요",
  "돌봄일기_안내_맘대디": "우리 아이 돌봄 일기를\n확인해요",
  "정상과후기_안내": "돌봄일기 확인 후\n정산해주세요",
  "링크쌤즉시지원하기": "링크쌤 즉시 지원하기",
  "링크쌤지원서수정하기": "링크쌤 지원서 수정하기",
  "돌봄신청서작성하기": "돌봄 신청서 작성하기",
  "채팅차단_안내": "메시지를 수신 할 수 없는 사용자 입니다.",
  "맘대디모드_안내": "아이돌봄이 필요한 부모님이에요.",
  "맘대디모드_안내_힌트": "부모님",
  "링크쌤모드_안내": "아이를 돌봐주는 돌봄 선생님이에요.",
  "링크쌤모드_안내_힌트": "돌봄 선생님",
  "돌봄관리_기간만료_안내": "돌봄 날짜가 지났어요. 돌봄 날짜 수정 후 이용해 주세요.",
  "신청서_기간만료_안내": "돌봄 신청서의 돌봄 날짜 수정 후 이용해 주세요.",
  "신청서_기간만료_매칭_안내": "돌봄 신청서의 돌봄 날짜가 지났습니다.\n돌봄 날짜 수정 후 매칭을 요청해주세요.",
  "신청서_기간만료_링크쌤_안내": "돌봄 신청서의 돌봄 날짜가 지나 매칭할 수 없어요.",
  "신청서_기간만료_링크쌤_매칭_안내": "돌봄 신청서의 돌봄 날짜가 지나\n매칭을 진행할 수 없습니다.",
  "마지막게시글입니다": "마지막 게시글 입니다.",
  "등록된사진이없습니다": "등록된 사진이 없습니다.",
  "동네인증완료": "동네 인증 완료",
  "동네인증필요": "동네 인증 필요",
  "집안환경확인": "집안환경 확인",
  "집안환경등록필요": "집안환경 미등록",
  "원하는이웃집환경": "님이 원하는\n이웃집 환경",
  "집의환경": "님 집의 환경",
  "긴급": "긴급",
  "잠깐": "잠깐",
  "우리아이맡기기": "우리 아이 맡기기",
  "우리아이맡기기_안내": "우리아이 돌봄은\n‘링크쌤’에게 맡기세요!",
  "동네아이돌보기": "동네 아이 돌보기",
  "동네아이돌보기_안내": "동네아이 돌봐주고\n용돈을 벌어보세요!",
  "최대3개": "최대3개",
  "이미지최대안내": "까지 등록할 수 있습니다.",
  "이미지최대안내_추가": "등록 가능한 개수를 초과했습니다. 사진을 삭제 후 등록해주세요.",
  "북마크안내": "마이페이지 > 관심목록 > 찜한 정보 에서 확인하실 수 있습니다.",
  "커뮤니티_위반안내_1": "다음 내용은 관리자에 의해 사전 통보 없이 삭제될 수 있습니다.",
  "커뮤니티_위반안내_2": "- 제품판매, 스팸내용, 개인정보 유출, 명예훼손 소지의 글, 불쾌감을 주는 글, 욕설, 유사 글 도배, 부적절한 내용 등",
  "커뮤니티_신고_힌트": "신고 사유에 해당하는 상세 내용과 증거자료가 될 수 있는 사진, 캡처 이미지 등을 첨부해 주세요.",
  "커뮤니티_신고_안내": "신고 내용은 이용약관 및 정책에 의해서 처리되며, 허위신고 시 앱 이용이 제한될 수 있습니다.",
  "님을": "님을",
  "신고하는사유를선택해주세요": "신고하는 사유를 선택 후\n증거자료를 등록해 주세요.",
  "커뮤니티_작성_에러": "제목에 특수문자가 포함되었거나, 부적절한 내용이 포함되어있는지 확인해주세요.",
  "돌봄예정_일기안내": "아직 돌봄이 시작되지 않은 돌봄일기입니다.\n돌봄이 시작되면 돌봄활동 후\n돌봄일기를 꼭 작성해주세요.",
  "돌봄예정_일기안내_1": "돌봄이 시작되면 돌봄활동 후\n돌봄일기를 꼭 작성해주세요.",
  "상세주소_입력_안내": "장소 선택시 상세 주소는 변경이 되지 않아요.",
  "차단되었습니다": "차단되었습니다.",
  "삭제되었습니다": "삭제되었습니다.",
  "이용후기": "이용후기",
  "이용후기_글쓰기_힌트": "링크맘 서비스를 이용해 보신 후기를 남겨주세요.",
  "이동하기": "이동하기",
  "회원탈퇴_안내_1": "보유한 잔여 캐시는 등록된 입금 계좌번호로 입금처리 됩니다. (약 5영업일 소요)",
  "회원탈퇴_안내_2": "보유 쿠폰 및 포인트는 탈퇴 시 모두 소멸되며, 재가입시에도 복구되지 않습니다.",
  "회원탈퇴_안내_3": "링크쌤께 정산해 줘야 할 금액이 남아있을 경우 탈퇴 요청 시 정산도 동시에 진행됩니다.",
  "회원탈퇴_안내_4": "맘대디로 부터 정산받을 금액이 남아있을 경우 정산 완료 후 탈퇴가 가능합니다.",
  "회원탈퇴_안내_5": "회원 탈퇴 시 회원정보는 모두 삭제되며, 삭제된 데이터는 복구되지 않습니다.",
  "회원탈퇴_안내_6": "탈퇴 시 맘대디와 링크쌤 동시 탈퇴되며 링크맘 앱의 모든 서비스 이용이 불가합니다.",
  "회원탈퇴_안내_7": "탈퇴한 동일 계정으로는 재가입이 불가합니다.",
  "집안환경수정": "집안 환경 수정",
  "반려사유": "반려사유",
  "벌점규정": "벌점 규정",
  "변경": "변경",
  "선택완료": "선택 완료",
  "취소정보": "취소 정보",
  "이완료되었습니까": "이 완료되었습니까?",
  "해당조건의데이터가없어요": "해당 조건의 데이터가 없어요.",
  "해당조건의맘대디가없어요": "해당 조건의 맘대디가 없어요.",
  "해당조건의링크쌤이없어요": "해당 조건의 링크쌤이 없어요.",
  "등록된콘텐츠가없어요": "등록된 콘텐츠가 없어요.",
  "첫번째로당신의소통글을남겨보세요": "첫번째로 당신의 소통 글을 남겨보세요!",
  "다른조건으로재검색": "다른 조건으로 재검색",
  "돌봄매칭하러가기": "돌봄 매칭하러가기",
  "데이터없음_랭킹내용": "틈날 때 동네아이 돌보고 용돈 벌며\n랭킹의 성취감도 만끽하세요.",
  "완료_메세지": "을 완료했나요?\n체크후에는 수정이 불가능합니다.",
  "아이가": "아이가 ",
  "지원내역삭제": "지원내역을 삭제하시겠습니까?",
  "잠시만요...": "잠시만요...",
  "아직등록된콘텐츠가없어요": "아직 등록된 콘텐츠가 없어요.",
  "첫번째로글작성하기": "첫번째로 글 작성하기",
  "링크쌤이용수칙": "링크쌤 이용수칙",
  "맘대디이용수칙": "맘대디 이용수칙",
  "예약관리_신고하기_1": "신고를 요청하시면 관리자가 24시간 이내 사실관계 확인을 위해 신고자에게 객관적인 자료를 요청할 수 있습니다.",
  "예약관리_신고하기_2": "신고 대상은 벌점 규정에 따라 활동에 불이익을 받을 수 있으며, 사실관계 확인 시 쌍방과실의 경우 신고자 또한 벌점 규정에 따라 불이익을 받을 수 있습니다.",
  "해당글이삭제되었습니다": "해당 글이 삭제되었습니다.",
  "취소동의_맘대디": "취소사유에 동의하셔서 취소 시점 기준에 따라 맘대디가 환불 받을 금액을 제외한 차액이 링크쌤에게 정산됩니다.",
  "취소동의_링크쌤": "취소사유에 동의하셔서 취소 시점 기준에 따라 링크쌤에게 벌점패널티가 부과되며, 돌봄이 종료된 일정을 제외한 전액이 맘대디에게 환불됩니다.",
  "신고안내_돌봄": "신고내용 확인 후 상대방에게 패널티가 부과되며,\n누가 신고했는지는 상대방에게 공개되지 않습니다.",
  "신고안내_일반": "누가 신고했는지 상대방에게 공개되지 않습니다.",
  "커뮤니티_취소": "글쓰기를 취소하시겠습니까?",
  "투약완료": "투약완료",
  "돌봄신청서알림_안내": "돌봄희망 동네에 링크쌤 지원서가\n등록되면 알려드릴게요!",
  "돌봄신청서알림설정_안내_1": "'마이페이지 > 설정 > 알림 > 링크쌤 지원서 알림'을 설정해주세요.",
  "돌봄신청서알림설정_안내_2": "링크쌤 지원서 알림에 대한 설정 변경은 '마이페이지 > 설정 > 알림 > 링크쌤 지원서 알림'을 설정해주세요.",
  "링크쌤지원서알림_안내": "희망근무 지역에 돌봄 신청서가\n등록되면 알려드릴게요!",
  "링크쌤지원서알림설정_안내_1": "'마이페이지 > 설정 > 알림 > 돌봄 신청서 알림'을 설정해주세요.",
  "링크쌤지원서알림설정_안내_2": "신규 돌봄 신청서 알림에 대한 설정 변경은 '마이페이지 > 설정 > 알림 > 돌봄 신청서 알림'을 설정해주세요.",
  "빠른매칭안내": "하루 1회 알림을 통해 빠른 매칭을 할 수 있어요:)",
  "알림을원하지않는다면": "알림을 원하지 않는다면",
  "네확인했어요": "네, 확인했어요!",
  "서명을기다리고있어요": "서명을 기다리고 있어요.",
  "주소입력_안내1": "아래와 같은 방법으로 주소를 검색해 주세요.",
  "주소입력_안내_키워드1": "· 건물명, 아파트명 ",
  "주소입력_안내_키워드2": " (예: 광교 SK뷰 아파트)",
  "주소입력_안내_주소1": "· 도로명 + ",
  "주소입력_안내_주소2": "건물번호",
  "주소입력_안내_주소3": " (예 : 광교중앙로 247)",
  "주소입력_안내_주소4": "· 지역명(동/읍/면/리) + ",
  "주소입력_안내_주소5": "번지",
  "주소입력_안내_주소6": " (예 : 하동 315)",
  "검색어를입력해주세요": "검색어를 입력해 주세요.",
  "도로명": "도로명",
  "지번": "지번",
  "정확한주소를입력하셨나요": "정확한 주소를 입력하셨나요?",
  "정확한주소를선택해주세요": "정확한 주소를 선택해 주세요.",
  "장소검색예시": "예) 건물명, 아파트명으로 검색",
  "주소검색예시": "예) 도로명, 지번으로 검색",
  "장소로검색하기": "장소로 검색하기",
  "주소로검색하기": "주소로 검색하기",
  "주소검색": "주소 검색",
  "돌봄희망지역": "돌봄 희망지역",
  "근무희망지역": "근무 희망지역",
  "일정중복안내": "다른 일정과 시간이 중복됩니다. 일정을 삭제하고 진행해주세요."
}