<svg width="218" height="60" viewBox="0 0 218 60" fill="none" xmlns="http://www.w3.org/2000/svg">
<mask id="mask0_1429_9178" style="mask-type:alpha" maskUnits="userSpaceOnUse" x="0" y="0" width="218" height="60">
<rect width="218" height="60" rx="30" fill="#C4C4C4"/>
</mask>
<g mask="url(#mask0_1429_9178)">
<rect x="-1" width="75" height="83" fill="white"/>
<rect x="74" width="75" height="83" fill="white"/>
<rect x="149" width="75" height="83" fill="white"/>
<path fill-rule="evenodd" clip-rule="evenodd" d="M119.261 25.1725L121.775 27.6865C121.882 27.7942 121.956 27.9312 121.985 28.0804C122.015 28.2296 122 28.3843 121.941 28.5248C121.883 28.6654 121.785 28.7855 121.658 28.8701C121.532 28.9547 121.383 28.9999 121.231 29C121.027 28.9993 120.832 28.9181 120.687 28.7743L118.173 26.2602C116.246 27.9058 113.757 28.7416 111.228 28.5925C108.698 28.4433 106.325 27.3208 104.605 25.4603C102.885 23.5997 101.952 21.1455 102.002 18.6123C102.052 16.079 103.08 13.6634 104.872 11.8717C106.664 10.0801 109.079 9.05163 111.613 9.00189C114.146 8.95215 116.6 9.88503 118.461 11.605C120.321 13.3249 121.444 15.6983 121.593 18.2276C121.742 20.757 120.906 23.2459 119.261 25.1725ZM111.535 19.59C111.465 19.59 111.394 19.5875 111.324 19.5826C111.293 19.5875 111.262 19.59 111.23 19.59C110.312 19.5642 109.42 19.9005 108.747 20.5263C108.075 21.1521 107.675 22.0172 107.635 22.935C107.635 23.0941 107.572 23.2468 107.459 23.3593C107.347 23.4718 107.194 23.535 107.035 23.535C106.876 23.535 106.723 23.4718 106.611 23.3593C106.498 23.2468 106.435 23.0941 106.435 22.935C106.47 21.6972 106.995 20.5238 107.894 19.6719C108.337 19.2518 108.853 18.9268 109.411 18.7089C109.135 18.4321 108.915 18.1027 108.764 17.738C108.536 17.1898 108.477 16.5866 108.593 16.0047C108.709 15.4228 108.994 14.8882 109.414 14.4686C109.833 14.0491 110.368 13.7634 110.95 13.6476C111.532 13.5319 112.135 13.5913 112.683 13.8183C113.231 14.0454 113.7 14.4299 114.03 14.9233C114.359 15.4166 114.535 15.9966 114.535 16.59C114.535 17.3856 114.219 18.1487 113.656 18.7113C113.094 19.2739 112.331 19.59 111.535 19.59ZM110.53 15.0871C110.828 14.8891 111.178 14.784 111.535 14.785C112.013 14.785 112.47 14.9746 112.808 15.3122C113.146 15.6497 113.335 16.1076 113.335 16.585C113.336 16.9424 113.231 17.2921 113.033 17.5897C112.835 17.8873 112.553 18.1194 112.223 18.2566C111.893 18.3938 111.53 18.43 111.179 18.3605C110.829 18.291 110.507 18.119 110.254 17.8663C110.001 17.6135 109.829 17.2915 109.76 16.9409C109.69 16.5903 109.726 16.2269 109.863 15.8969C110.001 15.5669 110.233 15.285 110.53 15.0871ZM115.611 23.3693C115.723 23.4818 115.876 23.545 116.035 23.545C116.192 23.545 116.343 23.4832 116.456 23.3728C116.568 23.2625 116.632 23.1124 116.635 22.955C116.634 22.2802 116.479 21.6145 116.183 21.0082C115.887 20.4019 115.456 19.8708 114.925 19.455C114.8 19.3555 114.641 19.3097 114.483 19.3275C114.324 19.3453 114.179 19.4253 114.08 19.55C113.981 19.6747 113.935 19.8337 113.952 19.9922C113.97 20.1506 114.05 20.2955 114.175 20.395C114.563 20.6977 114.879 21.0843 115.097 21.5258C115.315 21.9674 115.431 22.4525 115.435 22.945C115.435 23.1041 115.498 23.2567 115.611 23.3693Z" fill="#CECECE"/>
<path d="M95.8811 34.947H94.9791V41.019H95.8811V34.947ZM93.7801 39.369C92.2181 39.622 90.9311 39.677 89.1821 39.677V38.291H92.7571V35.563H88.2691V36.3H91.8661V37.598H88.3021V40.414H89.0941C90.9201 40.414 92.2621 40.359 93.8791 40.095L93.7801 39.369ZM92.6141 44.088C91.1181 44.088 90.2161 43.692 90.2161 43.01C90.2161 42.339 91.1181 41.943 92.6141 41.943C94.1321 41.943 95.0341 42.339 95.0341 43.01C95.0341 43.692 94.1321 44.088 92.6141 44.088ZM92.6141 41.228C90.5681 41.228 89.3141 41.877 89.3141 43.01C89.3141 44.154 90.5681 44.803 92.6141 44.803C94.6711 44.803 95.9361 44.154 95.9361 43.01C95.9361 41.877 94.6711 41.228 92.6141 41.228ZM98.2183 38.951L98.3503 39.699L104.301 39.369C104.246 40.128 104.136 40.942 103.927 41.888L104.807 41.976C105.236 39.952 105.236 38.621 105.236 37.158V35.948H98.4713V36.685H104.356V37.158C104.356 37.664 104.356 38.17 104.334 38.687L98.2183 38.951ZM97.4153 42.702V43.439H106.336V42.702H97.4153ZM112.545 39.622C111.522 38.929 111.258 37.532 111.258 36.597V35.508H110.455V36.597C110.455 37.345 110.334 38.5 109.707 39.292C109.047 38.445 108.948 37.224 108.948 36.597V35.508H108.145V36.597C108.145 37.488 107.87 38.907 106.858 39.622L107.309 40.26C107.947 39.842 108.321 39.16 108.541 38.434C108.717 39.171 109.069 39.919 109.696 40.37C110.334 39.93 110.686 39.215 110.873 38.467C111.093 39.182 111.456 39.853 112.094 40.26L112.545 39.622ZM109.63 41.932H114.646V43.956H109.63V41.932ZM108.75 44.682H115.526V41.217H108.75V44.682ZM114.668 34.947V37.444H113.557V35.123H112.721V40.678H113.557V38.192H114.668V40.733H115.526V34.947H114.668ZM122.418 39.677C120.966 39.259 120.009 38.181 120.009 36.993V36.828H122.187V36.102H120.009V34.903H119.107V36.102H116.918V36.828H119.107V36.993C119.107 38.291 118.106 39.413 116.643 39.853L117.083 40.568C118.238 40.194 119.14 39.413 119.569 38.39C120.009 39.314 120.867 40.04 121.989 40.37L122.418 39.677ZM124.464 41.932V41.217H118.007V41.932H120.757C120.614 42.966 119.217 43.835 117.633 44.077L117.952 44.77C119.404 44.528 120.68 43.835 121.23 42.845C121.791 43.824 123.078 44.539 124.508 44.781L124.849 44.088C123.265 43.835 121.868 42.944 121.703 41.932H124.464ZM124.299 37.389V34.958H123.397V40.678H124.299V38.137H125.762V37.389H124.299ZM126.845 36.014V36.74H130.552C130.365 39.083 129.045 40.975 126.394 42.24L126.878 42.977C130.156 41.371 131.465 38.863 131.465 36.014H126.845ZM133.456 34.947V44.814H134.358V34.947H133.456Z" fill="#999999"/>
<path fill-rule="evenodd" clip-rule="evenodd" d="M194.008 26.0621C194.017 26.3205 194.123 26.566 194.305 26.7498L195.86 28.3248C195.915 28.3787 195.953 28.4478 195.968 28.5232C195.983 28.5986 195.976 28.6769 195.946 28.7479C195.916 28.819 195.866 28.8795 195.802 28.9217C195.737 28.964 195.662 28.9859 195.585 28.9848H186.815C181.39 28.9848 176.625 24.5598 176.545 19.1348C176.524 17.6968 176.813 16.271 177.392 14.9548C177.972 13.6387 178.829 12.463 179.904 11.5081C180.98 10.5532 182.249 9.84151 183.624 9.42159C185 9.00166 186.45 8.88339 187.875 9.07483C190.11 9.35236 192.183 10.3851 193.751 12.0018C195.318 13.6186 196.287 15.7225 196.495 17.9648C196.63 19.2836 196.502 20.6161 196.117 21.8848C195.733 23.1534 195.1 24.333 194.255 25.3548C194.087 25.5512 193.998 25.8036 194.008 26.0621ZM183.425 18.9898C183.425 19.404 183.089 19.7398 182.675 19.7398C182.261 19.7398 181.925 19.404 181.925 18.9898C181.925 18.5756 182.261 18.2398 182.675 18.2398C183.089 18.2398 183.425 18.5756 183.425 18.9898ZM186.545 19.7398C186.959 19.7398 187.295 19.404 187.295 18.9898C187.295 18.5756 186.959 18.2398 186.545 18.2398C186.131 18.2398 185.795 18.5756 185.795 18.9898C185.795 19.404 186.131 19.7398 186.545 19.7398ZM191.16 18.9898C191.16 19.404 190.824 19.7398 190.41 19.7398C189.996 19.7398 189.66 19.404 189.66 18.9898C189.66 18.5756 189.996 18.2398 190.41 18.2398C190.824 18.2398 191.16 18.5756 191.16 18.9898Z" fill="#CECECE"/>
<path d="M180.085 37.521H181.944V36.784H180.096V35.31H179.227V36.784H177.368V37.521H179.227V37.972C179.227 39.589 178.457 41.305 177.126 42.086L177.665 42.768C178.633 42.196 179.326 41.096 179.667 39.842C180.03 41.019 180.723 42.009 181.691 42.548L182.208 41.877C180.888 41.151 180.085 39.545 180.085 37.972V37.521ZM184.76 34.947V38.929H183.462V35.167H182.615V44.33H183.462V39.677H184.76V44.814H185.629V34.947H184.76ZM194.929 34.958H194.027V41.063H194.929V34.958ZM192.894 39.358C191.519 39.589 190.353 39.633 188.296 39.633V38.346H191.827V37.631H188.296V36.399H192.102V35.673H187.394V40.359H188.197C190.353 40.359 191.552 40.315 192.993 40.073L192.894 39.358ZM191.651 44.099C190.155 44.099 189.242 43.692 189.242 43.01C189.242 42.306 190.155 41.91 191.651 41.91C193.158 41.91 194.071 42.306 194.071 43.01C194.071 43.692 193.158 44.099 191.651 44.099ZM191.651 41.206C189.605 41.206 188.351 41.855 188.351 43.01C188.351 44.154 189.605 44.803 191.651 44.803C193.708 44.803 194.962 44.154 194.962 43.01C194.962 41.855 193.708 41.206 191.651 41.206Z" fill="#999999"/>
<path d="M32.49 12.875C32.3762 12.8756 32.2635 12.8537 32.1582 12.8105C32.053 12.7672 31.9574 12.7036 31.8769 12.6231C31.7965 12.5427 31.7328 12.447 31.6895 12.3418C31.6463 12.2365 31.6244 12.1238 31.625 12.01V9.21998C31.625 8.99057 31.7162 8.77055 31.8784 8.60833C32.0406 8.44611 32.2606 8.35498 32.49 8.35498C32.7194 8.35498 32.9395 8.44611 33.1017 8.60833C33.2639 8.77055 33.3551 8.99057 33.3551 9.21998V12.035C33.3498 12.2605 33.2562 12.4748 33.0944 12.632C32.9326 12.7891 32.7155 12.8763 32.49 12.875V12.875Z" fill="#CECECE"/>
<path d="M40.49 12.875C40.3762 12.8756 40.2635 12.8537 40.1582 12.8105C40.053 12.7672 39.9574 12.7036 39.8769 12.6231C39.7965 12.5427 39.7328 12.447 39.6895 12.3418C39.6463 12.2365 39.6244 12.1238 39.625 12.01V9.21998C39.625 8.99057 39.7162 8.77055 39.8784 8.60833C40.0406 8.44611 40.2606 8.35498 40.49 8.35498C40.7194 8.35498 40.9395 8.44611 41.1017 8.60833C41.2639 8.77055 41.3551 8.99057 41.3551 9.21998V12.035C41.3498 12.2605 41.2562 12.4748 41.0944 12.632C40.9326 12.7891 40.7155 12.8763 40.49 12.875V12.875Z" fill="#CECECE"/>
<path fill-rule="evenodd" clip-rule="evenodd" d="M42.4902 10.4302H30.4902C28.2811 10.4302 26.4902 12.221 26.4902 14.4302V24.9302C26.4902 27.1394 28.2811 28.9302 30.4902 28.9302H42.4902C44.6994 28.9302 46.4902 27.1394 46.4902 24.9302V14.4302C46.4902 12.221 44.6994 10.4302 42.4902 10.4302ZM43.6302 15.7202H29.6302C29.4711 15.7202 29.3185 15.657 29.206 15.5445C29.0935 15.4319 29.0303 15.2793 29.0303 15.1202C29.0303 14.9611 29.0935 14.8085 29.206 14.6959C29.3185 14.5834 29.4711 14.5202 29.6302 14.5202H43.6302C43.7894 14.5202 43.942 14.5834 44.0545 14.6959C44.167 14.8085 44.2303 14.9611 44.2303 15.1202C44.2303 15.2793 44.167 15.4319 44.0545 15.5445C43.942 15.657 43.7894 15.7202 43.6302 15.7202ZM35.1004 24.53C35.1733 24.56 35.2515 24.5754 35.3303 24.5752C35.4125 24.5781 35.4944 24.564 35.571 24.5339C35.6475 24.5038 35.7171 24.4583 35.7753 24.4002L40.2753 19.8752C40.3311 19.8199 40.3754 19.754 40.4056 19.6815C40.4358 19.609 40.4514 19.5312 40.4514 19.4527C40.4514 19.3741 40.4358 19.2963 40.4056 19.2238C40.3754 19.1513 40.3311 19.0855 40.2753 19.0302C40.2196 18.9742 40.1534 18.9298 40.0804 18.8996C40.0075 18.8693 39.9293 18.8537 39.8503 18.8537C39.7714 18.8537 39.6932 18.8693 39.6202 18.8996C39.5473 18.9298 39.4811 18.9742 39.4254 19.0302L35.3303 23.1252L33.5553 21.3552C33.4995 21.2994 33.4333 21.2551 33.3604 21.2249C33.2874 21.1947 33.2092 21.1791 33.1303 21.1791C33.0514 21.1791 32.9733 21.1947 32.9003 21.2249C32.8274 21.2551 32.7611 21.2994 32.7053 21.3552C32.6495 21.411 32.6052 21.4772 32.575 21.5502C32.5448 21.6231 32.5293 21.7012 32.5293 21.7802C32.5293 21.8591 32.5448 21.9373 32.575 22.0102C32.6052 22.0831 32.6495 22.1494 32.7053 22.2052L34.9053 24.4002C34.9612 24.4558 35.0275 24.5 35.1004 24.53Z" fill="#CECECE"/>
<path d="M19.5747 43.01H25.3717V40.788H18.6617V41.481H24.4807V42.35H18.6947V44.693H25.6687V44H19.5747V43.01ZM22.5117 39.237V38.302H25.4597V37.576H19.6847V36.047H25.3607V35.321H18.7827V38.302H21.6097V39.237H17.5837V39.963H26.5157V39.237H22.5117ZM29.1939 42.24H34.1659V43.956H29.1939V42.24ZM28.3139 44.682H35.0459V41.514H28.3139V44.682ZM29.2819 36.949H34.0779V38.071H29.2819V36.949ZM32.1309 39.875V38.786H34.9689V35.156H34.0779V36.256H29.2819V35.156H28.3909V38.786H31.2289V39.875H27.2029V40.612H36.1349V39.875H32.1309ZM42.014 39.16C42.267 37.862 42.267 36.883 42.267 36.234V35.717H37.361V36.454H41.387C41.387 37.081 41.354 37.928 41.123 39.061L42.014 39.16ZM42.949 39.754C41.948 39.897 40.826 39.974 39.748 40.018V37.917H38.857V40.051C38.109 40.062 37.394 40.073 36.767 40.073L36.855 40.81C38.604 40.81 40.969 40.755 43.015 40.414L42.949 39.754ZM39.176 41.701H38.274V44.594H44.83V43.857H39.176V41.701ZM44.511 38.159V34.947H43.609V42.383H44.511V38.907H45.93V38.159H44.511ZM47.9261 39.391H51.5671V35.86H46.9911V36.597H50.6541V38.654H47.0241V42.438H47.8381C49.5321 42.438 51.0281 42.372 52.8101 42.075L52.7221 41.338C50.9951 41.613 49.5431 41.69 47.9261 41.69V39.391ZM53.6461 34.936V44.825H54.5481V34.936H53.6461Z" fill="#999999"/>
</g>
</svg>
