<svg width="19" height="19" viewBox="0 0 19 19" fill="none" xmlns="http://www.w3.org/2000/svg">
<rect x="5" y="9" width="9" height="1" fill="#29C9AC"/>
<rect x="10" y="5" width="9" height="1" transform="rotate(90 10 5)" fill="#29C9AC"/>
<circle cx="9.5" cy="9.5" r="9" stroke="#29C9AC"/>
</svg>
