<svg width="48" height="48" viewBox="0 0 48 48" fill="none" xmlns="http://www.w3.org/2000/svg">
<path d="M37.78 31.27C37.5679 31.27 37.3644 31.1857 37.2144 31.0357C37.0643 30.8857 36.98 30.6822 36.98 30.47C36.9572 29.5702 36.5896 28.7134 35.9531 28.0769C35.3166 27.4404 34.4599 27.0728 33.5601 27.05C33.3479 27.05 33.1444 26.9657 32.9944 26.8157C32.8444 26.6656 32.76 26.4622 32.76 26.25C32.76 26.0378 32.8444 25.8344 32.9944 25.6843C33.1444 25.5343 33.3479 25.45 33.5601 25.45C34.4599 25.4272 35.3166 25.0596 35.9531 24.4231C36.5896 23.7866 36.9572 22.9299 36.98 22.03C36.98 21.8179 37.0643 21.6143 37.2144 21.4643C37.3644 21.3143 37.5679 21.23 37.78 21.23C37.9922 21.23 38.1957 21.3143 38.3457 21.4643C38.4957 21.6143 38.5801 21.8179 38.5801 22.03C38.6029 22.9299 38.9704 23.7866 39.6069 24.4231C40.2434 25.0596 41.1001 25.4272 42 25.45C42.2122 25.45 42.4156 25.5343 42.5657 25.6843C42.7157 25.8344 42.8 26.0378 42.8 26.25C42.8 26.4622 42.7157 26.6656 42.5657 26.8157C42.4156 26.9657 42.2122 27.05 42 27.05C41.1001 27.0728 40.2434 27.4404 39.6069 28.0769C38.9704 28.7134 38.6029 29.5702 38.5801 30.47C38.5801 30.6822 38.4957 30.8857 38.3457 31.0357C38.1957 31.1857 37.9922 31.27 37.78 31.27ZM36.24 26.27C36.24 26.6785 36.4022 27.0701 36.691 27.3589C36.9798 27.6478 37.3716 27.81 37.78 27.81C38.1885 27.81 38.5802 27.6478 38.869 27.3589C39.1578 27.0701 39.3201 26.6785 39.3201 26.27C39.3201 26.0678 39.2802 25.8675 39.2028 25.6807C39.1254 25.4938 39.012 25.324 38.869 25.181C38.726 25.038 38.5562 24.9246 38.3694 24.8472C38.1825 24.7698 37.9823 24.73 37.78 24.73C37.5778 24.73 37.3775 24.7698 37.1907 24.8472C37.0038 24.9246 36.834 25.038 36.691 25.181C36.548 25.324 36.4347 25.4938 36.3573 25.6807C36.2799 25.8675 36.24 26.0678 36.24 26.27Z" fill="#CECECE"/>
<path d="M11.22 43.8799C11.1154 43.8813 11.0117 43.8618 10.9147 43.8227C10.8177 43.7836 10.7293 43.7256 10.6549 43.6521C10.5805 43.5786 10.5214 43.4911 10.4811 43.3946C10.4408 43.2981 10.42 43.1946 10.42 43.09C10.3973 42.1901 10.0296 41.3334 9.39307 40.6969C8.75657 40.0604 7.89986 39.6927 7 39.6699C6.78783 39.6699 6.58436 39.5856 6.43433 39.4356C6.2843 39.2856 6.20007 39.0821 6.20007 38.8699C6.20007 38.6578 6.2843 38.4543 6.43433 38.3043C6.58436 38.1542 6.78783 38.0699 7 38.0699C7.90155 38.047 8.75972 37.678 9.39648 37.0394C10.0332 36.4007 10.3998 35.5416 10.42 34.64C10.42 34.4278 10.5043 34.2243 10.6543 34.0743C10.8043 33.9243 11.0078 33.84 11.22 33.84C11.4321 33.84 11.6357 33.9243 11.7858 34.0743C11.9358 34.2243 12.02 34.4278 12.02 34.64C12.0403 35.5416 12.4068 36.4007 13.0436 37.0394C13.6803 37.678 14.5385 38.047 15.4401 38.0699C15.6522 38.0699 15.8557 38.1542 16.0057 38.3043C16.1558 38.4543 16.24 38.6578 16.24 38.8699C16.24 39.0821 16.1558 39.2856 16.0057 39.4356C15.8557 39.5856 15.6522 39.6699 15.4401 39.6699C14.5402 39.6927 13.6835 40.0604 13.047 40.6969C12.4105 41.3334 12.0428 42.1901 12.02 43.09C12.02 43.1946 11.9993 43.2981 11.959 43.3946C11.9187 43.4911 11.8596 43.5786 11.7852 43.6521C11.7107 43.7256 11.6224 43.7836 11.5254 43.8227C11.4284 43.8618 11.3246 43.8813 11.22 43.8799ZM9.68005 38.8799C9.68005 39.0822 9.71985 39.2825 9.79724 39.4693C9.87463 39.6561 9.9881 39.8259 10.1311 39.9689C10.2741 40.1119 10.4439 40.2253 10.6307 40.3027C10.8176 40.3801 11.0177 40.4199 11.22 40.4199C11.4222 40.4199 11.6225 40.3801 11.8093 40.3027C11.9962 40.2253 12.166 40.1119 12.309 39.9689C12.452 39.8259 12.5654 39.6561 12.6428 39.4693C12.7202 39.2825 12.76 39.0822 12.76 38.8799C12.76 38.6777 12.7202 38.4774 12.6428 38.2906C12.5654 38.1037 12.452 37.934 12.309 37.791C12.166 37.648 11.9962 37.5345 11.8093 37.4572C11.6225 37.3798 11.4222 37.34 11.22 37.34C11.0177 37.34 10.8176 37.3798 10.6307 37.4572C10.4439 37.5345 10.2741 37.648 10.1311 37.791C9.9881 37.934 9.87463 38.1037 9.79724 38.2906C9.71985 38.4774 9.68005 38.6777 9.68005 38.8799Z" fill="#CECECE"/>
<path d="M29.86 44.15H18.8001C17.7699 44.1558 16.766 43.8258 15.9401 43.21C15.8554 43.1476 15.7838 43.0692 15.7294 42.9791C15.675 42.8891 15.6389 42.7892 15.6231 42.6852C15.6073 42.5812 15.6122 42.4751 15.6374 42.373C15.6626 42.2709 15.7077 42.1747 15.7701 42.09C15.8324 42.0053 15.9108 41.9337 16.0009 41.8793C16.0909 41.8249 16.1908 41.7889 16.2948 41.7731C16.3988 41.7573 16.505 41.7621 16.6071 41.7874C16.7092 41.8126 16.8053 41.8576 16.8901 41.92C17.4408 42.3331 18.1117 42.5543 18.8001 42.55H29.86C30.2803 42.55 30.6964 42.4672 31.0846 42.3064C31.4729 42.1456 31.8257 41.9099 32.1228 41.6127C32.42 41.3156 32.6556 40.9628 32.8164 40.5746C32.9773 40.1863 33.0601 39.7702 33.0601 39.35V30.79C33.0601 30.6849 33.0808 30.5809 33.121 30.4839C33.1612 30.3868 33.2201 30.2986 33.2943 30.2243C33.3686 30.15 33.4568 30.0911 33.5539 30.0509C33.6509 30.0107 33.755 29.99 33.86 29.99C33.9651 29.99 34.0691 30.0107 34.1662 30.0509C34.2632 30.0911 34.3514 30.15 34.4257 30.2243C34.5 30.2986 34.559 30.3868 34.5992 30.4839C34.6394 30.5809 34.6601 30.6849 34.6601 30.79V39.38C34.6495 40.647 34.1395 41.8587 33.2408 42.7518C32.342 43.645 31.1271 44.1474 29.86 44.15Z" fill="#CECECE"/>
<path d="M14.8 34.8C14.5879 34.8 14.3844 34.7157 14.2344 34.5657C14.0843 34.4156 14 34.2122 14 34V19.66C14 19.1296 14.2107 18.6209 14.5858 18.2458C14.9609 17.8707 15.4696 17.66 16 17.66H32.7101C33.2405 17.66 33.7492 17.8707 34.1243 18.2458C34.4993 18.6209 34.7101 19.1296 34.7101 19.66V21.6C34.7101 21.8121 34.6257 22.0157 34.4757 22.1657C34.3257 22.3157 34.1222 22.4 33.91 22.4C33.6979 22.4 33.4944 22.3157 33.3444 22.1657C33.1943 22.0157 33.11 21.8121 33.11 21.6V19.68C33.1075 19.5774 33.0656 19.4796 32.993 19.407C32.9204 19.3344 32.8226 19.2925 32.72 19.29H16.01C15.9136 19.2926 15.8221 19.3327 15.7549 19.4019C15.6876 19.471 15.65 19.5636 15.65 19.66V34C15.6502 34.1094 15.628 34.2177 15.5847 34.3182C15.5414 34.4186 15.478 34.5091 15.3983 34.5841C15.3186 34.6591 15.2245 34.717 15.1216 34.7541C15.0187 34.7912 14.9092 34.8068 14.8 34.8Z" fill="#CECECE"/>
<path d="M16.03 19.29C15.4996 19.29 14.9909 19.0793 14.6158 18.7042C14.2408 18.3292 14.03 17.8204 14.03 17.29V16.29C14.0327 15.5482 14.3285 14.8375 14.853 14.313C15.3776 13.7885 16.0883 13.4926 16.8301 13.49H18.4C18.6122 13.49 18.8157 13.5743 18.9657 13.7243C19.1157 13.8743 19.2001 14.0778 19.2001 14.29C19.2001 14.5022 19.1157 14.7057 18.9657 14.8557C18.8157 15.0057 18.6122 15.09 18.4 15.09H16.8301C16.6725 15.09 16.5164 15.121 16.3708 15.1813C16.2253 15.2416 16.0929 15.33 15.9814 15.4415C15.87 15.5529 15.7816 15.6852 15.7213 15.8308C15.661 15.9764 15.63 16.1324 15.63 16.29V17.29C15.63 17.342 15.6404 17.3936 15.6606 17.4416C15.6809 17.4896 15.7105 17.533 15.7478 17.5694C15.7851 17.6057 15.8292 17.6343 15.8777 17.6533C15.9262 17.6723 15.978 17.6813 16.03 17.68C16.2422 17.68 16.4457 17.7643 16.5957 17.9143C16.7457 18.0643 16.8301 18.2678 16.8301 18.48C16.8301 18.6922 16.7457 18.8957 16.5957 19.0457C16.4457 19.1957 16.2422 19.28 16.03 19.28V19.29Z" fill="#CECECE"/>
<path d="M32.67 19.29C32.4579 19.29 32.2544 19.2057 32.1044 19.0557C31.9543 18.9056 31.87 18.7022 31.87 18.49C31.87 18.2778 31.9543 18.0743 32.1044 17.9243C32.2544 17.7743 32.4579 17.69 32.67 17.69C32.7735 17.69 32.8727 17.6489 32.9458 17.5758C33.0189 17.5027 33.0601 17.4034 33.0601 17.3V16.3C33.0601 16.1424 33.0289 15.9864 32.9686 15.8408C32.9083 15.6952 32.82 15.5629 32.7086 15.4515C32.5972 15.34 32.4648 15.2517 32.3192 15.1913C32.1736 15.131 32.0176 15.1 31.86 15.1H22.12C21.9078 15.1 21.7044 15.0157 21.5543 14.8657C21.4043 14.7156 21.3201 14.5122 21.3201 14.3C21.3201 14.0878 21.4043 13.8843 21.5543 13.7343C21.7044 13.5843 21.9078 13.5 22.12 13.5H31.86C32.6018 13.5026 33.3125 13.7985 33.837 14.323C34.3616 14.8475 34.6574 15.5582 34.66 16.3V17.3C34.6574 17.827 34.4468 18.3316 34.0742 18.7042C33.7016 19.0769 33.197 19.2873 32.67 19.29Z" fill="#CECECE"/>
<path d="M31.9 15.12C31.6879 15.12 31.4844 15.0357 31.3344 14.8857C31.1843 14.7357 31.1 14.5322 31.1 14.32C31.1 12.1 29.2 10.14 26.37 9.44C26.1955 9.39734 26.0405 9.29719 25.9298 9.1557C25.8192 9.01421 25.7594 8.83965 25.76 8.66003V6.96002C25.7845 6.7485 25.7639 6.53414 25.6997 6.33112C25.6355 6.12809 25.5291 5.94097 25.3875 5.78198C25.2458 5.623 25.0721 5.49581 24.8778 5.40869C24.6835 5.32158 24.4729 5.27649 24.26 5.27649C24.0471 5.27649 23.8365 5.32158 23.6422 5.40869C23.4479 5.49581 23.2742 5.623 23.1326 5.78198C22.9909 5.94097 22.8845 6.12809 22.8203 6.33112C22.7561 6.53414 22.7355 6.7485 22.76 6.96002V8.65002C22.7607 8.82964 22.7009 9.00426 22.5902 9.14575C22.4796 9.28724 22.3245 9.38733 22.15 9.42999C19.42 10.12 17.51 12.14 17.51 14.32C17.51 14.5322 17.4258 14.7357 17.2758 14.8857C17.1257 15.0357 16.9223 15.12 16.7101 15.12C16.4979 15.12 16.2943 15.0357 16.1443 14.8857C15.9943 14.7357 15.91 14.5322 15.91 14.32C15.91 11.58 18.04 9.06999 21.16 8.04999V6.96002C21.136 6.53745 21.1986 6.11443 21.3438 5.71686C21.4889 5.31929 21.7138 4.95548 22.0045 4.64783C22.2952 4.34017 22.6456 4.09511 23.0343 3.92761C23.423 3.76011 23.8418 3.67371 24.265 3.67371C24.6883 3.67371 25.1071 3.76011 25.4958 3.92761C25.8846 4.09511 26.235 4.34017 26.5256 4.64783C26.8163 4.95548 27.0411 5.31929 27.1863 5.71686C27.3315 6.11443 27.394 6.53745 27.37 6.96002V8.06C30.59 9.06 32.7101 11.52 32.7101 14.32C32.7115 14.4263 32.6913 14.5318 32.651 14.6301C32.6107 14.7285 32.5508 14.8176 32.4752 14.8923C32.3996 14.967 32.3097 15.0257 32.2108 15.0648C32.112 15.1039 32.0063 15.1227 31.9 15.12Z" fill="#CECECE"/>
<path d="M22.1 24.9199H18.5601C18.3479 24.9199 18.1444 24.8356 17.9944 24.6856C17.8444 24.5356 17.76 24.3321 17.76 24.1199C17.76 23.9078 17.8444 23.7043 17.9944 23.5543C18.1444 23.4042 18.3479 23.3199 18.5601 23.3199H22.1C22.3121 23.3199 22.5157 23.4042 22.6658 23.5543C22.8158 23.7043 22.9 23.9078 22.9 24.1199C22.9 24.3321 22.8158 24.5356 22.6658 24.6856C22.5157 24.8356 22.3121 24.9199 22.1 24.9199Z" fill="#CECECE"/>
<path d="M22.12 29.4399H18.5901C18.3779 29.4399 18.1743 29.3557 18.0243 29.2056C17.8743 29.0556 17.79 28.8521 17.79 28.64C17.79 28.4278 17.8743 28.2243 18.0243 28.0743C18.1743 27.9243 18.3779 27.84 18.5901 27.84H22.12C22.3322 27.84 22.5356 27.9243 22.6857 28.0743C22.8357 28.2243 22.92 28.4278 22.92 28.64C22.92 28.8521 22.8357 29.0556 22.6857 29.2056C22.5356 29.3557 22.3322 29.4399 22.12 29.4399Z" fill="#CECECE"/>
<path d="M22.12 38.48H18.5901C18.3779 38.48 18.1743 38.3957 18.0243 38.2457C17.8743 38.0956 17.79 37.8922 17.79 37.68C17.79 37.4678 17.8743 37.2643 18.0243 37.1143C18.1743 36.9643 18.3779 36.88 18.5901 36.88H22.12C22.3322 36.88 22.5356 36.9643 22.6857 37.1143C22.8357 37.2643 22.92 37.4678 22.92 37.68C22.92 37.8922 22.8357 38.0956 22.6857 38.2457C22.5356 38.3957 22.3322 38.48 22.12 38.48Z" fill="#CECECE"/>
<path d="M22.12 33.96H18.5901C18.3779 33.96 18.1743 33.8757 18.0243 33.7257C17.8743 33.5757 17.79 33.3722 17.79 33.16C17.79 32.9479 17.8743 32.7443 18.0243 32.5943C18.1743 32.4443 18.3779 32.36 18.5901 32.36H22.12C22.3322 32.36 22.5356 32.4443 22.6857 32.5943C22.8357 32.7443 22.92 32.9479 22.92 33.16C22.92 33.3722 22.8357 33.5757 22.6857 33.7257C22.5356 33.8757 22.3322 33.96 22.12 33.96Z" fill="#CECECE"/>
</svg>
