<svg width="48" height="48" viewBox="0 0 48 48" fill="none" xmlns="http://www.w3.org/2000/svg">
<path d="M14.62 17.1901L11.51 10.5701C11.2238 9.96051 11.0961 9.28862 11.1388 8.61658C11.1815 7.94453 11.3931 7.29404 11.7541 6.72559C12.1152 6.15714 12.6138 5.68912 13.204 5.36475C13.7941 5.04037 14.4566 4.87025 15.13 4.87012H32.87C33.5532 4.87132 34.2248 5.04745 34.8207 5.38184C35.4165 5.71622 35.9167 6.1977 36.2737 6.78027C36.6306 7.36284 36.8323 8.02715 36.8597 8.70984C36.8871 9.39253 36.7392 10.0708 36.43 10.6801L33.13 17.1901" stroke="white" stroke-width="1.6" stroke-linecap="round" stroke-linejoin="round"/>
<path d="M20.24 4.87012V14.5501" stroke="white" stroke-width="1.6" stroke-linecap="round" stroke-linejoin="round"/>
<path d="M27.45 4.87012V14.5501" stroke="white" stroke-width="1.6" stroke-linecap="round" stroke-linejoin="round"/>
<path d="M19.76 28.2501L22.54 31.0301L28.26 25.3101" stroke="white" stroke-width="1.6" stroke-linecap="round" stroke-linejoin="round"/>
<path d="M10.5601 21.5601V34.78C10.5604 35.1308 10.653 35.4753 10.8285 35.7789C11.004 36.0826 11.2563 36.3346 11.5601 36.51L23.01 43.1201C23.314 43.2957 23.6589 43.3881 24.01 43.3881C24.3611 43.3881 24.706 43.2957 25.01 43.1201L36.47 36.51C36.7737 36.3346 37.026 36.0826 37.2015 35.7789C37.3771 35.4753 37.4696 35.1308 37.47 34.78V21.5601C37.4696 21.2093 37.3771 20.8649 37.2015 20.5613C37.026 20.2576 36.7737 20.0054 36.47 19.8301L25.01 13.2101C24.706 13.0345 24.3611 12.9421 24.01 12.9421C23.6589 12.9421 23.314 13.0345 23.01 13.2101L11.5601 19.8301C11.2563 20.0054 11.004 20.2576 10.8285 20.5613C10.653 20.8649 10.5604 21.2093 10.5601 21.5601Z" stroke="white" stroke-width="1.6" stroke-linecap="round" stroke-linejoin="round"/>
<path d="M14.87 24.0701V32.3101C14.8704 32.6608 14.963 33.0053 15.1385 33.309C15.3141 33.6126 15.5663 33.8647 15.87 34.04L23.01 38.17C23.314 38.3456 23.6589 38.438 24.01 38.438C24.3611 38.438 24.706 38.3456 25.01 38.17L32.15 34.04C32.4538 33.8647 32.7061 33.6126 32.8816 33.309C33.0571 33.0053 33.1497 32.6608 33.15 32.3101V24.0701C33.1497 23.7193 33.0571 23.3749 32.8816 23.0713C32.7061 22.7676 32.4538 22.5155 32.15 22.3401L25.01 18.2101C24.706 18.0345 24.3611 17.9421 24.01 17.9421C23.6589 17.9421 23.314 18.0345 23.01 18.2101L15.87 22.3401C15.5663 22.5155 15.3141 22.7676 15.1385 23.0713C14.963 23.3749 14.8704 23.7193 14.87 24.0701Z" stroke="white" stroke-width="1.6" stroke-linecap="round" stroke-linejoin="round"/>
</svg>
