<svg width="48" height="48" viewBox="0 0 48 48" fill="none" xmlns="http://www.w3.org/2000/svg">
<path d="M42.27 37.3799H5.73004C5.25346 37.3773 4.79714 37.1869 4.46014 36.8499C4.12315 36.5129 3.93268 36.0565 3.93005 35.58V32.52C3.93005 32.3078 4.01434 32.1043 4.16437 31.9543C4.3144 31.8043 4.51787 31.72 4.73004 31.72C4.94221 31.72 5.14569 31.8043 5.29572 31.9543C5.44574 32.1043 5.53003 32.3078 5.53003 32.52V35.58C5.53003 35.633 5.55112 35.6839 5.58862 35.7214C5.62613 35.7589 5.677 35.78 5.73004 35.78H42.27C42.3231 35.78 42.374 35.7589 42.4115 35.7214C42.449 35.6839 42.47 35.633 42.47 35.58V32.52C42.47 32.4149 42.4907 32.3109 42.5309 32.2138C42.5711 32.1167 42.6301 32.0286 42.7043 31.9543C42.7786 31.88 42.8668 31.821 42.9639 31.7808C43.0609 31.7406 43.165 31.72 43.27 31.72C43.3751 31.72 43.4791 31.7406 43.5762 31.7808C43.6732 31.821 43.7614 31.88 43.8357 31.9543C43.91 32.0286 43.969 32.1167 44.0092 32.2138C44.0494 32.3109 44.0701 32.4149 44.0701 32.52V35.58C44.0674 36.0565 43.8769 36.5129 43.5399 36.8499C43.2029 37.1869 42.7466 37.3773 42.27 37.3799Z" fill="#CECECE"/>
<path d="M21.87 21.6099H14.03C13.6584 21.6099 13.2904 21.5368 12.947 21.3945C12.6037 21.2523 12.2917 21.0439 12.0289 20.7811C11.7661 20.5183 11.5577 20.2063 11.4155 19.8629C11.2732 19.5196 11.2 19.1516 11.2 18.78C11.2 18.4083 11.2732 18.0403 11.4155 17.697C11.5577 17.3536 11.7661 17.0416 12.0289 16.7788C12.2917 16.516 12.6037 16.3076 12.947 16.1653C13.2904 16.0231 13.6584 15.95 14.03 15.95H21.87C22.2416 15.95 22.6097 16.0231 22.953 16.1653C23.2964 16.3076 23.6083 16.516 23.8711 16.7788C24.1339 17.0416 24.3424 17.3536 24.4846 17.697C24.6268 18.0403 24.7001 18.4083 24.7001 18.78C24.7001 19.1516 24.6268 19.5196 24.4846 19.8629C24.3424 20.2063 24.1339 20.5183 23.8711 20.7811C23.6083 21.0439 23.2964 21.2523 22.953 21.3945C22.6097 21.5368 22.2416 21.6099 21.87 21.6099ZM14.03 17.5499C13.7038 17.5499 13.3909 17.6795 13.1603 17.9102C12.9296 18.1409 12.8 18.4538 12.8 18.78C12.8 19.1062 12.9296 19.419 13.1603 19.6497C13.3909 19.8803 13.7038 20.0099 14.03 20.0099H21.87C22.1962 20.0099 22.5091 19.8803 22.7397 19.6497C22.9704 19.419 23.1 19.1062 23.1 18.78C23.1 18.4538 22.9704 18.1409 22.7397 17.9102C22.5091 17.6795 22.1962 17.5499 21.87 17.5499H14.03Z" fill="#CECECE"/>
<path d="M33.77 21.6099H25.9301C25.1795 21.6099 24.4597 21.3118 23.929 20.7811C23.3982 20.2503 23.1 19.5305 23.1 18.78C23.1 18.0294 23.3982 17.3095 23.929 16.7788C24.4597 16.2481 25.1795 15.95 25.9301 15.95H33.77C34.1417 15.95 34.5097 16.0231 34.853 16.1653C35.1964 16.3076 35.5083 16.516 35.7711 16.7788C36.0339 17.0416 36.2424 17.3536 36.3846 17.697C36.5269 18.0403 36.6 18.4083 36.6 18.78C36.6 19.1516 36.5269 19.5196 36.3846 19.8629C36.2424 20.2063 36.0339 20.5183 35.7711 20.7811C35.5083 21.0439 35.1964 21.2523 34.853 21.3945C34.5097 21.5368 34.1417 21.6099 33.77 21.6099ZM25.9301 17.5499C25.6038 17.5499 25.291 17.6795 25.0603 17.9102C24.8296 18.1409 24.7001 18.4538 24.7001 18.78C24.7001 19.1062 24.8296 19.419 25.0603 19.6497C25.291 19.8803 25.6038 20.0099 25.9301 20.0099H33.77C34.0962 20.0099 34.4091 19.8803 34.6398 19.6497C34.8704 19.419 35 19.1062 35 18.78C35 18.4538 34.8704 18.1409 34.6398 17.9102C34.4091 17.6795 34.0962 17.5499 33.77 17.5499H25.9301Z" fill="#CECECE"/>
<path d="M4.73004 33.38C4.51787 33.38 4.3144 33.2957 4.16437 33.1457C4.01434 32.9957 3.93005 32.7922 3.93005 32.58V26.83C3.9327 25.0274 4.64995 23.2993 5.92462 22.0246C7.1993 20.7499 8.92738 20.0327 10.73 20.03H32C32.2122 20.03 32.4156 20.1143 32.5657 20.2643C32.7157 20.4144 32.8 20.6178 32.8 20.83C32.8 21.0422 32.7157 21.2457 32.5657 21.3957C32.4156 21.5457 32.2122 21.63 32 21.63H10.73C9.35173 21.6326 8.03059 22.1813 7.05597 23.1559C6.08135 24.1306 5.53267 25.4517 5.53003 26.83V32.58C5.53003 32.7922 5.44574 32.9957 5.29572 33.1457C5.14569 33.2957 4.94221 33.38 4.73004 33.38Z" fill="#CECECE"/>
<path d="M24.53 33.38H8.72003C8.50786 33.38 8.30439 33.2957 8.15436 33.1457C8.00433 32.9957 7.92004 32.7922 7.92004 32.58C7.92004 32.3678 8.00433 32.1644 8.15436 32.0143C8.30439 31.8643 8.50786 31.78 8.72003 31.78H24.53C24.7422 31.78 24.9457 31.8643 25.0957 32.0143C25.2457 32.1644 25.3301 32.3678 25.3301 32.58C25.3301 32.7922 25.2457 32.9957 25.0957 33.1457C24.9457 33.2957 24.7422 33.38 24.53 33.38Z" fill="#CECECE"/>
<path d="M39.27 33.38H34.27C34.0578 33.38 33.8544 33.2957 33.7043 33.1457C33.5543 32.9957 33.47 32.7922 33.47 32.58C33.47 32.3678 33.5543 32.1644 33.7043 32.0143C33.8544 31.8643 34.0578 31.78 34.27 31.78H39.27C39.4822 31.78 39.6857 31.8643 39.8357 32.0143C39.9857 32.1644 40.0701 32.3678 40.0701 32.58C40.0701 32.7922 39.9857 32.9957 39.8357 33.1457C39.6857 33.2957 39.4822 33.38 39.27 33.38Z" fill="#CECECE"/>
<path d="M43.26 33.38C43.0478 33.38 42.8444 33.2957 42.6943 33.1457C42.5443 32.9957 42.4601 32.7922 42.4601 32.58V26.83C42.4601 26.6178 42.5443 26.4144 42.6943 26.2643C42.8444 26.1143 43.0478 26.03 43.26 26.03C43.4722 26.03 43.6757 26.1143 43.8257 26.2643C43.9757 26.4144 44.0601 26.6178 44.0601 26.83V32.58C44.0601 32.7922 43.9757 32.9957 43.8257 33.1457C43.6757 33.2957 43.4722 33.38 43.26 33.38Z" fill="#CECECE"/>
<path d="M11.71 41.7499H10.71C9.98068 41.7499 9.28123 41.4602 8.7655 40.9445C8.24978 40.4287 7.96002 39.7293 7.96002 38.9999V36.6199C7.96002 36.4078 8.04431 36.2043 8.19434 36.0543C8.34437 35.9042 8.54784 35.8199 8.76001 35.8199H13.7C13.9122 35.8199 14.1157 35.9042 14.2657 36.0543C14.4157 36.2043 14.5 36.4078 14.5 36.6199V38.9999C14.5 39.3645 14.4276 39.7254 14.2869 40.0616C14.1462 40.3979 13.9401 40.7028 13.6805 40.9587C13.4209 41.2146 13.113 41.4164 12.7747 41.5522C12.4364 41.688 12.0745 41.7552 11.71 41.7499ZM9.53003 37.3799V38.96C9.53003 39.265 9.65122 39.5575 9.86688 39.7731C10.0825 39.9888 10.3751 40.1099 10.6801 40.1099H11.6801C11.9842 40.1073 12.2752 39.9853 12.4903 39.7702C12.7054 39.5551 12.8274 39.2642 12.83 38.96V37.3799H9.53003Z" fill="#CECECE"/>
<path d="M37.3 41.7499H36.3C35.5707 41.7499 34.8712 41.4602 34.3555 40.9445C33.8397 40.4287 33.55 39.7293 33.55 38.9999V36.6199C33.55 36.4078 33.6343 36.2043 33.7843 36.0543C33.9343 35.9042 34.1378 35.8199 34.35 35.8199H39.29C39.5022 35.8199 39.7057 35.9042 39.8557 36.0543C40.0057 36.2043 40.0901 36.4078 40.0901 36.6199V38.9999C40.0888 39.3641 40.0154 39.7244 39.8743 40.0601C39.7331 40.3957 39.5269 40.7001 39.2676 40.9557C39.0082 41.2114 38.7008 41.4131 38.3632 41.5494C38.0255 41.6857 37.6642 41.7539 37.3 41.7499ZM35.11 37.4199V38.9999C35.11 39.3049 35.2312 39.5974 35.4469 39.8131C35.6626 40.0288 35.955 40.15 36.26 40.15H37.26C37.5642 40.1474 37.8552 40.0253 38.0703 39.8102C38.2854 39.5951 38.4074 39.3041 38.41 38.9999V37.3799L35.11 37.4199Z" fill="#CECECE"/>
<path d="M40 27.61C39.7878 27.61 39.5844 27.5257 39.4343 27.3757C39.2843 27.2256 39.2001 27.0222 39.2001 26.81C39.1752 26.0505 38.8631 25.3287 38.3267 24.7904C37.7902 24.2521 37.0695 23.9375 36.3101 23.91C36.0979 23.91 35.8944 23.8257 35.7444 23.6757C35.5944 23.5257 35.51 23.3222 35.51 23.11C35.51 22.8978 35.5944 22.6943 35.7444 22.5443C35.8944 22.3943 36.0979 22.31 36.3101 22.31C37.0678 22.2827 37.7871 21.9695 38.3232 21.4333C38.8594 20.8971 39.1728 20.1778 39.2001 19.42C39.2001 19.2078 39.2843 19.0043 39.4343 18.8543C39.5844 18.7043 39.7878 18.62 40 18.62C40.2122 18.62 40.4156 18.7043 40.5657 18.8543C40.7157 19.0043 40.8 19.2078 40.8 19.42C40.8274 20.1778 41.1406 20.8971 41.6768 21.4333C42.2129 21.9695 42.9323 22.2827 43.6901 22.31C43.9022 22.31 44.1057 22.3943 44.2557 22.5443C44.4058 22.6943 44.49 22.8978 44.49 23.11C44.49 23.3222 44.4058 23.5257 44.2557 23.6757C44.1057 23.8257 43.9022 23.91 43.6901 23.91C42.9306 23.9375 42.2099 24.2521 41.6735 24.7904C41.137 25.3287 40.8249 26.0505 40.8 26.81C40.8 27.0222 40.7157 27.2256 40.5657 27.3757C40.4156 27.5257 40.2122 27.61 40 27.61ZM38.8301 23.11C39.2846 23.4296 39.6804 23.8255 40 24.28C40.3223 23.8278 40.7178 23.4323 41.17 23.11C40.7132 22.7931 40.3169 22.3968 40 21.94C39.6858 22.3991 39.2892 22.7958 38.8301 23.11Z" fill="#CECECE"/>
<path d="M29.42 33.38C29.2079 33.38 29.0044 33.2957 28.8544 33.1457C28.7043 32.9957 28.62 32.7922 28.62 32.58C28.595 31.8188 28.2815 31.0956 27.7429 30.5571C27.2044 30.0185 26.4812 29.705 25.72 29.68C25.5078 29.68 25.3043 29.5957 25.1543 29.4457C25.0043 29.2956 24.92 29.0922 24.92 28.88C24.92 28.6678 25.0043 28.4644 25.1543 28.3143C25.3043 28.1643 25.5078 28.08 25.72 28.08C26.4795 28.0552 27.2013 27.743 27.7396 27.2066C28.2779 26.6702 28.5925 25.9494 28.62 25.19C28.62 24.9778 28.7043 24.7744 28.8544 24.6243C29.0044 24.4743 29.2079 24.39 29.42 24.39C29.6322 24.39 29.8357 24.4743 29.9857 24.6243C30.1357 24.7744 30.22 24.9778 30.22 25.19C30.2473 25.9478 30.5606 26.6671 31.0968 27.2032C31.633 27.7394 32.3522 28.0527 33.11 28.08C33.3222 28.08 33.5256 28.1643 33.6757 28.3143C33.8257 28.4644 33.91 28.6678 33.91 28.88C33.91 29.0922 33.8257 29.2956 33.6757 29.4457C33.5256 29.5957 33.3222 29.68 33.11 29.68C32.3505 29.7075 31.6299 30.0221 31.0935 30.5604C30.5571 31.0986 30.2448 31.8205 30.22 32.58C30.22 32.7922 30.1357 32.9957 29.9857 33.1457C29.8357 33.2957 29.6322 33.38 29.42 33.38ZM28.25 28.88C28.7049 29.2033 29.1007 29.6024 29.42 30.06C29.7339 29.5979 30.1307 29.1978 30.5901 28.88C30.1287 28.5686 29.7314 28.1714 29.42 27.71C29.1013 28.1597 28.7051 28.549 28.25 28.86V28.88Z" fill="#CECECE"/>
<path d="M23.99 16.7999C23.7778 16.7999 23.5743 16.7156 23.4243 16.5656C23.2743 16.4156 23.1901 16.2121 23.1901 15.9999V7.11993C23.1901 6.90776 23.2743 6.70429 23.4243 6.55426C23.5743 6.40423 23.7778 6.31995 23.99 6.31995C24.2022 6.31995 24.4056 6.40423 24.5557 6.55426C24.7057 6.70429 24.79 6.90776 24.79 7.11993V15.9999C24.79 16.2121 24.7057 16.4156 24.5557 16.5656C24.4056 16.7156 24.2022 16.7999 23.99 16.7999Z" fill="#CECECE"/>
<path d="M32 16.8C31.7878 16.8 31.5844 16.7157 31.4343 16.5657C31.2843 16.4156 31.2001 16.2122 31.2001 16V8.57001C31.2001 8.35783 31.2843 8.15436 31.4343 8.00433C31.5844 7.8543 31.7878 7.77002 32 7.77002C32.2122 7.77002 32.4156 7.8543 32.5657 8.00433C32.7157 8.15436 32.8 8.35783 32.8 8.57001V16C32.8 16.2122 32.7157 16.4156 32.5657 16.5657C32.4156 16.7157 32.2122 16.8 32 16.8Z" fill="#CECECE"/>
<path d="M16 16.8C15.7878 16.8 15.5844 16.7157 15.4343 16.5657C15.2843 16.4156 15.2 16.2122 15.2 16V8.57001C15.2 8.35783 15.2843 8.15436 15.4343 8.00433C15.5844 7.8543 15.7878 7.77002 16 7.77002C16.2122 7.77002 16.4157 7.8543 16.5657 8.00433C16.7158 8.15436 16.8 8.35783 16.8 8.57001V16C16.8 16.2122 16.7158 16.4156 16.5657 16.5657C16.4157 16.7157 16.2122 16.8 16 16.8Z" fill="#CECECE"/>
<path d="M19.99 16.8C19.7778 16.8 19.5743 16.7157 19.4243 16.5657C19.2743 16.4156 19.1901 16.2122 19.1901 16V7.45001C19.1901 7.23784 19.2743 7.03437 19.4243 6.88434C19.5743 6.73431 19.7778 6.65002 19.99 6.65002C20.2022 6.65002 20.4056 6.73431 20.5557 6.88434C20.7057 7.03437 20.79 7.23784 20.79 7.45001V16C20.79 16.2122 20.7057 16.4156 20.5557 16.5657C20.4056 16.7157 20.2022 16.8 19.99 16.8Z" fill="#CECECE"/>
<path d="M12 19.58C11.7878 19.58 11.5844 19.4957 11.4343 19.3457C11.2843 19.1957 11.2 18.9922 11.2 18.78V10.78C11.2 10.5679 11.2843 10.3643 11.4343 10.2143C11.5844 10.0643 11.7878 9.97998 12 9.97998C12.2122 9.97998 12.4157 10.0643 12.5657 10.2143C12.7158 10.3643 12.8 10.5679 12.8 10.78V18.78C12.8 18.9922 12.7158 19.1957 12.5657 19.3457C12.4157 19.4957 12.2122 19.58 12 19.58Z" fill="#CECECE"/>
<path d="M27.98 16.8C27.7678 16.8 27.5643 16.7157 27.4143 16.5657C27.2643 16.4156 27.1801 16.2122 27.1801 16V7.45001C27.1801 7.23784 27.2643 7.03437 27.4143 6.88434C27.5643 6.73431 27.7678 6.65002 27.98 6.65002C28.1922 6.65002 28.3956 6.73431 28.5457 6.88434C28.6957 7.03437 28.78 7.23784 28.78 7.45001V16C28.78 16.2122 28.6957 16.4156 28.5457 16.5657C28.3956 16.7157 28.1922 16.8 27.98 16.8Z" fill="#CECECE"/>
<path d="M36.01 15.58C35.7978 15.58 35.5944 15.4957 35.4443 15.3457C35.2943 15.1957 35.2101 14.9922 35.2101 14.78V10.78C35.2101 10.5679 35.2943 10.3643 35.4443 10.2143C35.5944 10.0643 35.7978 9.97998 36.01 9.97998C36.2222 9.97998 36.4257 10.0643 36.5757 10.2143C36.7257 10.3643 36.8101 10.5679 36.8101 10.78V14.78C36.8101 14.9922 36.7257 15.1957 36.5757 15.3457C36.4257 15.4957 36.2222 15.58 36.01 15.58Z" fill="#CECECE"/>
<path d="M8.74005 21.2899C8.52788 21.2899 8.32435 21.2056 8.17432 21.0556C8.02429 20.9056 7.94 20.7021 7.94 20.4899V16.4199C7.94 10.6999 15.15 6.04993 24.02 6.04993C32.64 6.04993 39.7001 10.4 40.0901 15.95C40.0973 16.055 40.0837 16.1604 40.0502 16.2603C40.0166 16.3601 39.9638 16.4523 39.8947 16.5317C39.8255 16.6111 39.7413 16.6761 39.647 16.723C39.5527 16.7699 39.45 16.7977 39.345 16.8049C39.2399 16.8122 39.1345 16.7986 39.0347 16.7651C38.9348 16.7315 38.8426 16.6787 38.7632 16.6095C38.6838 16.5403 38.6189 16.4562 38.572 16.3619C38.5251 16.2676 38.4972 16.165 38.49 16.0599C38.17 11.4199 31.68 7.64996 24.02 7.64996C16.17 7.64996 9.54004 11.65 9.54004 16.41V20.4899C9.54004 20.7021 9.45575 20.9056 9.30573 21.0556C9.1557 21.2056 8.95222 21.2899 8.74005 21.2899Z" fill="#CECECE"/>
</svg>
