<svg width="38" height="38" viewBox="0 0 38 38" fill="none" xmlns="http://www.w3.org/2000/svg">
<circle cx="19" cy="19" r="18.5" stroke="#DEDEDE"/>
<path d="M15.2401 19.8401C15.1083 19.8401 14.9794 19.8792 14.8697 19.9524C14.7601 20.0257 14.6747 20.1298 14.6242 20.2516C14.5738 20.3734 14.5606 20.5075 14.5863 20.6368C14.612 20.7661 14.6755 20.8849 14.7688 20.9781C14.862 21.0714 14.9807 21.1349 15.1101 21.1606C15.2394 21.1863 15.3734 21.1731 15.4952 21.1227C15.6171 21.0722 15.7212 20.9868 15.7945 20.8771C15.8677 20.7675 15.9068 20.6386 15.9068 20.5068C15.9068 20.3299 15.8366 20.1604 15.7115 20.0353C15.5865 19.9103 15.4169 19.8401 15.2401 19.8401Z" fill="#DEDEDE"/>
<path d="M22.84 19.8401C22.7081 19.8401 22.5792 19.8792 22.4696 19.9524C22.36 20.0257 22.2745 20.1298 22.2241 20.2516C22.1736 20.3734 22.1604 20.5075 22.1862 20.6368C22.2119 20.7661 22.2754 20.8849 22.3686 20.9781C22.4618 21.0714 22.5806 21.1349 22.7099 21.1606C22.8392 21.1863 22.9733 21.1731 23.0951 21.1227C23.2169 21.0722 23.3211 20.9868 23.3943 20.8771C23.4676 20.7675 23.5066 20.6386 23.5066 20.5068C23.5066 20.3299 23.4364 20.1604 23.3114 20.0353C23.1864 19.9103 23.0168 19.8401 22.84 19.8401Z" fill="#DEDEDE"/>
<path d="M22.0201 23.2334C21.89 23.1771 21.7429 23.1742 21.6107 23.2253C21.4785 23.2765 21.3717 23.3775 21.3133 23.5067C21.1188 23.9503 20.7992 24.3276 20.3938 24.5925C19.9883 24.8574 19.5144 24.9985 19.0301 24.9985C18.5457 24.9985 18.0718 24.8574 17.6663 24.5925C17.2608 24.3276 16.9413 23.9503 16.7467 23.5067C16.6911 23.385 16.5913 23.289 16.4675 23.2382C16.3437 23.1875 16.2051 23.1857 16.08 23.2334C15.9594 23.2902 15.8644 23.3902 15.8138 23.5136C15.7632 23.637 15.7607 23.7749 15.8068 23.9001C16.0846 24.5333 16.5408 25.0719 17.1197 25.4501C17.6987 25.8283 18.3752 26.0297 19.0667 26.0297C19.7582 26.0297 20.4348 25.8283 21.0137 25.4501C21.5926 25.0719 22.0489 24.5333 22.3267 23.9001C22.3706 23.7708 22.3633 23.6296 22.3063 23.5056C22.2492 23.3816 22.1468 23.2842 22.0201 23.2334Z" fill="#DEDEDE"/>
<path d="M32.8002 19.9C32.8001 19.2067 32.5487 18.537 32.0928 18.0149C31.6368 17.4927 31.007 17.1535 30.3202 17.06C29.8014 15.0716 28.7698 13.2542 27.3285 11.7895C25.8871 10.3248 24.0866 9.26403 22.1069 8.7133C22.0776 7.88847 21.7301 7.10701 21.1372 6.5328C20.5444 5.95858 19.7522 5.63623 18.9268 5.6333C18.7854 5.6333 18.6497 5.68949 18.5497 5.78951C18.4497 5.88953 18.3936 6.02518 18.3936 6.16663C18.3936 6.30807 18.4497 6.44374 18.5497 6.54376C18.6497 6.64378 18.7854 6.69997 18.9268 6.69997C19.4272 6.70084 19.9112 6.87865 20.2931 7.20197C20.6749 7.52528 20.9301 7.97327 21.0135 8.46663C20.3533 8.35002 19.684 8.29201 19.0135 8.29329C16.425 8.30587 13.9136 9.17553 11.8716 10.7664C9.8296 12.3573 8.37215 14.5798 7.72689 17.0866C7.03719 17.1753 6.40339 17.5122 5.94409 18.0343C5.4848 18.5564 5.23145 19.2279 5.23145 19.9233C5.23145 20.6187 5.4848 21.2902 5.94409 21.8123C6.40339 22.3344 7.03719 22.6713 7.72689 22.76C8.363 25.2701 9.81788 27.4965 11.8615 29.0868C13.9051 30.6771 16.4207 31.5406 19.0102 31.5406C21.5997 31.5406 24.1152 30.6771 26.1589 29.0868C28.2025 27.4965 29.6574 25.2701 30.2935 22.76C30.9881 22.6706 31.6261 22.3306 32.0877 21.804C32.5493 21.2773 32.8027 20.6003 32.8002 19.9ZM20.9202 9.5333C20.7753 9.94879 20.5053 10.3091 20.1471 10.5646C19.7889 10.8202 19.3602 10.9583 18.9202 10.96C18.788 10.9602 18.6562 10.9468 18.5269 10.92H18.4736L18.1602 10.8333L18.0868 10.8C17.9924 10.76 17.9011 10.7132 17.8135 10.66L17.7468 10.6133C17.6614 10.5609 17.5811 10.5006 17.5068 10.4333C17.25 10.2055 17.0512 9.91987 16.9268 9.59996C17.6196 9.45361 18.3255 9.37767 19.0335 9.37329C19.6662 9.37094 20.2977 9.42673 20.9202 9.53996V9.5333ZM29.9202 21.7133C29.809 21.7143 29.7013 21.7517 29.6135 21.82C29.5802 21.8533 29.5468 21.88 29.5135 21.92C29.4838 21.954 29.4591 21.9922 29.4402 22.0333C29.4218 22.0699 29.4062 22.1077 29.3936 22.1466C28.87 24.4968 27.5609 26.5982 25.6824 28.1043C23.8038 29.6104 21.468 30.4312 19.0602 30.4312C16.6525 30.4312 14.3166 29.6104 12.4381 28.1043C10.5595 26.5982 9.25047 24.4968 8.72689 22.1466C8.7058 22.0638 8.66509 21.9873 8.60824 21.9235C8.55139 21.8597 8.47999 21.8104 8.40015 21.78C8.35146 21.7736 8.30218 21.7736 8.2535 21.78H8.20687C7.72594 21.78 7.26471 21.5889 6.92464 21.2488C6.58458 20.9088 6.39355 20.4476 6.39355 19.9666C6.39355 19.4857 6.58458 19.0245 6.92464 18.6844C7.26471 18.3443 7.72594 18.1533 8.20687 18.1533C8.2874 18.1513 8.3664 18.131 8.43799 18.0941C8.50958 18.0571 8.57189 18.0044 8.6202 17.94L8.69352 17.8333C8.71191 17.7967 8.72747 17.7589 8.74015 17.72C9.15285 15.902 10.0348 14.224 11.2981 12.853C12.5614 11.4821 14.1619 10.4663 15.9402 9.90664C16.1077 10.4175 16.4039 10.8767 16.8002 11.24C16.9136 11.3325 17.0314 11.4193 17.1535 11.5C17.1897 11.5288 17.2275 11.5555 17.2668 11.58C17.3946 11.6572 17.5284 11.7241 17.6668 11.78L17.7802 11.8333C17.9311 11.8856 18.0846 11.9301 18.2402 11.9666H18.3335C18.5272 12.0012 18.7234 12.0191 18.9202 12.02C19.5972 12.0165 20.2555 11.7976 20.7997 11.3948C21.3439 10.9921 21.7457 10.4264 21.9469 9.77997C23.7734 10.3152 25.4234 11.3294 26.7257 12.7173C28.0281 14.1053 28.9355 15.8165 29.3535 17.6733C29.3793 17.7921 29.445 17.8985 29.5396 17.9749C29.6341 18.0513 29.752 18.093 29.8735 18.0933C30.3545 18.0933 30.8157 18.2843 31.1558 18.6244C31.4958 18.9645 31.6868 19.4257 31.6868 19.9066C31.6868 20.3876 31.4958 20.8488 31.1558 21.1888C30.8157 21.5289 30.3545 21.72 29.8735 21.72L29.9202 21.7133Z" fill="#DEDEDE"/>
</svg>
