<svg width="34" height="34" viewBox="0 0 34 34" fill="none" xmlns="http://www.w3.org/2000/svg">
<path d="M16.98 31.4146C16.6042 31.4146 16.2439 31.2653 15.9782 30.9997C15.7126 30.734 15.5633 30.3737 15.5633 29.998V26.8105C15.5614 26.5476 15.6118 26.287 15.7115 26.0438C15.8112 25.8006 15.9583 25.5797 16.1442 25.3938L26.4079 15.13C27.0504 14.4902 27.9202 14.1311 28.8269 14.1311C29.7336 14.1311 30.6033 14.4902 31.2458 15.13L31.8196 15.7038C32.4593 16.3463 32.8184 17.2161 32.8184 18.1227C32.8184 19.0294 32.4593 19.8991 31.8196 20.5416L21.5558 30.8054C21.37 30.9912 21.149 31.1383 20.9058 31.2381C20.6626 31.3378 20.402 31.3882 20.1392 31.3863L16.98 31.4146ZM28.8871 15.7038C28.6433 15.7023 28.4016 15.7498 28.1765 15.8435C27.9514 15.9372 27.7474 16.0751 27.5767 16.2492L17.3129 26.5058C17.2277 26.5901 17.1793 26.7047 17.1783 26.8246V29.8704H20.2029C20.2618 29.8713 20.3203 29.8604 20.3751 29.8385C20.4298 29.8166 20.4795 29.7841 20.5216 29.7429L30.7784 19.4791C30.952 19.3072 31.0899 19.1026 31.184 18.8771C31.2781 18.6515 31.3266 18.4096 31.3266 18.1652C31.3266 17.9208 31.2781 17.6789 31.184 17.4533C31.0899 17.2278 30.952 17.0232 30.7784 16.8513L30.2046 16.2775C30.0349 16.0982 29.8307 15.9549 29.6043 15.8563C29.3779 15.7577 29.134 15.7058 28.8871 15.7038Z" fill="white"/>
<path d="M29.9425 21.9442C29.8398 21.9463 29.7377 21.9271 29.6427 21.8881C29.5477 21.8491 29.4616 21.7911 29.39 21.7175L25.4304 17.758C25.3046 17.6087 25.2395 17.4176 25.2478 17.2226C25.2561 17.0276 25.3373 16.8429 25.4753 16.7049C25.6133 16.5669 25.798 16.4857 25.993 16.4774C26.188 16.4691 26.3791 16.5342 26.5283 16.66L30.4879 20.6196C30.5605 20.6914 30.6181 20.7769 30.6575 20.8711C30.6968 20.9653 30.717 21.0664 30.717 21.1685C30.717 21.2707 30.6968 21.3718 30.6575 21.466C30.6181 21.5602 30.5605 21.6457 30.4879 21.7175C30.4173 21.7905 30.3324 21.8484 30.2386 21.8873C30.1448 21.9263 30.044 21.9457 29.9425 21.9442V21.9442Z" fill="white"/>
<path d="M20.9438 10.5584H10.7792C10.5726 10.5584 10.3744 10.4762 10.2283 10.3301C10.0821 10.184 10 9.9858 10 9.77915C10 9.5725 10.0821 9.37431 10.2283 9.22819C10.3744 9.08206 10.5726 9 10.7792 9H20.9438C21.1504 9 21.3486 9.08206 21.4948 9.22819C21.6409 9.37431 21.7229 9.5725 21.7229 9.77915C21.7229 9.9858 21.6409 10.184 21.4948 10.3301C21.3486 10.4762 21.1504 10.5584 20.9438 10.5584V10.5584Z" fill="white"/>
<path d="M20.9438 14.8084H10.7792C10.5726 14.8084 10.3744 14.7262 10.2283 14.5801C10.0821 14.434 10 14.2358 10 14.0291C10 13.8225 10.0821 13.6243 10.2283 13.4782C10.3744 13.3321 10.5726 13.25 10.7792 13.25H20.9438C21.1504 13.25 21.3486 13.3321 21.4948 13.4782C21.6409 13.6243 21.7229 13.8225 21.7229 14.0291C21.7229 14.2358 21.6409 14.434 21.4948 14.5801C21.3486 14.7262 21.1504 14.8084 20.9438 14.8084Z" fill="white"/>
<path d="M17.8838 19.0584H10.8005C10.5938 19.0584 10.3957 18.9762 10.2496 18.8301C10.1035 18.684 10.0213 18.4858 10.0213 18.2791C10.0213 18.0725 10.1035 17.8743 10.2496 17.7282C10.3957 17.5821 10.5938 17.5 10.8005 17.5H17.8838C18.0904 17.5 18.2886 17.5821 18.4347 17.7282C18.5809 17.8743 18.663 18.0725 18.663 18.2791C18.663 18.4858 18.5809 18.684 18.4347 18.8301C18.2886 18.9762 18.0904 19.0584 17.8838 19.0584V19.0584Z" fill="white"/>
<path d="M27.5 12V8C27.5 5.79086 25.7091 4 23.5 4H10C7.79086 4 6 5.79086 6 8V25.5C6 27.7091 7.79086 29.5 10 29.5H13" stroke="white" stroke-width="1.6" stroke-linecap="round" stroke-linejoin="round"/>
</svg>
