<svg width="26" height="26" viewBox="0 0 26 26" fill="none" xmlns="http://www.w3.org/2000/svg">
<path d="M18.5196 23.1998H9.23543C7.9573 23.1984 6.73196 22.69 5.82819 21.7862C4.92442 20.8824 4.41601 19.6571 4.41458 18.3789V11.8789C4.41458 11.7497 4.46598 11.6256 4.5574 11.5342C4.64883 11.4428 4.7728 11.3914 4.90209 11.3914C5.03139 11.3914 5.15536 11.4428 5.24679 11.5342C5.33821 11.6256 5.38961 11.7497 5.38961 11.8789V18.3789C5.38961 19.3989 5.79475 20.3771 6.51599 21.0983C7.23722 21.8196 8.21545 22.2248 9.23543 22.2248H18.5196C19.5396 22.2248 20.5177 21.8196 21.239 21.0983C21.9602 20.3771 22.3654 19.3989 22.3654 18.3789V9.09477C22.3654 8.07479 21.9602 7.09656 21.239 6.37533C20.5177 5.6541 19.5396 5.24895 18.5196 5.24895H11.1421C11.0128 5.24895 10.8888 5.19755 10.7973 5.10613C10.7059 5.01471 10.6546 4.89073 10.6546 4.76144C10.6546 4.63215 10.7059 4.50817 10.7973 4.41675C10.8888 4.32532 11.0128 4.27393 11.1421 4.27393H18.5196C19.7977 4.27536 21.0231 4.78376 21.9268 5.68754C22.8306 6.59131 23.339 7.81665 23.3405 9.09477V18.3627C23.3419 18.9969 23.2182 19.6253 22.9767 20.2117C22.7351 20.7981 22.3803 21.3312 21.9326 21.7804C21.4849 22.2297 20.953 22.5862 20.3674 22.8298C19.7817 23.0733 19.1539 23.1991 18.5196 23.1998Z" fill="white" stroke="white" stroke-width="0.4"/>
<path d="M11.4551 10.1H19.5449C19.6953 10.1 19.8374 10.0343 19.9406 9.92088C20.0436 9.8078 20.1 9.65623 20.1 9.49997C20.1 9.34369 20.0435 9.19219 19.9406 9.07912C19.8374 8.9657 19.6953 8.9 19.5449 8.9H11.4551C11.3047 8.9 11.1626 8.9657 11.0594 9.07912C10.9565 9.19219 10.9 9.34369 10.9 9.49997C10.9 9.65623 10.9564 9.8078 11.0594 9.92088C11.1626 10.0343 11.3047 10.1 11.4551 10.1Z" fill="white" stroke="white" stroke-width="0.2"/>
<path d="M18.0808 18.3973H19.6679C19.8237 18.3973 19.9731 18.3354 20.0833 18.2252C20.1935 18.1151 20.2554 17.9656 20.2554 17.8098C20.2554 17.6539 20.1935 17.5045 20.0833 17.3944C19.9732 17.2842 19.8238 17.2223 19.6679 17.2223H18.0808C17.925 17.2223 17.7756 17.2842 17.6654 17.3944C17.5552 17.5045 17.4933 17.6539 17.4933 17.8098C17.4933 17.9656 17.5552 18.1151 17.6654 18.2252C17.7756 18.3354 17.925 18.3973 18.0808 18.3973Z" fill="white" stroke="white" stroke-width="0.2"/>
<path d="M18.0808 14.3132H19.6679C19.8237 14.3132 19.9731 14.2514 20.0833 14.1412C20.1935 14.031 20.2554 13.8816 20.2554 13.7257C20.2554 13.5699 20.1935 13.4205 20.0833 13.3103C19.9731 13.2001 19.8237 13.1383 19.6679 13.1383H18.0808C17.925 13.1383 17.7756 13.2001 17.6654 13.3103C17.5552 13.4205 17.4933 13.5699 17.4933 13.7257C17.4933 13.8816 17.5552 14.031 17.6654 14.1412C17.7756 14.2514 17.925 14.3132 18.0808 14.3132Z" fill="white" stroke="white" stroke-width="0.2"/>
<path d="M13.0975 18.3973H14.6791C14.8349 18.3973 14.9844 18.3354 15.0946 18.2252C15.2048 18.1151 15.2666 17.9656 15.2666 17.8098C15.2666 17.654 15.2048 17.5046 15.0946 17.3944C14.9844 17.2842 14.8349 17.2223 14.6791 17.2223H13.0975C12.9417 17.2223 12.7922 17.2842 12.682 17.3944C12.5718 17.5046 12.51 17.654 12.51 17.8098C12.51 17.9656 12.5718 18.1151 12.682 18.2252C12.7922 18.3354 12.9417 18.3973 13.0975 18.3973Z" fill="white" stroke="white" stroke-width="0.2"/>
<path d="M13.0975 14.3132H14.6791C14.8349 14.3132 14.9844 14.2514 15.0946 14.1412C15.2048 14.031 15.2666 13.8815 15.2666 13.7257C15.2666 13.5699 15.2048 13.4205 15.0946 13.3103C14.9844 13.2001 14.8349 13.1383 14.6791 13.1383H13.0975C12.9417 13.1383 12.7922 13.2001 12.682 13.3103C12.5718 13.4205 12.51 13.5699 12.51 13.7257C12.51 13.8815 12.5718 14.031 12.682 14.1412C12.7922 14.2514 12.9417 14.3132 13.0975 14.3132Z" fill="white" stroke="white" stroke-width="0.2"/>
<path d="M8.11413 18.3973H9.69582C9.85162 18.3973 10.001 18.3354 10.1112 18.2252C10.2214 18.1151 10.2833 17.9656 10.2833 17.8098C10.2833 17.6539 10.2214 17.5045 10.1112 17.3944C10.0011 17.2842 9.85165 17.2223 9.69582 17.2223H8.11413C7.95829 17.2223 7.80888 17.2842 7.69872 17.3944C7.58854 17.5046 7.52668 17.654 7.52668 17.8098C7.52668 17.9656 7.58853 18.1151 7.69872 18.2252C7.80891 18.3354 7.95832 18.3973 8.11413 18.3973Z" fill="white" stroke="white" stroke-width="0.2"/>
<path d="M17.4379 6.10304C17.5481 6.21323 17.6976 6.27508 17.8534 6.27508C18.0092 6.27508 18.1586 6.21322 18.2688 6.10304C18.379 5.99284 18.4408 5.84336 18.4408 5.68757V3.08761C18.4408 3.01048 18.4256 2.93405 18.3961 2.86275C18.3666 2.79148 18.3233 2.72671 18.2688 2.67214C18.2142 2.61758 18.1494 2.57432 18.0782 2.5448C18.0069 2.51528 17.9305 2.5001 17.8534 2.5001C17.7762 2.5001 17.6998 2.51527 17.6285 2.5448C17.5572 2.57432 17.4925 2.61758 17.4379 2.67214C17.3833 2.72671 17.3401 2.79148 17.3106 2.86275C17.281 2.93405 17.2658 3.01048 17.2658 3.08761V5.68757C17.2658 5.84336 17.3277 5.99284 17.4379 6.10304Z" fill="white" stroke="white" stroke-width="0.2"/>
<path d="M3.90093 11.986C4.80814 12.5922 5.87471 12.9158 6.9658 12.9158C8.42891 12.9158 9.83215 12.3345 10.8667 11.3C11.9013 10.2654 12.4825 8.8622 12.4825 7.39909C12.4825 6.308 12.1589 5.24143 11.5527 4.33422C10.9466 3.42701 10.085 2.71991 9.07698 2.30237C8.06894 1.88483 6.95974 1.77556 5.88961 1.98842C4.81948 2.20128 3.83646 2.72671 3.06494 3.49823C2.29342 4.26975 1.76799 5.2527 1.55513 6.32283C1.34227 7.39296 1.45154 8.50216 1.86908 9.5102C2.28662 10.5182 2.99372 11.3799 3.90093 11.986ZM4.54769 3.77468C5.26345 3.29642 6.10496 3.04118 6.9658 3.04118C8.12016 3.04118 9.22728 3.49976 10.0435 4.31601C10.8598 5.13226 11.3184 6.23932 11.3184 7.39367C11.3184 8.25451 11.0631 9.09601 10.5848 9.81178C10.1065 10.5275 9.4268 11.0854 8.63148 11.4148C7.83617 11.7443 6.96098 11.8305 6.11667 11.6625C5.27237 11.4946 4.49685 11.08 3.88814 10.4713C3.27943 9.86262 2.8649 9.0871 2.69696 8.2428C2.52902 7.39849 2.61521 6.52337 2.94464 5.72805C3.27408 4.93274 3.83193 4.25293 4.54769 3.77468Z" fill="white" stroke="white" stroke-width="0.2"/>
<path d="M5.18945 9.42215L5.19018 9.42214C5.30521 9.42098 5.41755 9.38726 5.5142 9.32492L5.51421 9.32494L5.51571 9.32393L7.29233 8.13223L7.29266 8.132C7.37259 8.07791 7.43813 8.00512 7.48355 7.91996C7.52896 7.8348 7.55291 7.73985 7.5533 7.64333V7.64293V4.71798C7.5533 4.56219 7.49145 4.41271 7.38125 4.30251C7.27106 4.19232 7.12158 4.13047 6.96579 4.13047C6.80998 4.13047 6.66057 4.19233 6.55038 4.30251C6.44019 4.41271 6.37834 4.56219 6.37834 4.71798V7.32958L4.86306 8.34505C4.86299 8.3451 4.86292 8.34514 4.86285 8.34519C4.75768 8.41501 4.67777 8.51684 4.635 8.63567C4.59223 8.75454 4.58888 8.88407 4.62553 9.005C4.66218 9.12595 4.73688 9.23181 4.83844 9.30693C4.93999 9.38205 5.06307 9.4225 5.18945 9.42215Z" fill="white" stroke="white" stroke-width="0.2"/>
</svg>
