<svg width="60" height="60" viewBox="0 0 60 60" fill="none" xmlns="http://www.w3.org/2000/svg">
<path d="M44.5126 45.0876C43.4812 45.0887 42.4744 45.4025 41.625 45.9875L38.4625 42.8251C38.2517 42.6152 37.9664 42.4973 37.6689 42.4973C37.3714 42.4973 37.086 42.6152 36.8751 42.8251C36.6644 43.038 36.5461 43.3254 36.5461 43.625C36.5461 43.9246 36.6644 44.2121 36.8751 44.425L40.1126 47.6626C39.6783 48.4248 39.4459 49.2853 39.4375 50.1626C39.4375 51.1663 39.7351 52.1475 40.2928 52.9821C40.8504 53.8167 41.6431 54.4671 42.5705 54.8512C43.4978 55.2353 44.5181 55.3359 45.5026 55.1401C46.487 54.9442 47.3914 54.4609 48.1012 53.7511C48.8109 53.0414 49.2942 52.1371 49.49 51.1526C49.6858 50.1682 49.5854 49.1478 49.2013 48.2204C48.8172 47.2931 48.1667 46.5005 47.3321 45.9428C46.4975 45.3852 45.5163 45.0876 44.5126 45.0876ZM44.5126 52.9876C43.9539 52.9876 43.4077 52.8218 42.9431 52.5114C42.4785 52.201 42.1164 51.7599 41.9026 51.2437C41.6888 50.7275 41.6329 50.1594 41.7419 49.6114C41.8509 49.0634 42.1198 48.56 42.5149 48.165C42.91 47.7699 43.4135 47.5008 43.9615 47.3918C44.5095 47.2828 45.0775 47.3387 45.5937 47.5526C46.1099 47.7664 46.551 48.1285 46.8614 48.593C47.1718 49.0576 47.3376 49.6038 47.3376 50.1626C47.3376 50.9118 47.0399 51.6303 46.5101 52.1601C45.9803 52.6899 45.2618 52.9876 44.5126 52.9876Z" fill="#B579C8"/>
<path d="M53.9625 13.1125H49.3375C48.3433 13.1134 47.3901 13.509 46.6875 14.2125L37.9375 22.9625H29.65V7.37496C29.65 7.04952 29.5835 6.72755 29.4546 6.42876C29.3256 6.12997 29.1369 5.86072 28.9001 5.63752C28.6519 5.41388 28.3613 5.24225 28.0457 5.13275C27.7301 5.02326 27.3958 4.97811 27.0624 5C22.8844 5.32965 18.931 7.0252 15.8124 9.82499C15.4025 9.53035 14.904 9.38478 14.3999 9.41246C14.0672 9.42251 13.7402 9.50101 13.4391 9.64295C13.138 9.78488 12.8695 9.98725 12.6501 10.2375C9.30655 14.0771 7.46409 18.9962 7.46252 24.0875V32.75C7.46584 34.7071 8.24558 36.583 9.63065 37.9657C11.0157 39.3484 12.8929 40.125 14.8501 40.125H20.7876L15.1125 45.8C14.0486 45.1871 12.7963 44.9871 11.5945 45.2381C10.3926 45.4891 9.32516 46.1736 8.59549 47.1611C7.86582 48.1486 7.52486 49.3701 7.63785 50.5927C7.75083 51.8153 8.30985 52.9536 9.20813 53.7906C10.1064 54.6276 11.2812 55.1049 12.5088 55.1314C13.7363 55.1579 14.9306 54.7318 15.8642 53.9343C16.7977 53.1369 17.4054 52.0237 17.571 50.8071C17.7367 49.5905 17.4488 48.3556 16.7625 47.3375L23.975 40.125H42.2375C44.1924 40.1217 46.0664 39.3436 47.4488 37.9613C48.8312 36.5789 49.6092 34.705 49.6125 32.75V24.0875C49.6125 23.7892 49.494 23.503 49.2831 23.292C49.0721 23.081 48.7858 22.9625 48.4875 22.9625H41.1375L48.2999 15.8C48.4386 15.6586 48.6039 15.546 48.7862 15.4688C48.9686 15.3915 49.1645 15.3511 49.3625 15.35H53.9875C54.2848 15.3467 54.5691 15.2271 54.7794 15.0169C54.9897 14.8066 55.1093 14.5224 55.1125 14.225C55.1109 14.0762 55.0798 13.9292 55.021 13.7925C54.9621 13.6558 54.8768 13.5321 54.7698 13.4287C54.6628 13.3252 54.5364 13.244 54.3978 13.1897C54.2592 13.1354 54.1112 13.1092 53.9625 13.1125ZM12.5249 52.9875C11.9662 52.9875 11.4201 52.8218 10.9556 52.5114C10.491 52.201 10.1289 51.7598 9.91507 51.2436C9.70125 50.7274 9.64524 50.1594 9.75424 49.6114C9.86325 49.0634 10.1323 48.56 10.5274 48.1649C10.9225 47.7698 11.4259 47.5007 11.9739 47.3917C12.5219 47.2827 13.0898 47.3387 13.606 47.5525C14.1222 47.7663 14.5635 48.1284 14.8739 48.593C15.1843 49.0576 15.3499 49.6038 15.3499 50.1625C15.3499 50.9118 15.0524 51.6303 14.5226 52.16C13.9928 52.6898 13.2742 52.9875 12.5249 52.9875ZM14.325 11.7375C14.325 11.7375 14.4126 11.6625 14.5251 11.7375L22.5249 19.7375C22.7358 19.9474 23.0212 20.0652 23.3187 20.0652C23.6162 20.0652 23.9016 19.9474 24.1125 19.7375C24.3231 19.5245 24.4413 19.237 24.4413 18.9375C24.4413 18.6379 24.3231 18.3505 24.1125 18.1375L17.4125 11.4375C20.1486 9.03148 23.5922 7.57945 27.2249 7.29996C27.2999 7.29996 27.3375 7.30001 27.3875 7.42501V23.0125H9.74997C9.97643 18.8457 11.5865 14.8736 14.325 11.725V11.7375ZM14.825 37.8875C13.4658 37.8875 12.1622 37.3475 11.2011 36.3864C10.24 35.4253 9.70007 34.1217 9.70007 32.7625V25.2625H35.675L23.0125 37.925L14.825 37.8875ZM47.325 25.225V32.725C47.3217 34.0832 46.7806 35.3849 45.8202 36.3453C44.8598 37.3057 43.5583 37.8467 42.2001 37.85H26.1875L38.85 25.1875L47.325 25.225Z" fill="#B579C8"/>
</svg>
