<svg width="48" height="48" viewBox="0 0 48 48" fill="none" xmlns="http://www.w3.org/2000/svg">
<path d="M7.95997 23.39V32.2399C7.96896 32.5767 8.06602 32.9055 8.24146 33.1932C8.4169 33.481 8.66461 33.7177 8.95997 33.88L23.14 41.9701C23.4288 42.1369 23.7564 42.2245 24.09 42.2245C24.4235 42.2245 24.7511 42.1369 25.04 41.9701L39.1299 33.7399C39.4288 33.5792 39.6791 33.3416 39.855 33.0514C40.0308 32.7612 40.1258 32.4292 40.1299 32.09L40.05 15.7699C40.044 15.4323 39.9482 15.1026 39.7725 14.8143C39.5967 14.5261 39.3473 14.2899 39.05 14.13L24.8699 6.02991C24.5805 5.86508 24.2531 5.77844 23.92 5.77844C23.5869 5.77844 23.2595 5.86508 22.97 6.02991L8.87995 14.2599C8.59092 14.4267 8.35154 14.6677 8.18634 14.9576C8.02115 15.2476 7.93608 15.5763 7.93995 15.91" stroke="#222222" stroke-width="2.0" stroke-linecap="round" stroke-linejoin="round"/>
<path d="M35.21 22.35V18.5699C35.2006 18.2358 35.1031 17.91 34.9276 17.6256C34.752 17.3412 34.5045 17.1083 34.21 16.9501L24.88 11.62C24.5942 11.455 24.27 11.368 23.94 11.368C23.61 11.368 23.2858 11.455 23 11.62L13.72 17.0399C13.4358 17.2063 13.2003 17.4445 13.0371 17.7306C12.8739 18.0167 12.7887 18.3407 12.7901 18.67L12.8501 29.42C12.8512 29.7474 12.9387 30.0685 13.1038 30.3512C13.2688 30.6339 13.5056 30.868 13.7901 31.0299L23.12 36.36C23.4058 36.525 23.73 36.6119 24.06 36.6119C24.39 36.6119 24.7142 36.525 25 36.36L34.28 30.9401C34.5642 30.776 34.7998 30.5398 34.9632 30.2552C35.1265 29.9707 35.2117 29.648 35.21 29.3199" stroke="#222222" stroke-width="2.0" stroke-linecap="round" stroke-linejoin="round"/>
<path d="M19.09 24.66L22.3 27.86L28.89 21.27" stroke="#B579C8" stroke-width="2.0" stroke-linecap="round" stroke-linejoin="round"/>
</svg>
