<svg width="30" height="30" viewBox="0 0 30 30" fill="none" xmlns="http://www.w3.org/2000/svg">
<path d="M5.83123 24.2313C6.04726 24.0161 6.17433 23.7275 6.18707 23.4228C6.19981 23.1182 6.09728 22.8199 5.89997 22.5875C4.89913 21.378 4.14889 19.9816 3.69287 18.4794C3.23684 16.9772 3.08415 15.3993 3.24372 13.8375C3.74997 8.70625 8.57496 3.83748 13.7 3.26873C15.3714 3.08452 17.0629 3.25743 18.6625 3.77593C20.2621 4.29443 21.7334 5.14675 22.9789 6.27647C24.2244 7.40618 25.2158 8.78754 25.8875 10.3291C26.5591 11.8707 26.8958 13.5373 26.875 15.2187C26.7875 21.6437 21.1312 26.8938 14.7062 26.8938H4.65623C4.53931 26.8868 4.42674 26.8471 4.33129 26.7792C4.23585 26.7113 4.16141 26.6179 4.11645 26.5098C4.07149 26.4016 4.05781 26.283 4.07701 26.1674C4.0962 26.0519 4.1475 25.9441 4.22502 25.8562L5.83123 24.2313Z" stroke="#545454" stroke-width="1.6" stroke-linecap="round" stroke-linejoin="round"/>
<path d="M19.7938 15.9375C19.276 15.9375 18.8563 15.5178 18.8563 15C18.8563 14.4822 19.276 14.0625 19.7938 14.0625C20.3115 14.0625 20.7313 14.4822 20.7313 15C20.7313 15.5178 20.3115 15.9375 19.7938 15.9375Z" fill="#545454"/>
<path d="M14.9625 15.9375C14.4448 15.9375 14.025 15.5178 14.025 15C14.025 14.4822 14.4448 14.0625 14.9625 14.0625C15.4803 14.0625 15.9 14.4822 15.9 15C15.9 15.5178 15.4803 15.9375 14.9625 15.9375Z" fill="#545454"/>
<path d="M10.1312 15.9375C9.61346 15.9375 9.19373 15.5178 9.19373 15C9.19373 14.4822 9.61346 14.0625 10.1312 14.0625C10.649 14.0625 11.0687 14.4822 11.0687 15C11.0687 15.5178 10.649 15.9375 10.1312 15.9375Z" fill="#545454"/>
</svg>
