<svg width="48" height="48" viewBox="0 0 48 48" fill="none" xmlns="http://www.w3.org/2000/svg">
<path d="M24.0999 24.7701C22.3663 24.7587 20.6879 24.1589 19.3398 23.0688C17.9917 21.9787 17.0539 20.463 16.68 18.7701C16.6498 18.6649 16.6415 18.5546 16.6556 18.4461C16.6697 18.3376 16.7059 18.2332 16.762 18.1392C16.8182 18.0452 16.8929 17.9637 16.9818 17.8998C17.0706 17.8359 17.1716 17.7909 17.2785 17.7676C17.3855 17.7443 17.496 17.7432 17.6034 17.7643C17.7107 17.7855 17.8127 17.8285 17.9028 17.8905C17.9929 17.9526 18.0693 18.0326 18.1273 18.1254C18.1853 18.2182 18.2236 18.3219 18.24 18.4301C18.5379 19.7606 19.2802 20.95 20.3444 21.8023C21.4087 22.6546 22.7315 23.1189 24.0949 23.1189C25.4584 23.1189 26.7813 22.6546 27.8455 21.8023C28.9098 20.95 29.652 19.7606 29.9499 18.4301C29.995 18.2219 30.121 18.0402 30.3001 17.9248C30.4792 17.8095 30.6968 17.77 30.905 17.8151C31.1132 17.8602 31.2949 17.9861 31.4102 18.1652C31.5256 18.3443 31.5651 18.5619 31.52 18.7701C31.1461 20.463 30.2083 21.9787 28.8602 23.0688C27.5121 24.1589 25.8336 24.7587 24.0999 24.7701Z" fill="black"/>
<path d="M30.76 16.55C30.5795 16.5484 30.4047 16.4865 30.2634 16.3741C30.1221 16.2618 30.0223 16.1055 29.9799 15.9301C29.682 14.5995 28.9398 13.4102 27.8756 12.5579C26.8113 11.7056 25.4884 11.2411 24.125 11.2411C22.7615 11.2411 21.4386 11.7056 20.3744 12.5579C19.3101 13.4102 18.5679 14.5995 18.27 15.9301C18.2505 16.036 18.2099 16.1369 18.1505 16.2267C18.0911 16.3165 18.0142 16.3935 17.9244 16.4529C17.8346 16.5123 17.7337 16.5529 17.6278 16.5724C17.5219 16.5919 17.413 16.5897 17.3079 16.5662C17.2029 16.5426 17.1036 16.498 17.0162 16.4352C16.9288 16.3723 16.855 16.2924 16.7992 16.2003C16.7433 16.1082 16.7066 16.0059 16.6912 15.8993C16.6759 15.7927 16.6823 15.6842 16.7099 15.5801C17.0842 13.8911 18.0235 12.3803 19.3726 11.2974C20.7218 10.2145 22.4 9.62427 24.13 9.62427C25.8599 9.62427 27.5382 10.2145 28.8873 11.2974C30.2364 12.3803 31.1757 13.8911 31.55 15.5801C31.5768 15.6858 31.5821 15.7958 31.5658 15.9037C31.5495 16.0115 31.5118 16.1151 31.455 16.2083C31.3982 16.3014 31.3234 16.3822 31.2349 16.446C31.1465 16.5099 31.0463 16.5555 30.94 16.5801L30.76 16.55Z" fill="black"/>
<path d="M21.77 18.09C22.0572 18.09 22.29 17.8572 22.29 17.57C22.29 17.2829 22.0572 17.05 21.77 17.05C21.4828 17.05 21.25 17.2829 21.25 17.57C21.25 17.8572 21.4828 18.09 21.77 18.09Z" fill="black"/>
<path d="M26.42 18.09C26.7072 18.09 26.94 17.8572 26.94 17.57C26.94 17.2829 26.7072 17.05 26.42 17.05C26.1328 17.05 25.9 17.2829 25.9 17.57C25.9 17.8572 26.1328 18.09 26.42 18.09Z" fill="black"/>
<path d="M24.1 21.15C23.6433 21.1493 23.1969 21.0155 22.815 20.7651C22.4332 20.5147 22.1326 20.1585 21.9499 19.74C21.9148 19.6791 21.893 19.6116 21.8857 19.5418C21.8785 19.4719 21.8861 19.4013 21.9079 19.3345C21.9298 19.2677 21.9655 19.2062 22.0127 19.1542C22.0599 19.1021 22.1175 19.0606 22.1819 19.0324C22.2462 19.0041 22.3157 18.9897 22.386 18.9901C22.4562 18.9905 22.5256 19.0058 22.5896 19.0348C22.6536 19.0638 22.7107 19.106 22.7573 19.1586C22.8039 19.2112 22.8389 19.2731 22.86 19.3401C22.9663 19.5805 23.14 19.7848 23.3601 19.9286C23.5802 20.0724 23.8371 20.1493 24.1 20.15C24.3614 20.1486 24.6168 20.0713 24.8352 19.9275C25.0535 19.7837 25.2254 19.5797 25.3299 19.3401C25.356 19.2796 25.3939 19.2247 25.4413 19.1788C25.4886 19.133 25.5446 19.0969 25.6059 19.0728C25.6673 19.0486 25.7328 19.0367 25.7987 19.038C25.8646 19.0392 25.9296 19.0536 25.99 19.0801C26.0505 19.1062 26.1053 19.1439 26.1512 19.1913C26.1971 19.2386 26.2331 19.2946 26.2573 19.356C26.2815 19.4173 26.2932 19.4828 26.292 19.5487C26.2907 19.6146 26.2765 19.6796 26.25 19.74C26.0663 20.1577 25.7655 20.5133 25.3839 20.7636C25.0023 21.0138 24.5563 21.148 24.1 21.15Z" fill="black"/>
<path d="M30.76 19.42C30.5478 19.42 30.3444 19.3357 30.1943 19.1857C30.0443 19.0356 29.96 18.8322 29.96 18.62C29.96 18.4078 30.0443 18.2043 30.1943 18.0543C30.3444 17.9043 30.5478 17.8201 30.76 17.8201C30.9271 17.8201 31.0873 17.7536 31.2054 17.6355C31.3236 17.5173 31.39 17.3571 31.39 17.1901C31.39 17.022 31.3239 16.8607 31.2061 16.741C31.0882 16.6212 30.928 16.5527 30.76 16.55C30.6481 16.5626 30.5349 16.5514 30.4276 16.5172C30.3203 16.483 30.2215 16.4265 30.1376 16.3514C30.0536 16.2764 29.9864 16.1846 29.9404 16.0818C29.8945 15.979 29.8707 15.8676 29.8707 15.755C29.8707 15.6424 29.8945 15.5311 29.9404 15.4283C29.9864 15.3256 30.0536 15.2336 30.1376 15.1586C30.2215 15.0835 30.3203 15.0271 30.4276 14.9929C30.5349 14.9587 30.6481 14.9475 30.76 14.9601C31.3514 14.9601 31.9187 15.1949 32.3369 15.6132C32.7551 16.0314 32.99 16.5986 32.99 17.1901C32.99 17.7815 32.7551 18.3486 32.3369 18.7668C31.9187 19.185 31.3514 19.42 30.76 19.42Z" fill="black"/>
<path d="M17.45 19.4401C17.1439 19.4605 16.8369 19.4179 16.548 19.3148C16.259 19.2118 15.9943 19.0505 15.7703 18.8409C15.5462 18.6314 15.3677 18.3781 15.2456 18.0967C15.1235 17.8153 15.0604 17.5118 15.0604 17.2051C15.0604 16.8983 15.1235 16.5948 15.2456 16.3134C15.3677 16.0319 15.5462 15.7786 15.7703 15.5691C15.9943 15.3595 16.259 15.1983 16.548 15.0952C16.8369 14.9922 17.1439 14.9496 17.45 14.9701C17.6621 14.9701 17.8657 15.0543 18.0157 15.2043C18.1658 15.3544 18.25 15.5578 18.25 15.77C18.25 15.9822 18.1658 16.1857 18.0157 16.3357C17.8657 16.4857 17.6621 16.5701 17.45 16.5701C17.2819 16.57 17.1207 16.636 17.001 16.7539C16.8812 16.8718 16.8127 17.0321 16.8101 17.2001C16.8101 17.3698 16.8774 17.5326 16.9974 17.6526C17.1175 17.7726 17.2802 17.8401 17.45 17.8401C17.6621 17.8401 17.8657 17.9243 18.0157 18.0743C18.1658 18.2244 18.25 18.4278 18.25 18.64C18.25 18.8522 18.1658 19.0557 18.0157 19.2057C17.8657 19.3557 17.6621 19.4401 17.45 19.4401Z" fill="black"/>
<path d="M27.7164 32.9565H27.6465C16.4265 32.0965 11.3164 22.7165 11.1064 22.3265C10.9937 22.1156 10.9694 21.8686 11.0388 21.6399C11.1082 21.4111 11.2656 21.2192 11.4764 21.1065C11.6873 20.9938 11.9343 20.9694 12.1631 21.0388C12.3919 21.1082 12.5837 21.2657 12.6964 21.4765C12.6964 21.5665 17.5765 30.3865 27.7765 31.1665C27.9976 31.1962 28.1998 31.307 28.3439 31.4774C28.4879 31.6478 28.5636 31.8656 28.5562 32.0886C28.5487 32.3116 28.4586 32.5239 28.3035 32.6843C28.1483 32.8446 27.9391 32.9417 27.7164 32.9565Z" fill="black"/>
<path d="M24.98 28.8201C24.7547 28.8146 24.5397 28.7248 24.3774 28.5684C24.2152 28.412 24.1174 28.2004 24.1036 27.9755C24.0898 27.7506 24.161 27.5287 24.3028 27.3537C24.4447 27.1786 24.6471 27.0631 24.87 27.0301C29.0508 26.3634 32.8221 24.1329 35.42 20.7901C35.5668 20.6339 35.7645 20.5352 35.9775 20.5118C36.1906 20.4883 36.4049 20.5416 36.5821 20.6621C36.7593 20.7827 36.8876 20.9626 36.9441 21.1693C37.0005 21.3761 36.9814 21.5962 36.89 21.7901C34.0192 25.5672 29.7904 28.0779 25.1 28.7901L24.98 28.8201Z" fill="black"/>
<path d="M25.1 13.39C24.4275 13.391 23.7763 13.1549 23.2605 12.7233C22.7448 12.2917 22.3976 11.6922 22.2801 11.03C22.2643 10.9394 22.2665 10.8466 22.2865 10.7568C22.3066 10.6671 22.3442 10.5822 22.3971 10.507C22.4501 10.4317 22.5173 10.3676 22.595 10.3184C22.6727 10.2691 22.7594 10.2358 22.85 10.2201C22.9406 10.2043 23.0336 10.2065 23.1233 10.2266C23.2131 10.2467 23.298 10.2842 23.3732 10.3372C23.4484 10.3901 23.5125 10.4573 23.5617 10.535C23.6109 10.6127 23.6444 10.6994 23.6601 10.79C23.7095 11.0631 23.8356 11.3165 24.0239 11.5204C24.2121 11.7243 24.4546 11.8702 24.7228 11.9413C24.9911 12.0124 25.274 12.0056 25.5385 11.9216C25.803 11.8377 26.0381 11.6801 26.2162 11.4673C26.3944 11.2545 26.5081 10.9953 26.5442 10.7202C26.5804 10.4451 26.5375 10.1654 26.4203 9.91382C26.3032 9.66225 26.1168 9.44924 25.883 9.2998C25.6492 9.15037 25.3775 9.0707 25.1 9.07007C24.9144 9.07007 24.7363 8.99627 24.605 8.86499C24.4738 8.73371 24.4001 8.55565 24.4001 8.37C24.4001 8.18434 24.4738 8.0064 24.605 7.87512C24.7363 7.74385 24.9144 7.67004 25.1 7.67004C25.8585 7.67004 26.586 7.97134 27.1224 8.50769C27.6587 9.04404 27.96 9.77151 27.96 10.53C27.96 11.2885 27.6587 12.016 27.1224 12.5524C26.586 13.0887 25.8585 13.39 25.1 13.39Z" fill="black"/>
<path d="M25.1 13.39C24.9143 13.39 24.7363 13.3163 24.605 13.1851C24.4737 13.0538 24.4 12.8757 24.4 12.6901C24.4 12.5044 24.4737 12.3263 24.605 12.1951C24.7363 12.0638 24.9143 11.99 25.1 11.99C25.4872 11.99 25.8586 11.8362 26.1324 11.5624C26.4062 11.2886 26.5601 10.9172 26.5601 10.53C26.5601 10.1428 26.4062 9.77148 26.1324 9.49768C25.8586 9.22388 25.4872 9.07007 25.1 9.07007C24.9143 9.07007 24.7363 8.99627 24.605 8.86499C24.4737 8.73371 24.4 8.55565 24.4 8.37C24.4 8.18434 24.4737 8.0064 24.605 7.87512C24.7363 7.74385 24.9143 7.67004 25.1 7.67004C25.8585 7.67004 26.586 7.97134 27.1223 8.50769C27.6587 9.04404 27.96 9.77151 27.96 10.53C27.96 11.2885 27.6587 12.016 27.1223 12.5524C26.586 13.0887 25.8585 13.39 25.1 13.39Z" fill="black"/>
<path d="M24 5.9C30.7094 5.9 36.1 11.1642 36.1 17.5991V31.4009C36.1 37.8358 30.7094 43.1 24 43.1C17.2906 43.1 11.9 37.8358 11.9 31.4009V17.5991C11.9 11.1642 17.2906 5.9 24 5.9Z" stroke="black" stroke-width="1.8" stroke-linecap="round" stroke-linejoin="round"/>
</svg>
