<svg width="48" height="48" viewBox="0 0 48 48" fill="none" xmlns="http://www.w3.org/2000/svg">
<path d="M44.0699 9.55005C42.9699 7.07005 29.8899 6.79004 24.0699 6.79004C18.2499 6.79004 5.22 7.07005 4.12 9.55005C4.08088 9.64526 4.06057 9.74711 4.06006 9.85004V22.53C4.06006 32.66 11.7401 40.91 21.1801 40.91H27C36.44 40.91 44.12 32.66 44.12 22.53V9.85004C44.1227 9.74776 44.1056 9.64593 44.0699 9.55005ZM24.0699 8.35004C33.5999 8.35004 40.0699 9.15004 42.0699 9.85004C40.0699 10.55 33.6399 11.34 24.0699 11.34C14.4999 11.34 8.06995 10.55 6.06995 9.85004C8.11995 9.15004 14.57 8.35004 24.1 8.35004H24.0699ZM30.36 38.8901V37.28C30.3222 34.609 31.1919 32.0042 32.8268 29.8916C34.4616 27.779 36.7649 26.2836 39.36 25.65C39.4624 25.6257 39.5591 25.5815 39.6444 25.5199C39.7297 25.4583 39.802 25.3804 39.8573 25.2908C39.9126 25.2012 39.9497 25.1016 39.9664 24.9976C39.9832 24.8937 39.9793 24.7875 39.955 24.6851C39.9307 24.5826 39.8865 24.486 39.8248 24.4006C39.7632 24.3153 39.6853 24.2429 39.5957 24.1877C39.5061 24.1324 39.4065 24.0954 39.3026 24.0786C39.1987 24.0619 39.0924 24.0657 38.99 24.09C36.0497 24.8128 33.4409 26.5101 31.5886 28.9053C29.7364 31.3005 28.75 34.2525 28.79 37.28V39.05C28.7854 39.0966 28.7854 39.1435 28.79 39.1901C28.1903 39.2739 27.5855 39.3173 26.98 39.3201H21.16C20.5545 39.3173 19.9497 39.2739 19.35 39.1901C19.3547 39.1435 19.3547 39.0966 19.35 39.05V37.29C19.3901 34.2625 18.4036 31.3106 16.5514 28.9153C14.6991 26.5201 12.0903 24.8228 9.15002 24.1C9.04492 24.0717 8.9352 24.0649 8.82739 24.0799C8.71958 24.0949 8.61592 24.1316 8.52258 24.1876C8.42924 24.2436 8.34806 24.3178 8.28406 24.4059C8.22005 24.4939 8.1745 24.594 8.15002 24.7001C8.11858 24.8045 8.1091 24.9143 8.12219 25.0226C8.13528 25.1309 8.17065 25.2353 8.22607 25.3292C8.2815 25.4232 8.35576 25.5046 8.44421 25.5684C8.53267 25.6322 8.63337 25.6771 8.73999 25.7001C11.3351 26.3337 13.6383 27.829 15.2732 29.9416C16.908 32.0542 17.7777 34.659 17.74 37.3301V38.9401C10.8 37.2701 5.59998 30.5801 5.59998 22.5801V19.9501L10.4 20.71C10.5365 20.7199 10.6736 20.7199 10.8101 20.71C11.424 20.7154 12.0183 20.4947 12.48 20.09C12.7622 19.8393 12.9876 19.5311 13.1411 19.1862C13.2946 18.8413 13.3727 18.4676 13.37 18.09C13.3613 17.3157 13.0797 16.5693 12.5748 15.9822C12.07 15.395 11.3742 15.0048 10.61 14.8801L8.16003 14.5801C8.05541 14.5661 7.94898 14.5733 7.84717 14.6011C7.74536 14.629 7.65022 14.6769 7.56726 14.7422C7.4843 14.8074 7.41519 14.8886 7.36414 14.981C7.31308 15.0734 7.28112 15.1751 7.27002 15.28C7.25602 15.3839 7.26281 15.4895 7.29004 15.5908C7.31727 15.692 7.36437 15.7867 7.42859 15.8696C7.49281 15.9524 7.57283 16.0217 7.66406 16.0732C7.7553 16.1248 7.85588 16.1577 7.95996 16.17L10.4 16.47C10.7782 16.5447 11.1198 16.7457 11.3688 17.0401C11.6177 17.3345 11.7592 17.7047 11.77 18.09C11.7767 18.2432 11.7497 18.3961 11.6909 18.5377C11.6322 18.6794 11.5432 18.8065 11.4301 18.91C11.3214 19.0005 11.1948 19.0668 11.0586 19.1047C10.9224 19.1427 10.7798 19.1513 10.64 19.1301L5.64001 18.3301V11.3301C9.48001 12.8001 19.2899 12.9901 24.0699 12.9901C28.8499 12.9901 38.66 12.8001 42.5 11.3301V18.42L37.66 19.1801C37.5187 19.2028 37.3741 19.1949 37.2361 19.1569C37.0981 19.119 36.9698 19.0518 36.86 18.96C36.7469 18.8565 36.6579 18.7294 36.5991 18.5878C36.5404 18.4461 36.5134 18.2933 36.52 18.1401C36.5304 17.7561 36.6704 17.3869 36.9174 17.0928C37.1643 16.7986 37.5036 16.5967 37.88 16.52L40.33 16.22C40.4344 16.2076 40.5354 16.1748 40.6271 16.1234C40.7188 16.0719 40.7995 16.0028 40.8645 15.9202C40.9295 15.8375 40.9776 15.7429 41.006 15.6416C41.0344 15.5403 41.0426 15.4345 41.03 15.3301C41.0026 15.1183 40.8925 14.926 40.724 14.7949C40.5555 14.6638 40.342 14.6046 40.13 14.6301L37.66 14.9401C36.9003 15.0668 36.2094 15.4569 35.7084 16.042C35.2074 16.6271 34.9283 17.3699 34.92 18.1401C34.9199 18.5172 34.999 18.8901 35.1523 19.2347C35.3057 19.5792 35.5298 19.8877 35.8101 20.1401C36.2748 20.5463 36.8728 20.767 37.49 20.7601H37.9L42.5 20.03V22.5801C42.53 30.5301 37.33 37.2201 30.39 38.8901H30.36Z" fill="#CECECE"/>
<path d="M32.1603 22.1899H16.0403C15.8281 22.1899 15.6246 22.2742 15.4746 22.4243C15.3246 22.5743 15.2402 22.7778 15.2402 22.9899C15.2402 23.2021 15.3246 23.4056 15.4746 23.5556C15.6246 23.7056 15.8281 23.7899 16.0403 23.7899H32.1603C32.3725 23.7899 32.5759 23.7056 32.726 23.5556C32.876 23.4056 32.9602 23.2021 32.9602 22.9899C32.9602 22.7778 32.876 22.5743 32.726 22.4243C32.5759 22.2742 32.3725 22.1899 32.1603 22.1899Z" fill="#CECECE"/>
</svg>
