<svg width="24" height="24" viewBox="0 0 24 24" fill="none" xmlns="http://www.w3.org/2000/svg">
<path d="M22.7752 16.565C22.7802 16.4851 22.7802 16.4049 22.7752 16.325C22.7737 15.8302 22.6026 15.3508 22.2906 14.9667C21.9786 14.5827 21.5444 14.3172 21.0604 14.2143C20.5763 14.1114 20.0717 14.1774 19.6304 14.4013C19.1892 14.6253 18.8379 14.9936 18.6352 15.445C18.4344 14.991 18.0837 14.6198 17.6418 14.3936C17.2 14.1674 16.6938 14.0999 16.2081 14.2025C15.7224 14.305 15.2866 14.5713 14.9739 14.9569C14.6611 15.3424 14.4904 15.8236 14.4902 16.32V16.355C14.4902 18.64 18.6302 21.6601 18.6302 21.6601C18.6302 21.6601 22.2802 18.9451 22.7252 16.7751C22.7461 16.7062 22.7628 16.6359 22.7752 16.565Z" fill="white" stroke="white" stroke-width="0.4" stroke-linecap="round" stroke-linejoin="round"/>
<path d="M3.44531 19.3749V4.24487C3.44531 3.77896 3.63006 3.332 3.95905 3.00208C4.28803 2.67215 4.7344 2.48619 5.20032 2.48486H16.2603C16.7267 2.48618 17.1736 2.67205 17.5034 3.00183C17.8331 3.33161 18.019 3.7785 18.0203 4.24487V11.9749" stroke="white" stroke-linecap="round" stroke-linejoin="round"/>
<path d="M15.1853 21.7048H5.51032C4.96265 21.7048 4.43741 21.4874 4.05015 21.1001C3.66288 20.7128 3.44532 20.1876 3.44532 19.6399C3.44466 19.3683 3.4976 19.0993 3.60108 18.8481C3.70456 18.597 3.85656 18.3688 4.04838 18.1765C4.24019 17.9842 4.46808 17.8316 4.71894 17.7275C4.9698 17.6235 5.23872 17.5698 5.51032 17.5698H12.2303" stroke="white" stroke-linecap="round" stroke-linejoin="round"/>
<path d="M5.70996 2.49512V17.4401" stroke="white" stroke-linecap="round" stroke-linejoin="round"/>
<path d="M6.11523 19.6399H13.3502" stroke="white" stroke-linecap="round" stroke-linejoin="round"/>
<rect x="9" y="6" width="6" height="3" stroke="white" stroke-linejoin="round"/>
</svg>
