<svg width="48" height="48" viewBox="0 0 48 48" fill="none" xmlns="http://www.w3.org/2000/svg">
<path d="M19.15 34.6299C18.9379 34.6299 18.7344 34.5457 18.5844 34.3956C18.4343 34.2456 18.35 34.0421 18.35 33.83C18.325 33.0688 18.0116 32.3455 17.473 31.807C16.9345 31.2685 16.2113 30.9549 15.4501 30.9299C15.2379 30.9299 15.0344 30.8456 14.8844 30.6956C14.7344 30.5456 14.65 30.3421 14.65 30.1299C14.65 29.9178 14.7344 29.7143 14.8844 29.5643C15.0344 29.4142 15.2379 29.33 15.4501 29.33C16.2096 29.3051 16.9313 28.993 17.4696 28.4565C18.0079 27.9201 18.3225 27.1994 18.35 26.4399C18.3374 26.3281 18.3486 26.2147 18.3828 26.1075C18.417 26.0002 18.4735 25.9014 18.5486 25.8174C18.6236 25.7335 18.7156 25.6663 18.8184 25.6204C18.9211 25.5744 19.0324 25.5507 19.145 25.5507C19.2576 25.5507 19.3689 25.5744 19.4717 25.6204C19.5745 25.6663 19.6664 25.7335 19.7415 25.8174C19.8165 25.9014 19.873 26.0002 19.9072 26.1075C19.9414 26.2147 19.9526 26.3281 19.9401 26.4399C19.9675 27.1994 20.2822 27.9201 20.8204 28.4565C21.3587 28.993 22.0806 29.3051 22.8401 29.33C23.0523 29.33 23.2557 29.4142 23.4058 29.5643C23.5558 29.7143 23.64 29.9178 23.64 30.1299C23.64 30.3421 23.5558 30.5456 23.4058 30.6956C23.2557 30.8456 23.0523 30.9299 22.8401 30.9299C22.0789 30.9549 21.3557 31.2685 20.8171 31.807C20.2786 32.3455 19.965 33.0688 19.9401 33.83C19.9414 33.9345 19.9219 34.0383 19.8828 34.1353C19.8437 34.2323 19.7856 34.3206 19.7122 34.395C19.6387 34.4694 19.5512 34.5285 19.4547 34.5688C19.3582 34.6092 19.2546 34.63 19.15 34.6299ZM17.97 30.1299C18.4276 30.4493 18.8268 30.8451 19.15 31.2999C19.4669 30.8431 19.8633 30.4469 20.3201 30.1299C19.8586 29.8186 19.4614 29.4214 19.15 28.96C18.8322 29.4194 18.4321 29.816 17.97 30.1299Z" fill="#CECECE"/>
<path d="M10.5701 42.1899C10.3579 42.1899 10.1544 42.1057 10.0044 41.9556C9.85437 41.8056 9.77002 41.6021 9.77002 41.39C9.74271 40.6322 9.42948 39.9128 8.89331 39.3766C8.35714 38.8405 7.63778 38.5272 6.88 38.4999C6.66783 38.4999 6.46436 38.4157 6.31433 38.2656C6.1643 38.1156 6.08008 37.9121 6.08008 37.7C6.08008 37.4878 6.1643 37.2843 6.31433 37.1343C6.46436 36.9842 6.66783 36.9 6.88 36.9C7.63944 36.8725 8.36018 36.5578 8.89661 36.0195C9.43303 35.4812 9.74518 34.7595 9.77002 33.9999C9.77002 33.7878 9.85437 33.5843 10.0044 33.4343C10.1544 33.2842 10.3579 33.2 10.5701 33.2C10.7822 33.2 10.9857 33.2842 11.1357 33.4343C11.2858 33.5843 11.37 33.7878 11.37 33.9999C11.3948 34.7595 11.707 35.4812 12.2434 36.0195C12.7798 36.5578 13.5006 36.8725 14.26 36.9C14.4722 36.9 14.6757 36.9842 14.8257 37.1343C14.9757 37.2843 15.0601 37.4878 15.0601 37.7C15.0601 37.9121 14.9757 38.1156 14.8257 38.2656C14.6757 38.4157 14.4722 38.4999 14.26 38.4999C13.5022 38.5272 12.7829 38.8405 12.2467 39.3766C11.7105 39.9128 11.3973 40.6322 11.37 41.39C11.37 41.6021 11.2858 41.8056 11.1357 41.9556C10.9857 42.1057 10.7822 42.1899 10.5701 42.1899ZM9.40002 37.7C9.85683 38.0169 10.2531 38.4131 10.5701 38.8699C10.8842 38.4108 11.2809 38.0141 11.74 37.7C11.2829 37.3794 10.8867 36.9798 10.5701 36.52C10.2507 36.9775 9.85487 37.3767 9.40002 37.7Z" fill="#CECECE"/>
<path d="M6.86995 34.91C6.73325 34.9118 6.59855 34.8776 6.47921 34.8109C6.35986 34.7442 6.26012 34.6473 6.19002 34.53C4.56844 31.8166 3.81223 28.6735 4.0223 25.5195C4.23236 22.3655 5.39871 19.3504 7.3658 16.876C9.3329 14.4017 12.0074 12.5855 15.0328 11.6697C18.0582 10.7539 21.2909 10.7819 24.3 11.7499C24.4058 11.777 24.5048 11.8255 24.5911 11.8923C24.6775 11.9592 24.7491 12.043 24.8018 12.1385C24.8546 12.2341 24.8872 12.3395 24.8977 12.4481C24.9081 12.5568 24.8962 12.6664 24.8628 12.7703C24.8293 12.8742 24.7749 12.9702 24.703 13.0522C24.631 13.1343 24.5429 13.2008 24.4443 13.2476C24.3457 13.2944 24.2386 13.3206 24.1295 13.3244C24.0204 13.3282 23.9117 13.3097 23.81 13.2699C21.1147 12.4307 18.2286 12.4258 15.5305 13.256C12.8324 14.0862 10.4483 15.7126 8.691 17.9219C6.93372 20.1312 5.88539 22.8202 5.68355 25.6359C5.48171 28.4516 6.13583 31.2626 7.56002 33.6999C7.61421 33.7905 7.64987 33.8908 7.66512 33.9952C7.68037 34.0996 7.67491 34.206 7.64888 34.3082C7.62286 34.4105 7.57681 34.5065 7.51351 34.5909C7.4502 34.6753 7.37086 34.7463 7.27999 34.7999C7.157 34.8758 7.01443 34.9141 6.86995 34.91Z" fill="#CECECE"/>
<path d="M19.54 42.0999C17.9107 42.1023 16.291 41.8492 14.74 41.3499C14.6395 41.3171 14.5466 41.2649 14.4663 41.1961C14.3861 41.1273 14.3202 41.0434 14.2723 40.9491C14.1758 40.7588 14.1587 40.5379 14.225 40.335C14.2913 40.1321 14.4355 39.9639 14.6258 39.8673C14.8162 39.7707 15.0371 39.7537 15.24 39.82C18.7142 40.9416 22.4892 40.6617 25.76 39.0399C25.9497 38.9463 26.1688 38.9316 26.3694 38.9991C26.5699 39.0665 26.7356 39.2107 26.8301 39.4C26.8778 39.4937 26.9063 39.5959 26.9141 39.7008C26.9218 39.8056 26.9085 39.911 26.875 40.0107C26.8415 40.1103 26.7883 40.2023 26.7187 40.2812C26.6492 40.36 26.5646 40.4242 26.47 40.47C24.3191 41.5475 21.9457 42.1057 19.54 42.0999Z" fill="#CECECE"/>
<path d="M10.5701 15.64C10.4454 15.6433 10.3218 15.6158 10.2101 15.5599C10.116 15.5123 10.0322 15.4465 9.96356 15.3663C9.89495 15.2862 9.84289 15.1932 9.81036 15.0928C9.77783 14.9924 9.76544 14.8866 9.77398 14.7814C9.78253 14.6762 9.81174 14.5737 9.86004 14.4799C10.8326 12.5548 12.1951 10.853 13.8608 9.4828C15.5265 8.11257 17.4591 7.10385 19.5357 6.52076C21.6123 5.93767 23.7874 5.79298 25.9229 6.09583C28.0584 6.39869 30.1076 7.1425 31.9401 8.27998C32.0344 8.33269 32.117 8.40391 32.1829 8.48939C32.2489 8.57487 32.2968 8.67278 32.3239 8.77729C32.351 8.88181 32.3567 8.99078 32.3406 9.09754C32.3245 9.20431 32.2869 9.3067 32.2302 9.39857C32.1734 9.49043 32.0987 9.56982 32.0104 9.63203C31.9222 9.69423 31.8223 9.73795 31.7167 9.76051C31.6111 9.78306 31.502 9.78403 31.3961 9.76332C31.2901 9.7426 31.1894 9.70063 31.1 9.63996C29.4531 8.6254 27.6138 7.96312 25.6981 7.69496C23.7823 7.4268 21.8318 7.55857 19.9695 8.08192C18.1073 8.60527 16.3737 9.50883 14.8781 10.7357C13.3825 11.9625 12.1575 13.486 11.2801 15.21C11.2124 15.3397 11.1104 15.4484 10.9852 15.5242C10.86 15.6001 10.7165 15.6401 10.5701 15.64Z" fill="#CECECE"/>
<path d="M37.97 14.28C37.7578 14.28 37.5543 14.1957 37.4043 14.0457C37.2543 13.8956 37.17 13.6921 37.17 13.4799V10.1299C37.17 9.81168 37.0436 9.50648 36.8186 9.28143C36.5936 9.05639 36.2882 8.92993 35.97 8.92993H34.14C33.9824 8.92993 33.8264 8.961 33.6808 9.0213C33.5352 9.08161 33.4029 9.17 33.2915 9.28143C33.1801 9.39286 33.0917 9.52512 33.0314 9.67072C32.9711 9.81631 32.9401 9.97236 32.9401 10.1299V13.4799C32.9401 13.6921 32.8557 13.8956 32.7057 14.0457C32.5557 14.1957 32.3522 14.28 32.14 14.28C31.9278 14.28 31.7244 14.1957 31.5743 14.0457C31.4243 13.8956 31.3401 13.6921 31.3401 13.4799V10.1299C31.3401 9.38734 31.6351 8.67513 32.1602 8.15002C32.6853 7.62492 33.3974 7.32996 34.14 7.32996H35.97C36.7126 7.32996 37.4248 7.62492 37.95 8.15002C38.4751 8.67513 38.77 9.38734 38.77 10.1299V13.4799C38.77 13.6921 38.6858 13.8956 38.5358 14.0457C38.3857 14.1957 38.1821 14.28 37.97 14.28Z" fill="#CECECE"/>
<path d="M40.3 42.1099H29.8101C29.3164 42.1152 28.8265 42.0227 28.3688 41.8378C27.911 41.6528 27.4945 41.379 27.1431 41.0323C26.7917 40.6855 26.5125 40.2726 26.3214 39.8174C26.1304 39.3622 26.0313 38.8736 26.03 38.3799V26.9899C26.0294 26.2311 26.2635 25.4906 26.7001 24.8699C26.7229 24.8212 26.7496 24.7744 26.78 24.7299L26.87 24.6199C27.1416 24.2694 27.2891 23.8385 27.2891 23.395C27.2891 22.9515 27.1416 22.5205 26.87 22.1699L26.75 22.02C26.5206 21.7886 26.3396 21.5137 26.2177 21.2115C26.0957 20.9093 26.0354 20.5858 26.04 20.2599V18.7999C26.04 17.1848 26.6816 15.6357 27.8237 14.4937C28.9658 13.3516 30.5148 12.71 32.13 12.71H37.92C39.5352 12.71 41.0842 13.3516 42.2263 14.4937C43.3684 15.6357 44.01 17.1848 44.01 18.7999V20.2599C44.0105 20.5986 43.9436 20.9339 43.8131 21.2464C43.6826 21.5589 43.4912 21.8423 43.25 22.08L43.16 22.1799C42.8908 22.5296 42.7449 22.9586 42.7449 23.4C42.7449 23.8413 42.8908 24.2702 43.16 24.6199L43.25 24.7299C43.7425 25.3805 44.0093 26.174 44.01 26.9899V38.3799C44.01 39.3657 43.6198 40.3114 42.9246 41.0104C42.2294 41.7093 41.2858 42.1046 40.3 42.1099ZM28.1801 25.59C28.1627 25.6301 28.139 25.6673 28.11 25.7C27.8266 26.0705 27.6722 26.5235 27.67 26.9899V38.3799C27.67 38.9475 27.8955 39.4918 28.2969 39.8931C28.6982 40.2945 29.2425 40.52 29.8101 40.52H40.3C40.8676 40.52 41.4119 40.2945 41.8132 39.8931C42.2146 39.4918 42.4401 38.9475 42.4401 38.3799V26.9899C42.4379 26.5235 42.2833 26.0705 42 25.7L41.92 25.5999C41.4319 24.9666 41.1671 24.1896 41.1671 23.39C41.1671 22.5904 41.4319 21.8132 41.92 21.1799L42.04 21.0399L42.12 20.96C42.3084 20.7753 42.4163 20.5237 42.42 20.2599V18.7999C42.4174 17.6099 41.9435 16.4694 41.1021 15.6279C40.2606 14.7865 39.1201 14.3126 37.9301 14.3099H32.14C30.95 14.3126 29.8095 14.7865 28.968 15.6279C28.1266 16.4694 27.6527 17.6099 27.65 18.7999V20.2599C27.6537 20.5188 27.7577 20.7662 27.9401 20.95L28.13 21.1699C28.6286 21.7962 28.9043 22.5709 28.9133 23.3713C28.9224 24.1718 28.6643 24.9525 28.1801 25.59Z" fill="#CECECE"/>
<path d="M11.1 31.7399C10.9524 31.7402 10.8076 31.6992 10.6822 31.6215C10.5567 31.5437 10.4554 31.4323 10.39 31.2999C9.65061 29.8652 9.26651 28.274 9.27004 26.66C9.27942 24.2188 10.1632 21.8617 11.7611 20.0161C13.359 18.1705 15.5653 16.9585 17.98 16.5999C18.0832 16.5843 18.1884 16.5894 18.2896 16.6147C18.3908 16.64 18.4859 16.6851 18.5696 16.7474C18.6533 16.8097 18.7238 16.888 18.7771 16.9777C18.8304 17.0673 18.8654 17.1667 18.88 17.2699C18.8956 17.3744 18.8903 17.4809 18.8645 17.5833C18.8387 17.6857 18.7929 17.782 18.7296 17.8666C18.6664 17.9512 18.587 18.0224 18.4961 18.0762C18.4052 18.13 18.3047 18.1652 18.2001 18.1799C16.1663 18.4836 14.3085 19.506 12.9638 21.0617C11.619 22.6174 10.8762 24.6036 10.87 26.66C10.8665 28.0197 11.1889 29.3604 11.8101 30.5699C11.9049 30.7599 11.9214 30.9795 11.856 31.1815C11.7905 31.3835 11.6484 31.5517 11.4601 31.65C11.3492 31.7089 11.2255 31.7397 11.1 31.7399Z" fill="#CECECE"/>
</svg>
