<svg width="68" height="68" viewBox="0 0 68 68" fill="none" xmlns="http://www.w3.org/2000/svg">
<path d="M47.9258 30.2458L46.8775 29.1974C45.7063 28.0287 44.1192 27.3723 42.4646 27.3723C40.81 27.3723 39.2229 28.0287 38.0517 29.1974L19.3091 47.94C18.9687 48.2777 18.6984 48.6792 18.5136 49.1217C18.3289 49.5642 18.2334 50.0388 18.2325 50.5183V56.3549C18.2325 57.0275 18.4996 57.6725 18.9752 58.1481C19.4508 58.6236 20.0958 58.8908 20.7683 58.8908H26.5908C27.0727 58.8918 27.55 58.7972 27.995 58.6124C28.4401 58.4275 28.844 58.1562 29.1833 57.8141L47.9258 39.0716C49.0946 37.9004 49.751 36.3133 49.751 34.6587C49.751 33.0041 49.0946 31.417 47.9258 30.2458ZM27.1717 55.7458C27.0966 55.8246 27.0066 55.8878 26.9069 55.9316C26.8071 55.9754 26.6997 55.9989 26.5908 56.0008H21.0659V50.5324C21.066 50.3146 21.1526 50.1056 21.3067 49.9516L36.7908 34.4816L42.6559 40.3608L27.1717 55.7458ZM45.9284 37.0033L44.6391 38.2924L38.7742 32.4274L40.0492 31.1383C40.6902 30.5038 41.5555 30.1475 42.4575 30.1466C42.9046 30.1439 43.3479 30.2303 43.7613 30.4005C44.1748 30.5707 44.5502 30.8215 44.8659 31.1383L45.9284 32.1866C46.2505 32.5054 46.5061 32.8849 46.6806 33.3031C46.8551 33.7214 46.945 34.1701 46.945 34.6233C46.945 35.0765 46.8551 35.5251 46.6806 35.9434C46.5061 36.3616 46.2505 36.7411 45.9284 37.0599V37.0033Z" fill="#1A1A1A"/>
<path d="M63.1125 24.0693L37.0317 6.47424C36.1351 5.8658 35.0765 5.54053 33.993 5.54053C32.9094 5.54053 31.8508 5.8658 30.9542 6.47424L4.87332 24.0693C4.71872 24.1733 4.58619 24.3068 4.48326 24.4621C4.38034 24.6174 4.30911 24.7916 4.27358 24.9745C4.23805 25.1574 4.23889 25.3455 4.27618 25.5281C4.31347 25.7106 4.38646 25.8841 4.49087 26.0384C4.70079 26.3466 5.02378 26.5597 5.38978 26.6313C5.75578 26.7029 6.13527 26.6273 6.44588 26.4209L7.39502 25.7834V48.6909C7.39502 49.0667 7.5443 49.427 7.80998 49.6926C8.07565 49.9583 8.43597 50.1076 8.81169 50.1076C9.18741 50.1076 9.54773 49.9583 9.8134 49.6926C10.0791 49.427 10.2284 49.0667 10.2284 48.6909V23.8709L32.5409 8.82591C32.9622 8.55099 33.4544 8.4046 33.9575 8.4046C34.4606 8.4046 34.9528 8.55099 35.3742 8.82591L57.6867 23.8709V48.6909C57.6867 49.0667 57.836 49.427 58.1016 49.6926C58.3673 49.9583 58.7276 50.1076 59.1034 50.1076C59.4791 50.1076 59.8394 49.9583 60.1051 49.6926C60.3707 49.427 60.52 49.0667 60.52 48.6909V25.7834L61.4692 26.4209C61.6997 26.5758 61.9706 26.6596 62.2483 26.6617C62.5522 26.6624 62.8482 26.5654 63.0927 26.3849C63.3372 26.2045 63.5173 25.9502 63.6062 25.6596C63.6951 25.3691 63.6882 25.0576 63.5866 24.7712C63.4849 24.4848 63.2939 24.2387 63.0417 24.0693H63.1125Z" fill="#1A1A1A"/>
</svg>
