<svg width="46" height="46" viewBox="0 0 46 46" fill="none" xmlns="http://www.w3.org/2000/svg">
<path fill-rule="evenodd" clip-rule="evenodd" d="M12.7953 20.5254L4.70695 28.6138C4.30951 29.0081 3.99389 29.4769 3.77816 29.9935C3.56243 30.5101 3.45093 31.0643 3.44995 31.6241V38.4388C3.44995 39.2241 3.76181 39.9772 4.31706 40.5324C4.87231 41.0877 5.62544 41.3996 6.41068 41.3996H13.2088C13.7715 41.4008 14.3288 41.2903 14.8484 41.0745C15.368 40.8587 15.8396 40.542 16.2358 40.1426L24.3241 32.0542L21.9682 29.6982L13.8871 37.7276C13.7994 37.8197 13.6943 37.8934 13.5778 37.9445C13.4614 37.9957 13.336 38.0231 13.2088 38.0253H6.75807V31.6407C6.75818 31.3863 6.85929 31.1423 7.03923 30.9625L15.1396 22.8696L12.7953 20.5254ZM28.8623 22.8483L31.9659 19.7646L25.1181 12.9002L22.0148 16.0007L19.6674 13.6534L26.5902 6.73058C27.9577 5.36599 29.8107 4.59961 31.7426 4.59961C33.6745 4.59961 35.5275 5.36599 36.895 6.73058L38.119 7.95457C39.4836 9.32208 40.25 11.1751 40.25 13.107C40.25 15.0389 39.4836 16.8918 38.119 18.2594L31.1962 25.1822L28.8623 22.8483ZM34.2815 17.3496L35.7868 15.9106C36.1629 15.5384 36.4614 15.0953 36.6651 14.6069C36.8689 14.1186 36.9738 13.5947 36.9738 13.0656C36.9738 12.5365 36.8689 12.0126 36.6651 11.5243C36.4614 11.0359 36.1629 10.5928 35.7868 10.2206L34.5463 8.99663C34.1777 8.62683 33.7394 8.334 33.2566 8.13523C32.7739 7.93645 32.2564 7.83567 31.7343 7.83877C30.6812 7.83979 29.6709 8.25582 28.9224 8.99663L27.4338 10.5018L34.2815 17.3496Z" fill="#CECECE"/>
<rect width="3.69951" height="49.9026" rx="1.84975" transform="matrix(-0.707107 0.707107 0.707107 0.707107 5.61597 4)" fill="#CECECE"/>
</svg>
