<svg width="64" height="64" viewBox="0 0 64 64" fill="none" xmlns="http://www.w3.org/2000/svg">
    <g clip-path="url(#clip0_545_6463)">
        <path
            d="M53.5589 24.1297C53.2303 23.7733 52.8304 23.4888 52.3848 23.2942C51.9393 23.0995 51.4579 22.9993 50.971 22.9995H13.0525C12.5657 22.9993 12.0843 23.0995 11.6388 23.2942C11.1932 23.4888 10.7933 23.7733 10.4647 24.1297L7.22839 28.5352L9.63524 39.5488H54.3942L56.9529 28.7846L53.5589 24.1297Z"
            fill="#DEDEDE" />
        <path d="M32.0029 59.9995C48.5731 59.9995 62.0058 58.2114 62.0058 56.0056C62.0058 53.7998 48.5731 52.0117 32.0029 52.0117C15.4328 52.0117 2 53.7998 2 56.0056C2 58.2114 15.4328 59.9995 32.0029 59.9995Z" fill="#CECECE" />
        <path
            d="M53.9793 27.1331H39.6554C39.1261 27.1331 38.6123 27.3114 38.1984 27.6389C37.7845 27.9664 37.495 28.4237 37.3772 28.9358L36.8573 31.2196C36.7395 31.7318 36.45 32.189 36.0361 32.5165C35.6221 32.844 35.1084 33.0226 34.5791 33.0226H29.4266C28.8972 33.0226 28.3835 32.844 27.9696 32.5165C27.5557 32.189 27.2662 31.7318 27.1484 31.2196L26.6226 28.9358C26.5048 28.4237 26.2153 27.9664 25.8014 27.6389C25.3875 27.3114 24.8738 27.1331 24.3444 27.1331H10.0264C9.53181 27.1301 9.04215 27.231 8.58966 27.4292C8.13717 27.6274 7.73213 27.9185 7.40107 28.2831C7.07001 28.6478 6.82047 29.0777 6.66886 29.5449C6.51725 30.0121 6.46698 30.506 6.52139 30.9938L8.99242 53.3745C9.05461 53.9453 9.32805 54.4728 9.75971 54.8551C10.1914 55.2374 10.7505 55.4472 11.3291 55.4438H52.6649C53.2435 55.4472 53.8028 55.2374 54.2344 54.8551C54.6661 54.4728 54.9394 53.9453 55.0016 53.3745L57.4726 30.9938C57.5269 30.5069 57.4771 30.0141 57.3261 29.5477C57.1752 29.0814 56.9267 28.6518 56.5969 28.2874C56.2671 27.9229 55.8634 27.6318 55.4123 27.4329C54.9612 27.2339 54.4729 27.1318 53.9793 27.1331Z"
            fill="#EEEEEE" />
    </g>
    <path d="M17 7L21 16" stroke="#C4C4C4" stroke-width="3" stroke-linecap="round" stroke-linejoin="round" />
    <path d="M47 7L43 16" stroke="#C4C4C4" stroke-width="3" stroke-linecap="round" stroke-linejoin="round" />
    <path d="M32 15V5" stroke="#C4C4C4" stroke-width="3" stroke-linecap="round" stroke-linejoin="round" />
    <defs>
        <clipPath id="clip0_545_6463">
            <rect width="60" height="37" fill="white" transform="translate(2 23)" />
        </clipPath>
    </defs>
</svg>
