<svg width="60" height="60" viewBox="0 0 60 60" fill="none" xmlns="http://www.w3.org/2000/svg">
<path d="M51.6751 30.5375H45.0251V26.1126C45.0234 25.4807 44.8621 24.8594 44.5562 24.3065C44.2502 23.7537 43.8095 23.287 43.275 22.95L32.025 15.9875C31.7604 15.8322 31.4796 15.7065 31.1875 15.6125V12.925C31.5104 12.9829 31.8281 13.0665 32.1376 13.175C33.787 13.7188 35.559 13.7709 37.2375 13.325C37.4695 13.2529 37.6724 13.1085 37.8163 12.9128C37.9603 12.7171 38.0378 12.4805 38.0375 12.2375V6.61252C38.036 6.43838 37.9946 6.26694 37.9164 6.11135C37.8381 5.95575 37.7252 5.82015 37.5863 5.71508C37.4474 5.61001 37.2863 5.53822 37.1153 5.50527C36.9443 5.47232 36.7681 5.47909 36.6001 5.52503C36.0561 5.68205 35.491 5.75371 34.925 5.73751C34.2141 5.75799 33.5058 5.64352 32.8376 5.40006C31.9487 5.07706 31.0081 4.9203 30.0625 4.93757C29.7641 4.93757 29.478 5.0561 29.267 5.26708C29.056 5.47806 28.9376 5.76415 28.9376 6.06252C28.9376 6.06252 28.9376 6.15 28.9376 6.2C28.9376 6.25 28.9376 6.28755 28.9376 6.32505V11.7V15.6C28.6406 15.6915 28.3552 15.8173 28.0875 15.975L16.9126 22.9375C16.378 23.2745 15.9373 23.7411 15.6314 24.294C15.3254 24.8469 15.1642 25.4682 15.1625 26.1001V30.525H8.5625C7.56794 30.525 6.61417 30.9201 5.9109 31.6234C5.20764 32.3266 4.8125 33.2805 4.8125 34.275V48.5C4.8125 48.7984 4.93104 49.0846 5.14201 49.2955C5.35299 49.5065 5.63916 49.6251 5.93753 49.6251C6.2359 49.6251 6.52207 49.5065 6.73305 49.2955C6.94403 49.0846 7.06256 48.7984 7.06256 48.5V37.6375H11.875C12.0228 37.6375 12.1691 37.6085 12.3056 37.5519C12.442 37.4954 12.5661 37.4125 12.6705 37.308C12.775 37.2035 12.8578 37.0795 12.9144 36.943C12.9709 36.8065 13.0001 36.6602 13.0001 36.5125C13.0001 36.3648 12.9709 36.2185 12.9144 36.082C12.8578 35.9456 12.775 35.8215 12.6705 35.7171C12.5661 35.6126 12.442 35.5297 12.3056 35.4731C12.1691 35.4166 12.0228 35.3875 11.875 35.3875H7.06256V34.275C7.06256 33.8838 7.21792 33.5087 7.49454 33.2321C7.77115 32.9555 8.14636 32.8 8.53755 32.8H15.2V48.5C15.2 48.6478 15.2291 48.7941 15.2857 48.9306C15.3422 49.0671 15.425 49.1911 15.5295 49.2955C15.634 49.4 15.758 49.4828 15.8945 49.5394C16.031 49.5959 16.1773 49.6251 16.325 49.6251C16.4728 49.6251 16.6191 49.5959 16.7556 49.5394C16.892 49.4828 17.0161 49.4 17.1205 49.2955C17.225 49.1911 17.3078 49.0671 17.3644 48.9306C17.4209 48.7941 17.4501 48.6478 17.4501 48.5V26.125C17.4472 25.8751 17.509 25.6287 17.6294 25.4097C17.7499 25.1907 17.9249 25.0064 18.1375 24.875L29.3125 17.9126C29.5469 17.7663 29.8176 17.6886 30.0938 17.6886C30.37 17.6886 30.6407 17.7663 30.875 17.9126L42.0501 24.875C42.2642 25.0058 42.441 25.1895 42.5636 25.4084C42.6862 25.6274 42.7504 25.8741 42.75 26.125V48.5C42.75 48.6478 42.7791 48.7941 42.8357 48.9306C42.8922 49.0671 42.9751 49.1911 43.0796 49.2955C43.184 49.4 43.3081 49.4828 43.4446 49.5394C43.581 49.5959 43.7273 49.6251 43.875 49.6251C44.0227 49.6251 44.169 49.5959 44.3055 49.5394C44.442 49.4828 44.5661 49.4 44.6705 49.2955C44.775 49.1911 44.8579 49.0671 44.9144 48.9306C44.971 48.7941 45 48.6478 45 48.5V32.7875H51.65C52.0412 32.7875 52.4164 32.943 52.693 33.2196C52.9696 33.4962 53.125 33.8713 53.125 34.2625V35.375H48.3126C48.0142 35.375 47.728 35.4936 47.517 35.7045C47.3061 35.9155 47.1875 36.2017 47.1875 36.5001C47.1875 36.7984 47.3061 37.0845 47.517 37.2955C47.728 37.5065 48.0142 37.625 48.3126 37.625H53.125V48.4875C53.125 48.6353 53.1541 48.7816 53.2106 48.918C53.2672 49.0545 53.3501 49.1786 53.4545 49.283C53.559 49.3875 53.683 49.4703 53.8195 49.5269C53.956 49.5834 54.1023 49.6125 54.2501 49.6125C54.3978 49.6125 54.544 49.5834 54.6805 49.5269C54.817 49.4703 54.941 49.3875 55.0455 49.283C55.15 49.1786 55.2329 49.0545 55.2894 48.918C55.346 48.7816 55.375 48.6353 55.375 48.4875V34.2625C55.3686 33.2809 54.9775 32.3409 54.2857 31.6445C53.5939 30.948 52.6566 30.5506 51.6751 30.5375ZM34.9875 8.03754H35.85V11.4C35.563 11.4222 35.2746 11.4222 34.9875 11.4C34.277 11.4142 33.5699 11.2998 32.9 11.0625C32.3661 10.8727 31.8127 10.7428 31.25 10.675V7.31252C31.5728 7.37044 31.8905 7.45405 32.2 7.56253C33.0959 7.87129 34.0403 8.01531 34.9875 7.98757V8.03754Z" fill="#CECECE"/>
<path d="M35 29.5501C35 28.5859 34.7141 27.6433 34.1784 26.8416C33.6428 26.0399 32.8814 25.4151 31.9906 25.0461C31.0998 24.6772 30.1197 24.5806 29.174 24.7687C28.2283 24.9568 27.3597 25.4211 26.6779 26.1029C25.9961 26.7847 25.5318 27.6533 25.3437 28.599C25.1556 29.5446 25.2522 30.5248 25.6211 31.4156C25.9901 32.3064 26.615 33.0678 27.4166 33.6035C28.2183 34.1392 29.1608 34.425 30.125 34.425C31.4169 34.4217 32.655 33.907 33.5685 32.9935C34.4821 32.08 34.9967 30.842 35 29.5501ZM27.5 29.5501C27.5 29.0309 27.654 28.5233 27.9425 28.0916C28.2309 27.66 28.6409 27.3235 29.1205 27.1248C29.6002 26.9262 30.128 26.8742 30.6372 26.9755C31.1464 27.0767 31.614 27.3268 31.9812 27.6939C32.3483 28.061 32.5983 28.5287 32.6996 29.0379C32.8009 29.5471 32.7489 30.0749 32.5502 30.5546C32.3516 31.0342 32.0151 31.4442 31.5834 31.7326C31.1518 32.021 30.6442 32.175 30.125 32.175C29.4288 32.175 28.7611 31.8985 28.2688 31.4062C27.7766 30.9139 27.5 30.2463 27.5 29.5501Z" fill="#CECECE"/>
<path d="M30.9501 42.6875C30.7416 42.4924 30.4668 42.3839 30.1813 42.3839C29.8958 42.3839 29.621 42.4924 29.4126 42.6875L23.975 47.6875C23.7651 47.8983 23.6473 48.1837 23.6473 48.4812C23.6473 48.7788 23.7651 49.0642 23.975 49.275C24.0806 49.3884 24.2082 49.4791 24.3501 49.5414C24.492 49.6038 24.6451 49.6364 24.8001 49.6375C25.0866 49.6364 25.3625 49.5296 25.5751 49.3375L29.0625 46.1V54.85C29.0625 55.1484 29.1811 55.4345 29.3921 55.6455C29.603 55.8565 29.8892 55.975 30.1876 55.975C30.4859 55.975 30.772 55.8565 30.983 55.6455C31.194 55.4345 31.3125 55.1484 31.3125 54.85V46L34.8001 49.2875C35.0109 49.4974 35.2963 49.6153 35.5938 49.6153C35.8913 49.6153 36.1767 49.4974 36.3875 49.2875C36.5982 49.0746 36.7164 48.7871 36.7164 48.4875C36.7164 48.1879 36.5982 47.9004 36.3875 47.6875L30.9501 42.6875Z" fill="#CECECE"/>
</svg>
