<svg width="32" height="32" viewBox="0 0 32 32" fill="none" xmlns="http://www.w3.org/2000/svg">
<path d="M26.9534 13.7933H25.1134V6.86002C25.1134 6.27607 24.9984 5.69785 24.7749 5.15836C24.5515 4.61886 24.2239 4.12866 23.811 3.71575C23.3981 3.30284 22.9079 2.97531 22.3684 2.75184C21.8289 2.52838 21.2507 2.41336 20.6667 2.41336H6.9401C6.35616 2.41336 5.7779 2.52838 5.2384 2.75184C4.69891 2.97531 4.20873 3.30284 3.79582 3.71575C3.38291 4.12866 3.05538 4.61886 2.83191 5.15836C2.60844 5.69785 2.49341 6.27607 2.49341 6.86002V24.9867C2.49341 26.166 2.96191 27.297 3.79582 28.1309C4.62973 28.9649 5.76077 29.4334 6.9401 29.4334H20.8267C21.0036 29.4334 21.1732 29.3631 21.2982 29.2381C21.4232 29.1131 21.4934 28.9435 21.4934 28.7667C21.4934 28.5899 21.4232 28.4203 21.2982 28.2953C21.1732 28.1703 21.0036 28.1 20.8267 28.1H6.9401C6.11494 28.0983 5.32404 27.7697 4.74056 27.1862C4.15708 26.6027 3.8285 25.8118 3.82674 24.9867V6.86002C3.8285 6.03485 4.15708 5.24399 4.74056 4.66051C5.32404 4.07703 6.11494 3.74846 6.9401 3.74669H20.6667C21.4919 3.74846 22.2828 4.07703 22.8663 4.66051C23.4497 5.24399 23.7783 6.03485 23.7801 6.86002V28.7667C23.7801 28.9435 23.8503 29.1131 23.9753 29.2381C24.1004 29.3631 24.2699 29.4334 24.4467 29.4334H25.0668C26.2456 29.4316 27.3755 28.9625 28.2091 28.129C29.0426 27.2955 29.5117 26.1655 29.5134 24.9867V16.32C29.5047 15.6469 29.2311 15.0042 28.7519 14.5313C28.2728 14.0584 27.6266 13.7933 26.9534 13.7933ZM28.1801 24.9867C28.1784 25.8032 27.8561 26.5864 27.2824 27.1675C26.7088 27.7486 25.9298 28.0811 25.1134 28.0934V15.1267H26.9534C27.2776 15.1267 27.5886 15.255 27.8184 15.4836C28.0483 15.7122 28.1783 16.0225 28.1801 16.3467V24.9867Z" fill="black"/>
<path d="M19.92 7.54001H7.70671C7.52989 7.54001 7.36034 7.61024 7.23531 7.73526C7.11029 7.86028 7.04004 8.02986 7.04004 8.20668C7.04004 8.38349 7.11029 8.55305 7.23531 8.67807C7.36034 8.80309 7.52989 8.87334 7.70671 8.87334H19.92C20.0969 8.87334 20.2664 8.80309 20.3914 8.67807C20.5165 8.55305 20.5867 8.38349 20.5867 8.20668C20.5867 8.02986 20.5165 7.86028 20.3914 7.73526C20.2664 7.61024 20.0969 7.54001 19.92 7.54001Z" fill="black"/>
<path d="M20.5867 12.6066C20.5867 12.4298 20.5165 12.2603 20.3914 12.1352C20.2664 12.0102 20.0969 11.94 19.92 11.94H7.70671C7.52989 11.94 7.36034 12.0102 7.23531 12.1352C7.11029 12.2603 7.04004 12.4298 7.04004 12.6066C7.04004 12.7835 7.11029 12.953 7.23531 13.0781C7.36034 13.2031 7.52989 13.2733 7.70671 13.2733H19.92C20.0969 13.2733 20.2664 13.2031 20.3914 13.0781C20.5165 12.953 20.5867 12.7835 20.5867 12.6066Z" fill="black"/>
<path d="M7.70671 16.3467C7.52989 16.3467 7.36034 16.4169 7.23531 16.5419C7.11029 16.6669 7.04004 16.8365 7.04004 17.0133C7.04004 17.1901 7.11029 17.3597 7.23531 17.4847C7.36034 17.6098 7.52989 17.68 7.70671 17.68H13.5C13.6769 17.68 13.8464 17.6098 13.9714 17.4847C14.0965 17.3597 14.1667 17.1901 14.1667 17.0133C14.1667 16.8365 14.0965 16.6669 13.9714 16.5419C13.8464 16.4169 13.6769 16.3467 13.5 16.3467H7.70671Z" fill="black"/>
</svg>
