<svg width="48" height="48" viewBox="0 0 48 48" fill="none" xmlns="http://www.w3.org/2000/svg">
<path d="M11.15 31.2901L9.33996 29.2901C9.03862 28.9751 8.7798 28.6221 8.57 28.2401L6.13 23.76C5.85948 23.2598 5.67045 22.7198 5.57 22.16L4.96996 18.6801C4.92771 18.4354 4.94644 18.184 5.02453 17.9483C5.10261 17.7125 5.23761 17.4997 5.41759 17.3286C5.59758 17.1575 5.81701 17.0335 6.05639 16.9675C6.29577 16.9014 6.54773 16.8954 6.78997 16.95V16.95C7.38371 17.0798 7.92683 17.3797 8.35302 17.8129C8.7792 18.2462 9.07004 18.7942 9.18999 19.39L9.33996 20.1101C9.57557 21.2564 10.1924 22.2891 11.09 23.0401L12.22 23.9901C12.4949 24.2128 12.7895 24.4102 13.1 24.58" stroke="#CECECE" stroke-width="1.6" stroke-linecap="round" stroke-linejoin="round"/>
<path d="M12.28 23.47V8.53998C12.2826 7.98741 12.504 7.45839 12.8956 7.0686C13.2873 6.67881 13.8174 6.45995 14.37 6.45996V6.45996C14.9216 6.45996 15.4507 6.67914 15.8408 7.06921C16.2308 7.45929 16.45 7.98833 16.45 8.53998V14.96" stroke="#CECECE" stroke-width="1.6" stroke-linecap="round" stroke-linejoin="round"/>
<path d="M16.45 14.96V6.28998C16.4526 5.73741 16.674 5.20839 17.0657 4.8186C17.4573 4.42881 17.9874 4.20995 18.54 4.20996V4.20996C19.0916 4.20996 19.6207 4.42914 20.0107 4.81921C20.4008 5.20929 20.6199 5.73833 20.6199 6.28998V11.78" stroke="#CECECE" stroke-width="1.6" stroke-linecap="round" stroke-linejoin="round"/>
<path d="M20.6199 11.78V8.53998C20.6226 7.98741 20.844 7.45839 21.2357 7.0686C21.6273 6.67881 22.1574 6.45995 22.71 6.45996V6.45996C23.2617 6.45996 23.7906 6.67914 24.1807 7.06921C24.5708 7.45929 24.79 7.98833 24.79 8.53998V12.6" stroke="#CECECE" stroke-width="1.6" stroke-linecap="round" stroke-linejoin="round"/>
<path d="M24.79 12.2V10.6C24.79 10.0457 25.0102 9.51414 25.4022 9.12219C25.7941 8.73024 26.3256 8.51001 26.8799 8.51001C27.1539 8.51001 27.4253 8.56416 27.6783 8.66931C27.9313 8.77447 28.161 8.9286 28.3543 9.1228C28.5476 9.31701 28.7006 9.54745 28.8045 9.80096C28.9084 10.0545 28.9613 10.326 28.96 10.6V11.3701" stroke="#CECECE" stroke-width="1.6" stroke-linecap="round" stroke-linejoin="round"/>
<path d="M15.93 37.6801C16.4141 38.4541 17.1576 39.0308 18.0276 39.3074C18.8977 39.584 19.8378 39.5424 20.68 39.1901" stroke="#CECECE" stroke-width="1.6" stroke-linecap="round" stroke-linejoin="round"/>
<path d="M36.3799 17.85C36.3671 17.5335 36.31 17.2205 36.21 16.92C35.9056 15.9884 35.2565 15.2085 34.3957 14.74C33.5349 14.2715 32.5276 14.1498 31.58 14.3999C31.5544 14.2105 31.5143 14.0233 31.46 13.8399C31.1419 12.8687 30.4517 12.0633 29.5406 11.6003C28.6295 11.1373 27.5721 11.0544 26.6 11.37C25.8352 11.6199 25.1697 12.1067 24.7 12.7599C24.1862 12.2332 23.5322 11.8649 22.8155 11.6983C22.0988 11.5318 21.3493 11.5742 20.656 11.8204C19.9626 12.0666 19.3542 12.5063 18.903 13.0876C18.4518 13.6688 18.1766 14.3672 18.11 15.1C17.4971 14.9825 16.8645 15.0203 16.27 15.2099C15.2988 15.528 14.4934 16.2183 14.0303 17.1294C13.5673 18.0404 13.4845 19.0979 13.8 20.0699C14.0051 20.7017 14.3744 21.2677 14.87 21.7099C14.1479 22.1646 13.5983 22.8474 13.3085 23.6499C13.0186 24.4525 13.0051 25.3288 13.27 26.1399C13.27 26.2699 13.38 26.3899 13.43 26.5099C12.5121 26.8657 11.7648 27.5588 11.3409 28.4473C10.9171 29.3358 10.8488 30.3527 11.15 31.29C11.3349 31.8469 11.6464 32.3535 12.06 32.7699" stroke="#CECECE" stroke-width="1.6" stroke-linecap="round" stroke-linejoin="round"/>
<path d="M19.9699 29.34L17.69 22.34C17.6041 22.08 17.5703 21.8056 17.5907 21.5326C17.6111 21.2595 17.6852 20.9932 17.8088 20.7488C17.9324 20.5045 18.103 20.2869 18.3108 20.1087C18.5187 19.9304 18.7596 19.7949 19.0199 19.71V19.71C19.2806 19.6243 19.5556 19.591 19.8291 19.6121C20.1027 19.6331 20.3694 19.7081 20.6138 19.8327C20.8583 19.9572 21.0756 20.1289 21.2535 20.3378C21.4313 20.5467 21.5661 20.7888 21.6499 21.05L22.7699 24.47" stroke="#CECECE" stroke-width="1.6" stroke-linecap="round" stroke-linejoin="round"/>
<path d="M22.77 24.4599L21.65 21.0399C21.4824 20.5134 21.5291 19.9421 21.78 19.4498C22.0308 18.9575 22.4655 18.5839 22.9899 18.4099C23.2506 18.3243 23.5256 18.291 23.7991 18.312C24.0727 18.3331 24.3393 18.4081 24.5838 18.5326C24.8283 18.6572 25.0457 18.8288 25.2236 19.0377C25.4014 19.2467 25.536 19.4887 25.6199 19.75L26.7299 23.17" stroke="#CECECE" stroke-width="1.6" stroke-linecap="round" stroke-linejoin="round"/>
<path d="M26.7299 23.1701L25.62 19.7501C25.5343 19.4895 25.501 19.2144 25.5221 18.9409C25.5431 18.6673 25.6181 18.4007 25.7426 18.1562C25.8672 17.9118 26.0388 17.6943 26.2478 17.5165C26.4567 17.3387 26.6988 17.204 26.9601 17.1201V17.1201C27.22 17.0346 27.4943 17.0014 27.7672 17.0226C28.04 17.0437 28.306 17.1188 28.5497 17.2434C28.7933 17.368 29.0097 17.5397 29.1866 17.7486C29.3635 17.9574 29.4972 18.1992 29.58 18.4601L30.7 21.8801" stroke="#CECECE" stroke-width="1.6" stroke-linecap="round" stroke-linejoin="round"/>
<path d="M17.97 24.1801L16.77 25.96C16.4757 26.3949 16.2848 26.8913 16.212 27.4113C16.1392 27.9313 16.1864 28.4611 16.35 28.96L17.56 32.6901C18.3136 34.9959 19.8532 36.9638 21.91 38.2501L22.7 38.7501C23.0611 38.9791 23.3219 39.3364 23.43 39.7501L25 44.85" stroke="#CECECE" stroke-width="1.6" stroke-linecap="round" stroke-linejoin="round"/>
<path d="M16.74 38.9C16.553 39.0119 16.3593 39.1121 16.1599 39.2C15.2144 39.5978 14.1497 39.6038 13.1998 39.2166C12.2499 38.8293 11.4928 38.0805 11.0949 37.135C10.6971 36.1895 10.6912 35.1247 11.0785 34.1749C11.4657 33.225 12.2144 32.4678 13.1599 32.07L13.55 31.9301" stroke="#CECECE" stroke-width="1.6" stroke-linecap="round" stroke-linejoin="round"/>
<path d="M35.85 34.23C36.1821 34.2718 36.518 34.2718 36.85 34.23C37.8654 34.1097 38.7915 33.5915 39.4252 32.7891C40.0589 31.9867 40.3483 30.9656 40.2299 29.95C40.2299 29.82 40.18 29.71 40.15 29.59C41.0149 29.3732 41.7826 28.8737 42.3311 28.1707C42.8796 27.4678 43.1776 26.6016 43.1776 25.71C43.1776 24.8183 42.8796 23.9523 42.3311 23.2493C41.7826 22.5463 41.0149 22.0467 40.15 21.83C40.1749 21.5973 40.1749 21.3627 40.15 21.13C40.035 20.2226 39.5655 19.3976 38.8441 18.8355C38.1226 18.2733 37.2079 18.0197 36.3 18.13C35.7914 18.1853 35.3022 18.3564 34.8699 18.63" stroke="#CECECE" stroke-width="1.6" stroke-linecap="round" stroke-linejoin="round"/>
<path d="M37.3 12.2799C38.3659 12.2799 39.23 11.4158 39.23 10.3499C39.23 9.28401 38.3659 8.41992 37.3 8.41992C36.2341 8.41992 35.37 9.28401 35.37 10.3499C35.37 11.4158 36.2341 12.2799 37.3 12.2799Z" stroke="#CECECE" stroke-width="1.6" stroke-linecap="round" stroke-linejoin="round"/>
<path d="M30.7001 21.8801L30.12 20.09C30.0499 19.8933 30.0204 19.6844 30.0331 19.4759C30.0458 19.2675 30.1004 19.0637 30.1938 18.8769C30.2872 18.6902 30.4175 18.5241 30.5767 18.3889C30.7358 18.2537 30.9206 18.152 31.12 18.09V18.09C31.3167 18.02 31.5257 17.9904 31.7341 18.0031C31.9426 18.0158 32.1463 18.0705 32.3331 18.1639C32.5199 18.2573 32.6859 18.3875 32.8212 18.5466C32.9564 18.7058 33.058 18.8906 33.12 19.09L34.4601 23.2L35.8401 27.4401C36.491 29.4309 36.5189 31.5729 35.92 33.58L35.42 35.2501C35.3192 35.5758 35.3192 35.9244 35.42 36.2501L38.18 44.73" stroke="#CECECE" stroke-width="1.6" stroke-linecap="round" stroke-linejoin="round"/>
</svg>
