<svg width="36" height="36" viewBox="0 0 36 36" fill="none" xmlns="http://www.w3.org/2000/svg">
<path d="M31.455 16.4699C31.7864 15.721 32.0378 14.9392 32.205 14.1374C32.2425 13.9499 32.3099 13.4549 32.3174 13.3874C32.3501 13.1086 32.3677 12.8282 32.37 12.5474C32.3681 10.8156 31.7722 9.13679 30.6819 7.79128C29.5915 6.44578 28.0726 5.51501 26.3787 5.15429C24.6848 4.79358 22.9185 5.02475 21.3745 5.80926C19.8305 6.59377 18.6023 7.88415 17.895 9.46496C17.1967 7.87412 15.9719 6.57225 14.4265 5.7785C12.8811 4.98475 11.1094 4.74753 9.40958 5.10668C7.70977 5.46583 6.18556 6.39949 5.09332 7.75054C4.00109 9.1016 3.40755 10.7876 3.41251 12.5249V12.645C3.45151 13.9595 3.75501 15.2527 4.30496 16.4474" stroke="#545454" stroke-width="1.6" stroke-linecap="round" stroke-linejoin="round"/>
<path d="M7.1925 21.2324C10.3495 25.202 13.9449 28.8024 17.91 31.965C21.8159 28.7691 25.3755 25.1718 28.5301 21.2324" stroke="#545454" stroke-width="1.6" stroke-linecap="round" stroke-linejoin="round"/>
<path d="M3.43506 18.9525H13.9201L16.0876 12.6675L19.5301 25.2375L21.6976 18.9525H32.3851" stroke="#545454" stroke-width="1.6" stroke-linecap="round" stroke-linejoin="round"/>
</svg>
