<svg width="48" height="48" viewBox="0 0 48 48" fill="none" xmlns="http://www.w3.org/2000/svg">
<path d="M31.84 21.8401C31.6013 21.8401 31.3724 21.7452 31.2036 21.5764C31.0348 21.4076 30.9401 21.1788 30.9401 20.9401V13.9401C30.9401 13.1179 30.6135 12.3294 30.0321 11.748C29.4507 11.1667 28.6621 10.8401 27.84 10.8401H20.27C19.4478 10.8401 18.6594 11.1667 18.078 11.748C17.4966 12.3294 17.17 13.1179 17.17 13.9401V20.9401C17.17 21.1788 17.0752 21.4076 16.9064 21.5764C16.7376 21.7452 16.5087 21.8401 16.27 21.8401C16.0313 21.8401 15.8024 21.7452 15.6337 21.5764C15.4649 21.4076 15.37 21.1788 15.37 20.9401V13.9401C15.3726 12.6413 15.8897 11.3965 16.8081 10.4781C17.7265 9.55979 18.9713 9.04268 20.27 9.04004H27.84C29.1387 9.04268 30.3835 9.55979 31.3019 10.4781C32.2202 11.3965 32.7373 12.6413 32.74 13.9401V20.9401C32.74 21.0583 32.7167 21.1752 32.6715 21.2844C32.6263 21.3936 32.56 21.4928 32.4764 21.5764C32.3929 21.66 32.2936 21.7263 32.1844 21.7715C32.0753 21.8167 31.9582 21.8401 31.84 21.8401Z" fill="black"/>
<path d="M35.9301 43.7101H12.6501C12.2391 43.7119 11.8325 43.626 11.4573 43.4581C11.0822 43.2903 10.7472 43.0444 10.4747 42.7368C10.2021 42.4292 9.99825 42.067 9.87675 41.6744C9.75526 41.2818 9.71887 40.8679 9.77006 40.4601L11.9001 23.12C11.9854 22.4182 12.3242 21.7717 12.8527 21.3021C13.3812 20.8325 14.0631 20.5722 14.7701 20.5701H33.7701C34.4782 20.5719 35.1613 20.8319 35.6915 21.3013C36.2216 21.7707 36.5625 22.4173 36.6501 23.12L38.7801 40.4601C38.8289 40.8671 38.7909 41.2799 38.6685 41.6711C38.5461 42.0624 38.3422 42.4233 38.0701 42.73C37.8029 43.0353 37.474 43.2805 37.1051 43.4495C36.7363 43.6184 36.3358 43.7073 35.9301 43.7101ZM14.7701 22.37C14.4972 22.3736 14.2353 22.4775 14.0342 22.662C13.8332 22.8464 13.7071 23.0985 13.6801 23.37L11.5501 40.7101C11.5305 40.8644 11.5445 41.0211 11.5911 41.1696C11.6377 41.318 11.7158 41.4546 11.8201 41.5701C11.9237 41.6878 12.0514 41.7818 12.1946 41.8457C12.3379 41.9096 12.4932 41.9417 12.6501 41.9401H35.9301C36.0854 41.9416 36.2392 41.9094 36.3808 41.8455C36.5224 41.7816 36.6484 41.6876 36.75 41.5701C36.8592 41.4579 36.9406 41.3216 36.9875 41.1722C37.0344 41.0229 37.0455 40.8646 37.0201 40.7101L34.8901 23.37C34.8674 23.0968 34.7427 22.8422 34.5407 22.6569C34.3387 22.4715 34.0742 22.3691 33.8001 22.37H14.7701Z" fill="black"/>
<path d="M18.4501 10.8101C18.2114 10.8101 17.9824 10.7152 17.8136 10.5464C17.6448 10.3776 17.55 10.1487 17.55 9.91003V5.19006C17.55 4.95137 17.6448 4.72237 17.8136 4.55359C17.9824 4.38481 18.2114 4.29004 18.4501 4.29004C18.6888 4.29004 18.9176 4.38481 19.0864 4.55359C19.2552 4.72237 19.35 4.95137 19.35 5.19006V9.91003C19.35 10.1487 19.2552 10.3776 19.0864 10.5464C18.9176 10.7152 18.6888 10.8101 18.4501 10.8101Z" fill="black"/>
<path d="M29.73 10.8101C29.4921 10.8075 29.2648 10.7118 29.0966 10.5436C28.9283 10.3754 28.8327 10.1479 28.8301 9.91003V5.19006C28.8536 4.96645 28.9591 4.75945 29.1262 4.60901C29.2933 4.45857 29.5101 4.37524 29.735 4.37524C29.9598 4.37524 30.1768 4.45857 30.3439 4.60901C30.511 4.75945 30.6165 4.96645 30.64 5.19006V9.91003C30.6374 10.1496 30.5404 10.3785 30.37 10.547C30.1996 10.7155 29.9696 10.8101 29.73 10.8101Z" fill="black"/>
<path d="M24.09 36.87C22.3553 36.8647 20.6935 36.1727 19.4679 34.9452C18.2423 33.7177 17.5527 32.0547 17.55 30.3201V27.42C17.5527 26.9497 17.7414 26.4995 18.075 26.1678C18.4085 25.8362 18.8597 25.65 19.3301 25.65H28.86C29.3303 25.65 29.7816 25.8362 30.1151 26.1678C30.4486 26.4995 30.6374 26.9497 30.64 27.42V30.3201C30.6374 32.0564 29.9464 33.7208 28.7186 34.9486C27.4908 36.1764 25.8263 36.8674 24.09 36.87ZM28.8301 27.42H19.3301V30.29C19.3301 31.5472 19.8295 32.7528 20.7184 33.6417C21.6073 34.5306 22.8129 35.03 24.0701 35.03C25.3272 35.03 26.5328 34.5306 27.4218 33.6417C28.3107 32.7528 28.8101 31.5472 28.8101 30.29L28.8301 27.42Z" fill="black"/>
<path d="M43.1901 29.66H41.4C40.7847 29.66 40.1946 29.4156 39.7595 28.9805C39.3244 28.5454 39.0801 27.9554 39.0801 27.3401V27.04C39.0801 26.4247 39.3244 25.8346 39.7595 25.3995C40.1946 24.9645 40.7847 24.7201 41.4 24.7201C41.5379 24.7201 41.6702 24.6653 41.7677 24.5677C41.8652 24.4702 41.92 24.338 41.92 24.2001V23.9601C41.9174 23.8239 41.8615 23.6941 41.7643 23.5988C41.667 23.5034 41.5362 23.45 41.4 23.4501H35.9501C35.7114 23.4501 35.4824 23.3552 35.3136 23.1864C35.1448 23.0176 35.05 22.7887 35.05 22.55C35.05 22.3114 35.1448 22.0825 35.3136 21.9137C35.4824 21.7449 35.7114 21.65 35.9501 21.65H41.4C42.0136 21.65 42.6022 21.8931 43.037 22.326C43.4718 22.759 43.7173 23.3465 43.72 23.9601V24.2001C43.72 24.8154 43.4756 25.4055 43.0405 25.8406C42.6054 26.2757 42.0153 26.52 41.4 26.52C41.2621 26.52 41.1299 26.5748 41.0323 26.6724C40.9348 26.7699 40.88 26.9021 40.88 27.04V27.37C40.88 27.5079 40.9348 27.6403 41.0323 27.7378C41.1299 27.8353 41.2621 27.89 41.4 27.89H43.1901C43.4288 27.89 43.6576 27.9849 43.8264 28.1537C43.9952 28.3225 44.09 28.5513 44.09 28.79C44.09 29.0287 43.9952 29.2576 43.8264 29.4264C43.6576 29.5952 43.4288 29.6901 43.1901 29.6901V29.66Z" fill="black"/>
<path d="M7.20007 29.66H5.41003C5.17134 29.66 4.94246 29.5653 4.77368 29.3965C4.6049 29.2277 4.51001 28.9987 4.51001 28.76C4.51001 28.5213 4.6049 28.2924 4.77368 28.1237C4.94246 27.9549 5.17134 27.86 5.41003 27.86H7.20007C7.33799 27.86 7.47023 27.8053 7.56775 27.7078C7.66527 27.6102 7.71997 27.478 7.71997 27.3401V27.04C7.71997 26.9021 7.66527 26.7699 7.56775 26.6724C7.47023 26.5748 7.33799 26.52 7.20007 26.52C6.58477 26.52 5.99465 26.2757 5.55957 25.8406C5.12449 25.4055 4.88 24.8154 4.88 24.2001V23.9601C4.88265 23.3465 5.12831 22.759 5.56311 22.326C5.99791 21.8931 6.5865 21.65 7.20007 21.65H12.65C12.8887 21.65 13.1176 21.7449 13.2864 21.9137C13.4552 22.0825 13.55 22.3114 13.55 22.55C13.55 22.7887 13.4552 23.0176 13.2864 23.1864C13.1176 23.3552 12.8887 23.4501 12.65 23.4501H7.20007C7.13226 23.4487 7.06487 23.4609 7.00183 23.486C6.9388 23.511 6.88131 23.5483 6.83289 23.5958C6.78446 23.6433 6.74598 23.7 6.71973 23.7626C6.69347 23.8251 6.68004 23.8923 6.68005 23.9601V24.2001C6.68005 24.338 6.73476 24.4702 6.83228 24.5677C6.92979 24.6653 7.06216 24.7201 7.20007 24.7201C7.81538 24.7201 8.40537 24.9645 8.84045 25.3995C9.27554 25.8346 9.52002 26.4247 9.52002 27.04V27.37C9.51213 27.9801 9.26419 28.5626 8.82996 28.9912C8.39572 29.4198 7.81021 29.6601 7.20007 29.66Z" fill="black"/>
</svg>
