<svg width="14" height="18" viewBox="0 0 14 18" fill="none" xmlns="http://www.w3.org/2000/svg">
    <rect x="11.4961" width="11.47" height="8.93999" transform="rotate(90 11.4961 0)" fill="#29C9AC" />
    <path d="M14 10.6517L7 18L1.81367e-06 10.6517L7 10.6517L14 10.6517Z" fill="#29C9AC" />
</svg>
