<svg width="48" height="48" viewBox="0 0 48 48" fill="none" xmlns="http://www.w3.org/2000/svg">
<path d="M23.9401 12.41C23.8355 12.41 23.7319 12.3892 23.6354 12.3489C23.5389 12.3086 23.4513 12.2495 23.3779 12.1751C23.3044 12.1006 23.2464 12.0124 23.2073 11.9154C23.1682 11.8184 23.1487 11.7146 23.1501 11.61V9.53999C23.1487 9.43541 23.1682 9.33158 23.2073 9.23457C23.2464 9.13757 23.3044 9.04929 23.3779 8.97487C23.4513 8.90045 23.5389 8.84137 23.6354 8.80104C23.7319 8.76072 23.8355 8.74 23.9401 8.74001C24.3913 8.72729 24.8203 8.54169 25.1386 8.22157C25.4569 7.90146 25.64 7.47126 25.6501 7.01997C25.6501 6.56288 25.4692 6.12434 25.1469 5.80019C24.8246 5.47604 24.3872 5.29264 23.9301 5.28999C23.5724 5.2883 23.2232 5.39947 22.9323 5.60774C22.6414 5.81602 22.4237 6.11075 22.3101 6.44997C22.2773 6.54977 22.2251 6.64217 22.1565 6.72182C22.088 6.80146 22.0045 6.86678 21.9107 6.91414C21.8169 6.9615 21.7147 6.98996 21.6099 6.99782C21.5051 7.00568 21.3999 6.99281 21.3001 6.95998C21.2003 6.92715 21.1079 6.875 21.0282 6.80647C20.9486 6.73795 20.8832 6.65441 20.8359 6.56062C20.7885 6.46684 20.7601 6.36461 20.7522 6.25984C20.7444 6.15507 20.7573 6.04977 20.7901 5.94997C21.0451 5.20749 21.5549 4.57936 22.229 4.17714C22.9032 3.77492 23.6981 3.6246 24.4726 3.75288C25.2471 3.88117 25.951 4.27977 26.4595 4.87788C26.968 5.476 27.2481 6.23494 27.25 7.01997C27.2411 7.75611 26.9906 8.46896 26.5372 9.04891C26.0837 9.62885 25.4523 10.0438 24.74 10.23V11.65C24.7322 11.856 24.6443 12.0508 24.4948 12.1928C24.3453 12.3348 24.1463 12.4127 23.9401 12.41Z" fill="#CECECE"/>
<path d="M37.13 44.53H10.88C10.451 44.5249 10.0409 44.3528 9.73657 44.0504C9.43228 43.748 9.25777 43.339 9.25 42.91V24.0801C9.25795 20.6782 10.6156 17.4184 13.0249 15.0166C15.4342 12.6148 18.6981 11.2674 22.1 11.27H25.9C29.3019 11.2674 32.5658 12.6148 34.9751 15.0166C37.3844 17.4184 38.7421 20.6782 38.75 24.0801V42.91C38.7448 43.3381 38.5725 43.7471 38.2698 44.0498C37.9671 44.3525 37.558 44.5248 37.13 44.53ZM22.13 12.87C19.1532 12.87 16.2978 14.0497 14.1892 16.1509C12.0806 18.252 10.8906 21.1033 10.88 24.0801V42.91H37.16V24.0601C37.1495 21.0833 35.9595 18.232 33.8508 16.1309C31.7422 14.0297 28.8868 12.85 25.91 12.85L22.13 12.87Z" fill="#CECECE"/>
<path d="M15.5501 29.28C15.444 29.2787 15.339 29.2583 15.24 29.22L14.1301 28.75C13.7723 28.6034 13.4867 28.3219 13.3351 27.9663C13.1835 27.6107 13.1782 27.2096 13.3201 26.85C13.6001 26.13 14.1 24.8501 14.61 23.6801C15.47 21.6801 16.3301 20.61 17.6601 19.99C18.8101 19.44 21.0301 18.57 21.1301 18.53C21.2297 18.4879 21.3369 18.4663 21.4451 18.4663C21.5533 18.4663 21.6604 18.4879 21.7601 18.53C21.8592 18.577 21.9477 18.6437 22.0199 18.7263C22.0922 18.8089 22.1468 18.9055 22.1801 19.01C22.2878 19.409 22.524 19.7613 22.8521 20.0126C23.1802 20.2638 23.5818 20.3999 23.995 20.3999C24.4083 20.3999 24.81 20.2638 25.1381 20.0126C25.4662 19.7613 25.7024 19.409 25.8101 19.01C25.8436 18.9068 25.8982 18.8116 25.9705 18.7307C26.0428 18.6498 26.1312 18.5848 26.23 18.54C26.3297 18.498 26.4369 18.4763 26.5451 18.4763C26.6533 18.4763 26.7603 18.498 26.86 18.54C26.95 18.54 29.1701 19.45 30.3201 20C31.6601 20.62 32.51 21.6601 33.3801 23.6901C33.8901 24.8901 34.3801 26.14 34.6601 26.86C34.8026 27.2183 34.7986 27.6183 34.649 27.9738C34.4993 28.3292 34.2159 28.6115 33.86 28.76L32.86 29.1801C32.7621 29.2304 32.6548 29.26 32.5448 29.267C32.4349 29.2739 32.3247 29.2582 32.2211 29.2206C32.1176 29.183 32.0229 29.1244 31.943 29.0485C31.8632 28.9726 31.7999 28.8809 31.7571 28.7794C31.7143 28.6779 31.6929 28.5688 31.6943 28.4586C31.6956 28.3485 31.7197 28.2397 31.7651 28.1393C31.8104 28.0389 31.8761 27.949 31.9578 27.8751C32.0395 27.8013 32.1356 27.7451 32.24 27.7101L33.1401 27.3301C32.8601 26.6001 32.3901 25.4401 31.9101 24.3301C31.2101 22.6801 30.6001 21.9001 29.6501 21.4501C28.9301 21.1201 27.73 20.6201 26.97 20.3201C26.6731 20.8464 26.2416 21.2843 25.7198 21.5891C25.1979 21.8939 24.6044 22.0546 24 22.0546C23.3957 22.0546 22.8022 21.8939 22.2803 21.5891C21.7585 21.2843 21.327 20.8464 21.0301 20.3201C20.2801 20.6201 19.03 21.1201 18.35 21.4501C17.41 21.9001 16.7901 22.6801 16.0901 24.3301C15.6101 25.4501 15.15 26.6101 14.87 27.3301L15.87 27.75C16.0419 27.8206 16.1839 27.9488 16.2715 28.1127C16.3592 28.2765 16.3871 28.4658 16.3504 28.6479C16.3137 28.8301 16.2148 28.9938 16.0706 29.111C15.9264 29.2281 15.7459 29.2915 15.5601 29.29L15.5501 29.28Z" fill="#CECECE"/>
<path d="M29.39 37.97H18.6C18.2207 37.97 17.857 37.8193 17.5889 37.5511C17.3207 37.283 17.17 36.9193 17.17 36.54V26.27C17.17 26.0578 17.2543 25.8544 17.4043 25.7043C17.5543 25.5543 17.7578 25.47 17.97 25.47C18.1821 25.47 18.3857 25.5543 18.5358 25.7043C18.6858 25.8544 18.77 26.0578 18.77 26.27V36.37H29.2101V26.27C29.2101 26.0578 29.2943 25.8544 29.4443 25.7043C29.5944 25.5543 29.7978 25.47 30.01 25.47C30.2222 25.47 30.4257 25.5543 30.5757 25.7043C30.7257 25.8544 30.8101 26.0578 30.8101 26.27V36.54C30.8101 36.9176 30.6608 37.2797 30.3948 37.5476C30.1288 37.8155 29.7675 37.9673 29.39 37.97Z" fill="#CECECE"/>
</svg>
