<svg width="44" height="44" viewBox="0 0 44 44" fill="none" xmlns="http://www.w3.org/2000/svg">
<path d="M22 37.5833C30.6064 37.5833 37.5833 30.6064 37.5833 22C37.5833 13.3935 30.6064 6.41663 22 6.41663C13.3935 6.41663 6.41663 13.3935 6.41663 22C6.41663 30.6064 13.3935 37.5833 22 37.5833Z" stroke="#222222" stroke-width="2.0" stroke-linecap="round" stroke-linejoin="round"/>
<path d="M14.6666 19.25L18.1956 27.5L21.7324 19.25L25.2614 27.5L28.7903 19.25" stroke="#B579C8" stroke-width="2.0" stroke-linecap="round" stroke-linejoin="round"/>
<path d="M27.5 22.9166H30.25" stroke="#B579C8" stroke-width="2.0" stroke-linecap="round" stroke-linejoin="round"/>
<path d="M13.2916 22.9166H16.0416" stroke="#B579C8" stroke-width="2.0" stroke-linecap="round" stroke-linejoin="round"/>
</svg>
