<svg width="24" height="24" viewBox="0 0 24 24" fill="none" xmlns="http://www.w3.org/2000/svg">
    <path fill-rule="evenodd" clip-rule="evenodd"
        d="M11.9999 4.0827C9.86967 4.0827 8.14277 5.8096 8.14277 7.93983C8.14277 10.0701 9.86967 11.797 11.9999 11.797C14.1302 11.797 15.8571 10.0701 15.8571 7.93983C15.8571 5.8096 14.1302 4.0827 11.9999 4.0827ZM7.06006 7.93983C7.06006 5.21164 9.27171 3 11.9999 3C14.7281 3 16.9398 5.21164 16.9398 7.93983C16.9398 10.668 14.7281 12.8797 11.9999 12.8797C11.9148 12.8797 11.8301 12.8775 11.746 12.8733C11.7185 12.8776 11.6904 12.8798 11.6617 12.8798H11.2957C7.33563 12.8798 4.08271 16.2496 4.08271 20.4587C4.08271 20.7577 3.84033 21.0001 3.54135 21.0001C3.24237 21.0001 3 20.7577 3 20.4587C3 16.4227 5.65432 13.0031 9.26909 12.0569C7.93763 11.1719 7.06006 9.65837 7.06006 7.93983ZM17.3931 13.2535C17.1512 13.0779 16.8126 13.1317 16.637 13.3737C16.4614 13.6156 16.5152 13.9542 16.7572 14.1298C18.6633 15.513 19.9173 17.8248 19.9173 20.4585C19.9173 20.7575 20.1597 20.9999 20.4586 20.9999C20.7576 20.9999 21 20.7575 21 20.4585C21 17.4768 19.5789 14.8396 17.3931 13.2535Z"
        fill="#B579C8" />
    <path
        d="M11.746 12.8733L11.7561 12.6735C11.7424 12.6728 11.7287 12.6735 11.7151 12.6757L11.746 12.8733ZM9.26909 12.0569L9.31974 12.2503C9.39599 12.2304 9.4534 12.1675 9.46637 12.0898C9.47933 12.012 9.44544 11.9339 9.3798 11.8903L9.26909 12.0569ZM16.637 13.3737L16.4752 13.2562L16.637 13.3737ZM17.3931 13.2535L17.5106 13.0916L17.3931 13.2535ZM16.7572 14.1298L16.8747 13.9679L16.7572 14.1298ZM8.34277 7.93983C8.34277 5.92006 9.98012 4.2827 11.9999 4.2827V3.8827C9.75921 3.8827 7.94277 5.69914 7.94277 7.93983H8.34277ZM11.9999 11.597C9.98012 11.597 8.34277 9.95961 8.34277 7.93983H7.94277C7.94277 10.1805 9.75921 11.997 11.9999 11.997V11.597ZM15.6571 7.93983C15.6571 9.95961 14.0197 11.597 11.9999 11.597V11.997C14.2406 11.997 16.0571 10.1805 16.0571 7.93983H15.6571ZM11.9999 4.2827C14.0197 4.2827 15.6571 5.92006 15.6571 7.93983H16.0571C16.0571 5.69914 14.2406 3.8827 11.9999 3.8827V4.2827ZM11.9999 2.8C9.16125 2.8 6.86006 5.10118 6.86006 7.93983H7.26006C7.26006 5.3221 9.38216 3.2 11.9999 3.2V2.8ZM17.1398 7.93983C17.1398 5.10118 14.8386 2.8 11.9999 2.8V3.2C14.6177 3.2 16.7398 5.3221 16.7398 7.93983H17.1398ZM11.9999 13.0797C14.8386 13.0797 17.1398 10.7785 17.1398 7.93983H16.7398C16.7398 10.5576 14.6177 12.6797 11.9999 12.6797V13.0797ZM11.7359 13.073C11.8234 13.0774 11.9114 13.0797 11.9999 13.0797V12.6797C11.9181 12.6797 11.8369 12.6776 11.7561 12.6735L11.7359 13.073ZM11.6617 13.0798C11.7007 13.0798 11.7393 13.0767 11.7769 13.0709L11.7151 12.6757C11.6978 12.6784 11.68 12.6798 11.6617 12.6798V13.0798ZM11.2957 13.0798H11.6617V12.6798H11.2957V13.0798ZM4.28271 20.4587C4.28271 16.3514 7.45449 13.0798 11.2957 13.0798V12.6798C7.21677 12.6798 3.88271 16.1477 3.88271 20.4587H4.28271ZM3.54135 21.2001C3.95079 21.2001 4.28271 20.8682 4.28271 20.4587H3.88271C3.88271 20.6472 3.72988 20.8001 3.54135 20.8001V21.2001ZM2.8 20.4587C2.8 20.8682 3.13192 21.2001 3.54135 21.2001V20.8001C3.35283 20.8001 3.2 20.6472 3.2 20.4587H2.8ZM9.21844 11.8634C5.51219 12.8336 2.8 16.3354 2.8 20.4587H3.2C3.2 16.5099 5.79644 13.1727 9.31974 12.2503L9.21844 11.8634ZM6.86006 7.93983C6.86006 9.72815 7.77353 11.303 9.15839 12.2234L9.3798 11.8903C8.10174 11.0409 7.26006 9.5886 7.26006 7.93983H6.86006ZM16.7989 13.4911C16.9096 13.3385 17.1231 13.3046 17.2757 13.4153L17.5106 13.0916C17.1792 12.8511 16.7156 12.9248 16.4752 13.2562L16.7989 13.4911ZM16.8747 13.9679C16.7221 13.8572 16.6882 13.6437 16.7989 13.4911L16.4752 13.2562C16.2347 13.5876 16.3084 14.0511 16.6398 14.2916L16.8747 13.9679ZM20.1173 20.4585C20.1173 17.7605 18.8324 15.3886 16.8747 13.9679L16.6398 14.2916C18.4942 15.6374 19.7173 17.8891 19.7173 20.4585H20.1173ZM20.4586 20.7999C20.2701 20.7999 20.1173 20.647 20.1173 20.4585H19.7173C19.7173 20.868 20.0492 21.1999 20.4586 21.1999V20.7999ZM20.8 20.4585C20.8 20.647 20.6472 20.7999 20.4586 20.7999V21.1999C20.8681 21.1999 21.2 20.868 21.2 20.4585H20.8ZM17.2757 13.4153C19.4097 14.964 20.8 17.5411 20.8 20.4585H21.2C21.2 17.4125 19.748 14.7153 17.5106 13.0916L17.2757 13.4153Z"
        fill="#B579C8" />
</svg>
