<svg width="68" height="68" viewBox="0 0 68 68" fill="none" xmlns="http://www.w3.org/2000/svg">
<path d="M62.475 26.5199C62.2209 26.521 61.973 26.4417 61.7667 26.2933L35.6718 8.71251C35.2221 8.4018 34.6883 8.2353 34.1417 8.2353C33.5951 8.2353 33.0615 8.4018 32.6118 8.71251L6.51669 26.2933C6.37921 26.3869 6.22459 26.4524 6.0617 26.486C5.89881 26.5195 5.73092 26.5205 5.56763 26.4889C5.40435 26.4573 5.249 26.3937 5.1104 26.3018C4.9718 26.2099 4.85267 26.0914 4.76004 25.9533C4.66608 25.8147 4.60046 25.659 4.5667 25.495C4.53294 25.331 4.53184 25.1619 4.56341 24.9974C4.59498 24.833 4.6586 24.6764 4.7507 24.5366C4.8428 24.3967 4.96142 24.2764 5.10002 24.1825L31.2093 6.58751C32.0841 5.99796 33.1151 5.68298 34.17 5.68298C35.225 5.68298 36.2561 5.99796 37.131 6.58751L63.2117 24.1825C63.3529 24.274 63.4744 24.3929 63.569 24.5322C63.6635 24.6714 63.7293 24.8282 63.7623 24.9932C63.7953 25.1582 63.7949 25.3282 63.7611 25.4931C63.7274 25.658 63.661 25.8145 63.5659 25.9533C63.4456 26.1311 63.2829 26.2761 63.0924 26.375C62.9019 26.474 62.6897 26.5238 62.475 26.5199V26.5199Z" fill="#B579C8"/>
<path d="M59.33 49.9517C58.9918 49.9517 58.6676 49.8173 58.4285 49.5782C58.1894 49.3391 58.0549 49.0148 58.0549 48.6766V23.1908C58.0549 23.0234 58.088 22.8576 58.1521 22.7029C58.2162 22.5482 58.3101 22.4076 58.4285 22.2892C58.5469 22.1708 58.6874 22.0769 58.8421 22.0129C58.9968 21.9488 59.1625 21.9158 59.33 21.9158C59.4974 21.9158 59.6633 21.9488 59.818 22.0129C59.9727 22.0769 60.1132 22.1708 60.2316 22.2892C60.35 22.4076 60.4439 22.5482 60.508 22.7029C60.5721 22.8576 60.605 23.0234 60.605 23.1908V48.6908C60.6013 49.0265 60.4653 49.3472 60.2266 49.5832C59.9879 49.8193 59.6657 49.9517 59.33 49.9517V49.9517Z" fill="#B579C8"/>
<path d="M8.95338 49.9517C8.61523 49.9517 8.29082 49.8173 8.05171 49.5782C7.8126 49.3391 7.67834 49.0148 7.67834 48.6766V23.1908C7.67834 22.8527 7.8126 22.5283 8.05171 22.2892C8.29082 22.0501 8.61523 21.9158 8.95338 21.9158C9.29153 21.9158 9.61577 22.0501 9.85488 22.2892C10.094 22.5283 10.2282 22.8527 10.2282 23.1908V48.6908C10.2245 49.0265 10.0886 49.3472 9.84986 49.5832C9.61116 49.8193 9.28909 49.9517 8.95338 49.9517V49.9517Z" fill="#B579C8"/>
<path d="M34.1416 47.8833C32.3008 47.8833 30.5014 47.3374 28.9707 46.3147C27.4401 45.292 26.2472 43.8383 25.5427 42.1376C24.8382 40.4369 24.6539 38.5655 25.013 36.76C25.3721 34.9545 26.2586 33.2961 27.5603 31.9944C28.862 30.6927 30.5203 29.8063 32.3258 29.4472C34.1313 29.088 36.0028 29.2723 37.7035 29.9768C39.4042 30.6812 40.8578 31.8742 41.8805 33.4048C42.9033 34.9354 43.4492 36.7349 43.4492 38.5758C43.4492 41.0443 42.4686 43.4117 40.7231 45.1572C38.9776 46.9027 36.6101 47.8833 34.1416 47.8833V47.8833ZM34.1416 31.8324C32.8045 31.8324 31.4976 32.2292 30.386 32.9723C29.2745 33.7155 28.4082 34.7717 27.8972 36.0073C27.3861 37.2429 27.2533 38.6023 27.5152 39.9135C27.7771 41.2247 28.422 42.4288 29.3685 43.3733C30.315 44.3178 31.5202 44.9602 32.832 45.2193C34.1438 45.4785 35.503 45.3427 36.7375 44.829C37.972 44.3154 39.0265 43.4471 39.7673 42.334C40.5081 41.2208 40.9019 39.9129 40.8991 38.5758C40.8954 36.786 40.1818 35.0709 38.9149 33.8067C37.648 32.5425 35.9314 31.8324 34.1416 31.8324V31.8324Z" fill="#B579C8"/>
<path d="M47.0192 60.7751C46.6822 60.7714 46.36 60.6359 46.1217 60.3976C45.8834 60.1592 45.7479 59.837 45.7442 59.5C45.7442 56.4229 44.5218 53.4717 42.3459 51.2958C40.17 49.12 37.2188 47.8975 34.1416 47.8975C31.0644 47.8975 28.1134 49.12 25.9375 51.2958C23.7616 53.4717 22.5392 56.4229 22.5392 59.5C22.5392 59.8382 22.405 60.1625 22.1658 60.4016C21.9267 60.6407 21.6023 60.7751 21.2642 60.7751C20.926 60.7751 20.6018 60.6407 20.3627 60.4016C20.1236 60.1625 19.9891 59.8382 19.9891 59.5C19.9891 55.7428 21.4817 52.1395 24.1385 49.4827C26.7953 46.826 30.3986 45.3334 34.1558 45.3334C37.913 45.3334 41.5165 46.826 44.1733 49.4827C46.8301 52.1395 48.3225 55.7428 48.3225 59.5C48.3206 59.6693 48.2856 59.8366 48.2191 59.9923C48.1526 60.148 48.056 60.2891 47.9349 60.4075C47.8139 60.5259 47.6708 60.6193 47.5137 60.6824C47.3565 60.7454 47.1885 60.7769 47.0192 60.7751V60.7751Z" fill="#B579C8"/>
<path d="M34.0425 43.4349C33.2799 43.4286 32.5369 43.1929 31.9103 42.7582C31.2836 42.3236 30.8024 41.7103 30.5292 40.9983C30.4768 40.8751 30.45 40.7425 30.4502 40.6086C30.4504 40.4747 30.4778 40.3422 30.5306 40.2192C30.5834 40.0961 30.6606 39.9851 30.7575 39.8927C30.8544 39.8003 30.969 39.7284 31.0944 39.6815C31.2198 39.6346 31.3535 39.6136 31.4873 39.6197C31.621 39.6258 31.7521 39.659 31.8727 39.7171C31.9933 39.7753 32.1008 39.8573 32.1889 39.9582C32.2769 40.0591 32.3436 40.1768 32.385 40.3042C32.5174 40.6355 32.7461 40.9195 33.0416 41.1196C33.337 41.3197 33.6857 41.4267 34.0425 41.4267C34.3994 41.4267 34.748 41.3197 35.0435 41.1196C35.3389 40.9195 35.5677 40.6355 35.7001 40.3042C35.8 40.0691 35.9868 39.8816 36.2215 39.7809C36.4562 39.6801 36.7208 39.6738 36.9601 39.7633C37.1993 39.8528 37.3949 40.0312 37.5059 40.2613C37.6169 40.4913 37.6347 40.7553 37.5558 40.9983C37.2843 41.7115 36.8036 42.3258 36.1765 42.7607C35.5495 43.1955 34.8056 43.4306 34.0425 43.4349V43.4349Z" fill="#B579C8"/>
</svg>
