<svg width="68" height="68" viewBox="0 0 68 68" fill="none" xmlns="http://www.w3.org/2000/svg">
<path d="M62.3333 26.4067C62.0792 26.4078 61.8313 26.3284 61.625 26.18L35.5301 8.58505C35.0782 8.27992 34.5452 8.11692 34 8.11692C33.4547 8.11692 32.9219 8.27992 32.47 8.58505L6.37497 26.18C6.23749 26.2736 6.08287 26.3391 5.91998 26.3727C5.75709 26.4062 5.58919 26.4072 5.42591 26.3756C5.26263 26.344 5.10727 26.2804 4.96868 26.1885C4.83008 26.0966 4.71095 25.9782 4.61831 25.84C4.52436 25.7014 4.45874 25.5457 4.42497 25.3817C4.39121 25.2177 4.39012 25.0487 4.42169 24.8842C4.45326 24.7198 4.51688 24.5631 4.60897 24.4233C4.70107 24.2834 4.8197 24.1631 4.9583 24.0692L31.0392 6.47423C31.9141 5.88468 32.945 5.5697 34 5.5697C35.055 5.5697 36.086 5.88468 36.9609 6.47423L63.0416 24.0692C63.1829 24.1608 63.3044 24.2796 63.3989 24.4189C63.4935 24.5581 63.5592 24.7149 63.5923 24.8799C63.6253 25.045 63.6249 25.215 63.5912 25.3799C63.5575 25.5448 63.491 25.7012 63.3958 25.84C63.2782 26.0138 63.1201 26.1563 62.9349 26.2551C62.7498 26.3538 62.5432 26.4059 62.3333 26.4067Z" fill="#B579C8"/>
<path d="M59.1883 49.8383C58.8502 49.8383 58.5259 49.704 58.2868 49.4649C58.0477 49.2258 57.9133 48.9014 57.9133 48.5633V23.0633C57.9133 22.7251 58.0477 22.4009 58.2868 22.1618C58.5259 21.9227 58.8502 21.7883 59.1883 21.7883C59.5265 21.7883 59.8509 21.9227 60.09 22.1618C60.3291 22.4009 60.4633 22.7251 60.4633 23.0633V48.5633C60.4633 48.9014 60.3291 49.2258 60.09 49.4649C59.8509 49.704 59.5265 49.8383 59.1883 49.8383V49.8383Z" fill="#B579C8"/>
<path d="M8.81172 49.8383C8.47357 49.8383 8.14915 49.704 7.91004 49.4649C7.67094 49.2258 7.53668 48.9014 7.53668 48.5633V23.0633C7.53668 22.8958 7.56962 22.7301 7.6337 22.5754C7.69777 22.4207 7.79165 22.2802 7.91004 22.1618C8.02844 22.0434 8.16901 21.9494 8.3237 21.8853C8.47839 21.8213 8.64428 21.7883 8.81172 21.7883C8.97915 21.7883 9.14487 21.8213 9.29956 21.8853C9.45425 21.9494 9.59482 22.0434 9.71322 22.1618C9.83161 22.2802 9.92549 22.4207 9.98956 22.5754C10.0536 22.7301 10.0866 22.8958 10.0866 23.0633V48.5633C10.0866 48.9014 9.95232 49.2258 9.71322 49.4649C9.47411 49.704 9.14987 49.8383 8.81172 49.8383Z" fill="#B579C8"/>
<path d="M23.5025 47.7417C21.6623 47.7389 19.864 47.1907 18.3353 46.1662C16.8065 45.1418 15.6159 43.6872 14.9136 41.9863C14.2113 40.2853 14.0289 38.4143 14.3896 36.6098C14.7504 34.8052 15.638 33.1481 16.9402 31.8478C18.2425 30.5476 19.901 29.6625 21.7061 29.3045C23.5112 28.9465 25.3818 29.1317 27.0817 29.8366C28.7816 30.5415 30.2344 31.7344 31.2565 33.2648C32.2786 34.7951 32.8241 36.594 32.8241 38.4342C32.8241 39.6577 32.5829 40.8692 32.1142 41.9993C31.6456 43.1295 30.9588 44.1562 30.093 45.0206C29.2272 45.8851 28.1994 46.5704 27.0686 47.0373C25.9377 47.5042 24.726 47.7436 23.5025 47.7417V47.7417ZM23.5025 31.6767C22.166 31.6767 20.8594 32.073 19.7482 32.8156C18.6369 33.5581 17.7708 34.6134 17.2593 35.8482C16.7478 37.083 16.6141 38.4417 16.8749 39.7525C17.1356 41.0633 17.7792 42.2674 18.7242 43.2125C19.6693 44.1575 20.8733 44.8011 22.1841 45.0619C23.4949 45.3226 24.8536 45.1888 26.0884 44.6774C27.3232 44.1659 28.3786 43.2998 29.1211 42.1885C29.8636 41.0773 30.2601 39.7707 30.2601 38.4342C30.2563 36.6445 29.5427 34.9293 28.2758 33.6651C27.009 32.4009 25.2923 31.6909 23.5025 31.6909V31.6767Z" fill="#B579C8"/>
<path d="M36.3942 60.6191C36.056 60.6191 35.7318 60.4848 35.4927 60.2457C35.2535 60.0065 35.1191 59.6823 35.1191 59.3442C35.014 56.3353 33.7449 53.4847 31.5792 51.3933C29.4134 49.3019 26.5203 48.1331 23.5096 48.1331C20.4989 48.1331 17.6058 49.3019 15.44 51.3933C13.2743 53.4847 12.0051 56.3353 11.8999 59.3442C11.8999 59.5116 11.867 59.6774 11.8029 59.8321C11.7388 59.9868 11.645 60.1273 11.5266 60.2457C11.4082 60.3641 11.2676 60.458 11.1129 60.5221C10.9582 60.5862 10.7923 60.6191 10.6249 60.6191C10.4575 60.6191 10.2917 60.5862 10.1371 60.5221C9.98236 60.458 9.84179 60.3641 9.7234 60.2457C9.605 60.1273 9.51113 59.9868 9.44705 59.8321C9.38298 59.6774 9.35004 59.5116 9.35004 59.3442C9.35004 55.5869 10.8425 51.9835 13.4992 49.3268C16.156 46.67 19.7595 45.1775 23.5167 45.1775C27.2739 45.1775 30.8773 46.67 33.534 49.3268C36.1908 51.9835 37.6834 55.5869 37.6834 59.3442C37.6834 59.5128 37.6499 59.6798 37.585 59.8354C37.52 59.991 37.4247 60.1322 37.3048 60.2508C37.1849 60.3693 37.0428 60.4629 36.8865 60.5262C36.7302 60.5894 36.5628 60.621 36.3942 60.6191V60.6191Z" fill="#B579C8"/>
<path d="M57.3749 60.6192C57.2075 60.6192 57.0418 60.5862 56.8871 60.5222C56.7324 60.4581 56.5918 60.3641 56.4734 60.2457C56.355 60.1273 56.2612 59.9868 56.1971 59.8322C56.133 59.6775 56.1001 59.5117 56.1001 59.3442C56.0971 57.1608 55.4789 55.0225 54.3163 53.1743C53.1537 51.3262 51.4938 49.8431 49.5269 48.8952C47.56 47.9472 45.3658 47.5728 43.1958 47.8148C41.0259 48.0568 38.968 48.9054 37.2583 50.2633C36.9929 50.4394 36.6712 50.5098 36.3565 50.4606C36.0418 50.4113 35.7569 50.2461 35.5579 49.9974C35.3589 49.7486 35.2603 49.4345 35.2814 49.1166C35.3024 48.7988 35.4416 48.5004 35.6717 48.2801C37.756 46.6243 40.2646 45.5893 42.9101 45.2937C45.5556 44.9981 48.2309 45.4538 50.6293 46.6087C53.0277 47.7635 55.0523 49.5707 56.4708 51.8232C57.8894 54.0757 58.6446 56.6823 58.65 59.3442C58.65 59.6824 58.5157 60.0066 58.2766 60.2457C58.0375 60.4848 57.7131 60.6192 57.3749 60.6192V60.6192Z" fill="#B579C8"/>
<path d="M23.3609 43.2792C22.5979 43.2748 21.854 43.0398 21.227 42.6049C20.5999 42.17 20.119 41.5557 19.8475 40.8426C19.7951 40.7193 19.7682 40.5867 19.7684 40.4528C19.7687 40.3189 19.796 40.1864 19.8488 40.0634C19.9017 39.9404 19.9788 39.8293 20.0757 39.7369C20.1726 39.6445 20.2874 39.5727 20.4128 39.5258C20.5382 39.4788 20.6717 39.4578 20.8055 39.4639C20.9393 39.4701 21.0704 39.5032 21.191 39.5614C21.3116 39.6196 21.4192 39.7016 21.5073 39.8024C21.5953 39.9033 21.662 40.0209 21.7034 40.1483C21.8351 40.4821 22.0629 40.7694 22.3579 40.9736C22.653 41.1779 23.0021 41.2901 23.3609 41.2959C23.7207 41.2939 24.0713 41.1832 24.3671 40.9785C24.6628 40.7737 24.8899 40.4843 25.0183 40.1483C25.1165 39.9037 25.3056 39.7066 25.5459 39.5983C25.7863 39.49 26.0593 39.479 26.3075 39.5675C26.4292 39.613 26.5407 39.6823 26.6353 39.7713C26.7298 39.8604 26.8056 39.9674 26.8583 40.0861C26.9111 40.2049 26.9397 40.3328 26.9424 40.4627C26.9451 40.5926 26.922 40.7217 26.8742 40.8426C26.6061 41.5579 26.126 42.1744 25.4982 42.6098C24.8704 43.0452 24.1249 43.2788 23.3609 43.2792V43.2792Z" fill="#B579C8"/>
<path d="M44.5259 43.2792C43.7619 43.2787 43.0162 43.0452 42.3884 42.6098C41.7607 42.1744 41.2807 41.5579 41.0126 40.8425C40.9652 40.7208 40.9425 40.5908 40.9462 40.4603C40.9498 40.3297 40.9797 40.2013 41.0339 40.0824C41.088 39.9636 41.1653 39.8567 41.2614 39.7683C41.3575 39.6798 41.4705 39.6116 41.5935 39.5675C41.8398 39.4795 42.1106 39.491 42.3487 39.5994C42.5867 39.7078 42.773 39.9047 42.8683 40.1483C42.9951 40.4854 43.2217 40.7759 43.5179 40.981C43.814 41.186 44.1657 41.2959 44.5259 41.2959C44.8861 41.2959 45.2378 41.186 45.5339 40.981C45.8301 40.7759 46.0567 40.4854 46.1835 40.1483C46.2834 39.9132 46.4701 39.7258 46.7049 39.6251C46.9396 39.5243 47.2042 39.518 47.4434 39.6075C47.6827 39.697 47.8782 39.8753 47.9892 40.1054C48.1002 40.3355 48.1181 40.5996 48.0392 40.8425C47.7694 41.5568 47.289 42.1722 46.6616 42.6073C46.0342 43.0425 45.2894 43.2768 44.5259 43.2792Z" fill="#B579C8"/>
<path d="M44.5259 47.7418C42.685 47.7418 40.8854 47.1959 39.3548 46.1732C37.8242 45.1504 36.6312 43.6968 35.9268 41.9961C35.2223 40.2953 35.0381 38.4239 35.3973 36.6184C35.7564 34.813 36.6427 33.1545 37.9444 31.8528C39.2461 30.5512 40.9046 29.6647 42.7101 29.3055C44.5156 28.9464 46.3871 29.1308 48.0878 29.8352C49.7885 30.5397 51.2421 31.7327 52.2648 33.2633C53.2875 34.7939 53.8333 36.5934 53.8333 38.4342C53.8296 40.9016 52.8479 43.2668 51.1032 45.0115C49.3585 46.7562 46.9932 47.738 44.5259 47.7418V47.7418ZM44.5259 31.6767C43.1894 31.6767 41.8829 32.073 40.7717 32.8156C39.6604 33.5581 38.7943 34.6134 38.2828 35.8482C37.7714 37.083 37.6375 38.4417 37.8982 39.7525C38.159 41.0633 38.8025 42.2674 39.7476 43.2125C40.6926 44.1575 41.8968 44.8012 43.2076 45.0619C44.5184 45.3226 45.8771 45.1888 47.1119 44.6774C48.3467 44.1659 49.4019 43.2998 50.1445 42.1885C50.887 41.0773 51.2834 39.7707 51.2834 38.4342C51.2759 36.6456 50.5611 34.9327 49.295 33.6692C48.029 32.4058 46.3145 31.6946 44.5259 31.6909V31.6767Z" fill="#B579C8"/>
</svg>
