<svg width="64" height="64" viewBox="0 0 64 64" fill="none" xmlns="http://www.w3.org/2000/svg">
    <path
        d="M39 30.5H39.0006C42.5797 30.4961 46.011 29.0726 48.5418 26.5418C51.0725 24.011 52.4961 20.5797 52.5 17.0006V17.0001C52.5 14.33 51.7083 11.7199 50.2249 9.49979C48.7415 7.27972 46.633 5.54932 44.1662 4.52753C41.6994 3.50574 38.985 3.23854 36.3663 3.75944C33.7476 4.28034 31.3421 5.56593 29.4541 7.45396C27.5661 9.34198 26.2803 11.7475 25.7594 14.3662C25.2385 16.985 25.5059 19.6994 26.5277 22.1662C27.5494 24.633 29.2797 26.7414 31.4998 28.2248C33.7199 29.7083 36.33 30.5 39 30.5ZM33.473 8.7284C35.1089 7.63533 37.0323 7.05188 38.9997 7.05182C41.6371 7.05548 44.1654 8.10475 46.0303 9.96967C47.8953 11.8347 48.9446 14.3632 48.9482 17.0007C48.9481 18.9681 48.3647 20.8911 47.2717 22.5269C46.1785 24.1629 44.6248 25.438 42.807 26.191C40.9892 26.944 38.9889 27.141 37.0592 26.7572C35.1294 26.3733 33.3568 25.4257 31.9655 24.0344C30.5743 22.6431 29.6268 20.8705 29.243 18.9408C28.8591 17.011 29.0561 15.0107 29.8091 13.1929C30.562 11.3751 31.8371 9.82153 33.473 8.7284Z"
        fill="#DEDEDE" stroke="#DEDEDE" />
    <path
        d="M18.336 56.7458L18.336 56.7459L18.3414 56.7491C22.3655 59.2054 26.9802 60.5028 31.6843 60.4999C36.561 60.5144 41.3412 59.1313 45.4684 56.5121C49.5959 53.8927 52.9003 50.145 54.9974 45.7057C57.0945 41.2664 57.8983 36.3177 57.3153 31.4359C56.7324 26.5541 54.7867 21.9393 51.7043 18.1288L51.7044 18.1287L51.6961 18.119C51.3982 17.7694 50.9762 17.5494 50.5188 17.5073C50.0613 17.4653 49.6064 17.6049 49.2502 17.8948C48.8942 18.1847 48.6649 18.6021 48.6095 19.0582L49.1059 19.1184L48.6095 19.0582C48.5542 19.5142 48.6769 19.9745 48.9526 20.3418L48.958 20.3491L48.9637 20.3561C52.2819 24.4581 54.056 29.6121 53.9716 34.907C53.8872 40.2019 51.9497 45.2956 48.5025 49.2878C45.0555 53.2799 40.3209 55.9133 35.1363 56.7238C29.9522 57.5342 24.6507 56.47 20.1686 53.7186C19.9719 53.5966 19.7529 53.515 19.5244 53.4786C19.2952 53.4422 19.0613 53.4521 18.8362 53.5074C18.611 53.5628 18.3992 53.6627 18.213 53.8011L18.213 53.8011C18.0269 53.9394 17.87 54.1134 17.7514 54.3129L17.7511 54.3133C17.5127 54.715 17.4406 55.1944 17.5496 55.6487C17.6586 56.103 17.9404 56.4975 18.336 56.7458Z"
        fill="#DEDEDE" stroke="#DEDEDE" />
    <path
        d="M28.6304 51.4999L28.6304 51.5L28.9789 51.5L28.9796 51V51.5H28.9795C31.1858 51.5034 33.3747 51.1231 35.4397 50.3774L35.4574 50.371L35.4746 50.3632C35.8744 50.1838 36.1951 49.864 36.3664 49.4616C36.5379 49.0585 36.5446 48.607 36.3847 48.1991L35.9192 48.3816L36.3847 48.1991C36.2251 47.792 35.9136 47.4633 35.5188 47.273C35.1243 47.083 34.6716 47.0428 34.2493 47.1584L34.2308 47.1634L34.2128 47.1699C32.36 47.8331 30.3872 48.1376 28.4093 48.0654C26.4314 47.9932 24.4888 47.5458 22.6946 46.7497C20.9005 45.9535 19.2911 44.8249 17.9593 43.4304C16.6279 42.0363 15.6005 40.4044 14.9356 38.6299C14.8567 38.4154 14.7346 38.2194 14.5775 38.0529C14.42 37.886 14.2304 37.752 14.0205 37.6578C13.8107 37.5635 13.5843 37.5106 13.3543 37.5014C13.1249 37.4923 12.8955 37.5268 12.679 37.6035C12.2449 37.7549 11.8835 38.0655 11.6784 38.4757C11.4726 38.8874 11.4434 39.362 11.5985 39.7952L11.5984 39.7952L11.6018 39.8043C12.8824 43.1737 15.1953 46.091 18.234 48.1764C21.2725 50.2617 24.8962 51.4192 28.6304 51.4999Z"
        fill="#DEDEDE" stroke="#DEDEDE" />
    <path
        d="M14 26.0553L14.0011 26.0553C14.7847 26.0536 15.5609 26.2065 16.2853 26.5052C17.0098 26.8039 17.6682 27.2425 18.2229 27.796C18.7776 28.3494 19.2176 29.007 19.5179 29.7308C19.8181 30.4546 19.9727 31.2304 19.9727 32.014L19.9727 32.0151C19.9753 33.1969 19.6271 34.353 18.9724 35.3369C18.3177 36.3208 17.3858 37.0883 16.2946 37.5424C15.2035 37.9965 14.0022 38.1166 12.8428 37.8877C11.6833 37.6587 10.6179 37.0908 9.7813 36.256C8.9447 35.4212 8.37457 34.357 8.14306 33.1981C7.91155 32.0391 8.02905 30.8375 8.48072 29.7454C8.9324 28.6532 9.69792 27.7196 10.6804 27.0628C11.6629 26.4059 12.8182 26.0553 14 26.0553ZM8.72212 39.8989L8.9999 39.4832L8.72212 39.8989C10.2844 40.9428 12.1211 41.5 14 41.5C16.5196 41.5 18.9359 40.4991 20.7175 38.7175C22.4991 36.9359 23.5 34.5195 23.5 31.9999C23.5 30.121 22.9429 28.2843 21.899 26.7221C20.8551 25.1598 19.3713 23.9422 17.6355 23.2231C15.8996 22.5041 13.9895 22.316 12.1467 22.6826C10.3038 23.0491 8.61108 23.9539 7.28248 25.2825C5.95389 26.6111 5.04911 28.3038 4.68255 30.1466C4.31599 31.9894 4.50409 33.8995 5.22313 35.6354C5.94216 37.3713 7.15986 38.855 8.72212 39.8989Z"
        fill="#DEDEDE" stroke="#DEDEDE" />
</svg>
