<svg width="64" height="64" viewBox="0 0 64 64" fill="none" xmlns="http://www.w3.org/2000/svg">
    <path fill-rule="evenodd" clip-rule="evenodd" d="M13 6C6.37258 6 1 11.3726 1 18V42V48V54.5256C1 57.2303 4.2976 58.5539 6.16752 56.5997L12.4828 50H51C57.6274 50 63 44.6274 63 38V18C63 11.3726 57.6274 6 51 6H13Z" fill="#DEDEDE" />
    <path d="M20 31C21.6569 31 23 29.6569 23 28C23 26.3431 21.6569 25 20 25C18.3431 25 17 26.3431 17 28C17 29.6569 18.3431 31 20 31Z" fill="white" />
    <path d="M32 31C33.6569 31 35 29.6569 35 28C35 26.3431 33.6569 25 32 25C30.3431 25 29 26.3431 29 28C29 29.6569 30.3431 31 32 31Z" fill="white" />
    <path d="M44 31C45.6569 31 47 29.6569 47 28C47 26.3431 45.6569 25 44 25C42.3431 25 41 26.3431 41 28C41 29.6569 42.3431 31 44 31Z" fill="white" />
</svg>
