<svg width="32" height="32" viewBox="0 0 32 32" fill="none" xmlns="http://www.w3.org/2000/svg">
<path d="M5 18.5H26L20.5 13" stroke="#00CFB5" stroke-width="2" stroke-linecap="round" stroke-linejoin="round"/>
</svg>
