<svg width="18" height="18" viewBox="0 0 18 18" fill="none" xmlns="http://www.w3.org/2000/svg">
<rect x="0.922961" y="0.923083" width="16.1538" height="16.1538" rx="1.15385" stroke="#B2B2B2" stroke-width="0.769231"/>
<circle cx="5.53835" cy="5.53846" r="1.53846" stroke="#B2B2B2" stroke-width="0.769231"/>
<path d="M0.648914 12.6241C0.499875 12.7754 0.501751 13.019 0.653105 13.168C0.80446 13.317 1.04798 13.3152 1.19702 13.1638L0.648914 12.6241ZM7.07681 12.4615L6.82354 12.751C6.97181 12.8807 7.19415 12.8775 7.33852 12.7434L7.07681 12.4615ZM16.8169 11.9758C16.9735 12.1194 17.2168 12.1088 17.3603 11.9522C17.5039 11.7956 17.4933 11.5523 17.3367 11.4088L16.8169 11.9758ZM12.9846 7.94111L13.2445 7.65758L12.9846 7.94111ZM4.54568 10.2468L4.79895 9.95736L4.54568 10.2468ZM1.19702 13.1638L3.76509 10.5559L3.21699 10.0161L0.648914 12.6241L1.19702 13.1638ZM4.29241 10.5363L6.82354 12.751L7.33008 12.1721L4.79895 9.95736L4.29241 10.5363ZM7.33852 12.7434L12.2031 8.2263L11.6797 7.66262L6.8151 12.1797L7.33852 12.7434ZM12.7247 8.22463L16.8169 11.9758L17.3367 11.4088L13.2445 7.65758L12.7247 8.22463ZM12.2031 8.2263C12.35 8.08992 12.5769 8.08919 12.7247 8.22463L13.2445 7.65758C12.8012 7.25128 12.1203 7.25347 11.6797 7.66262L12.2031 8.2263ZM3.76509 10.5559C3.90796 10.4108 4.13917 10.4022 4.29241 10.5363L4.79895 9.95736C4.33922 9.55509 3.64561 9.58086 3.21699 10.0161L3.76509 10.5559Z" fill="#B2B2B2"/>
</svg>
