<svg width="61" height="60" viewBox="0 0 61 60" fill="none" xmlns="http://www.w3.org/2000/svg">
<path d="M30.495 55.7751C25.3502 55.7751 20.3208 54.2493 16.0431 51.391C11.7654 48.5327 8.4314 44.4703 6.46257 39.7171C4.49375 34.9639 3.97862 29.7337 4.98232 24.6878C5.98602 19.6419 8.46339 15.0069 12.1013 11.369C15.7392 7.7311 20.3742 5.25357 25.4201 4.24988C30.466 3.24618 35.6964 3.76115 40.4495 5.72998C45.2027 7.6988 49.2653 11.0329 52.1236 15.3107C54.9819 19.5884 56.5074 24.6178 56.5074 29.7626C56.5008 36.6595 53.7581 43.2719 48.8812 48.1488C44.0044 53.0257 37.3919 55.7685 30.495 55.7751ZM30.495 7.5C26.0919 7.5 21.7876 8.80559 18.1265 11.2518C14.4655 13.6981 11.6121 17.175 9.92708 21.243C8.24209 25.3109 7.80114 29.7873 8.66014 34.1058C9.51915 38.4243 11.6395 42.391 14.753 45.5045C17.8664 48.6179 21.8333 50.7383 26.1518 51.5973C30.4703 52.4563 34.9465 52.0155 39.0145 50.3305C43.0824 48.6455 46.5594 45.7921 49.0056 42.131C51.4518 38.47 52.7574 34.1657 52.7574 29.7626C52.7475 23.8624 50.3984 18.2068 46.2251 14.0359C42.0519 9.86505 36.3952 7.51912 30.495 7.51251V7.5Z" fill="#282828"/>
<path d="M20.3575 30.7002C21.5657 30.7002 22.545 29.7208 22.545 28.5127C22.545 27.3046 21.5657 26.3252 20.3575 26.3252C19.1494 26.3252 18.17 27.3046 18.17 28.5127C18.17 29.7208 19.1494 30.7002 20.3575 30.7002Z" fill="#282828"/>
<path d="M40.495 30.7002C41.7031 30.7002 42.6825 29.7208 42.6825 28.5127C42.6825 27.3046 41.7031 26.3252 40.495 26.3252C39.2869 26.3252 38.3075 27.3046 38.3075 28.5127C38.3075 29.7208 39.2869 30.7002 40.495 30.7002Z" fill="#282828"/>
<path d="M22.7951 41.6374C22.2978 41.6623 21.811 41.4884 21.4418 41.1543C21.0726 40.8203 20.8511 40.3534 20.8263 39.8561C20.8014 39.3588 20.9751 38.8722 21.3092 38.503C21.6432 38.1337 22.1103 37.9123 22.6076 37.8874L39.4951 36.1247C39.7413 36.0993 39.9901 36.1227 40.2274 36.1934C40.4646 36.2641 40.6856 36.3809 40.8777 36.537C41.0698 36.6931 41.2292 36.8857 41.3469 37.1034C41.4646 37.3212 41.5384 37.56 41.5639 37.8062C41.5893 38.0525 41.5659 38.3011 41.4952 38.5384C41.4245 38.7756 41.3077 38.9966 41.1516 39.1887C40.9955 39.3808 40.8031 39.5403 40.5853 39.658C40.3676 39.7758 40.1287 39.8493 39.8825 39.8747L22.9951 41.6249L22.7951 41.6374Z" fill="#282828"/>
</svg>
