<svg width="61" height="60" viewBox="0 0 61 60" fill="none" xmlns="http://www.w3.org/2000/svg">
<path d="M21.72 42.375C21.3908 42.3766 21.0672 42.2903 20.7825 42.1251C20.3534 41.8745 20.0414 41.4642 19.9149 40.9837C19.7883 40.5032 19.8576 39.9919 20.1076 39.5625C21.1087 37.8257 22.5496 36.3833 24.2853 35.3804C26.021 34.3774 27.9905 33.8496 29.9951 33.8496C31.9998 33.8496 33.9691 34.3774 35.7048 35.3804C37.4406 36.3833 38.8814 37.8257 39.8825 39.5625C40.1312 39.9935 40.1985 40.5056 40.0696 40.9861C39.9407 41.4667 39.6261 41.8764 39.1951 42.1251C38.7642 42.3737 38.252 42.4411 37.7715 42.3121C37.2909 42.1832 36.8812 41.8685 36.6326 41.4375C35.9585 40.2722 34.9899 39.3047 33.8237 38.632C32.6576 37.9594 31.3351 37.6054 29.9889 37.6054C28.6427 37.6054 27.32 37.9594 26.1539 38.632C24.9878 39.3047 24.0191 40.2722 23.3451 41.4375C23.1814 41.7236 22.9447 41.9613 22.6592 42.126C22.3737 42.2907 22.0496 42.3765 21.72 42.375Z" fill="#282828"/>
<path d="M29.995 55.7751C24.8502 55.7751 19.8208 54.2493 15.5431 51.391C11.2654 48.5327 7.9314 44.4703 5.96257 39.7171C3.99375 34.9639 3.47862 29.7337 4.48232 24.6878C5.48602 19.6419 7.96339 15.0069 11.6013 11.369C15.2392 7.7311 19.8742 5.25357 24.9201 4.24988C29.966 3.24618 35.1964 3.76115 39.9495 5.72998C44.7027 7.6988 48.7653 11.0329 51.6236 15.3107C54.4819 19.5884 56.0074 24.6178 56.0074 29.7626C56.0008 36.6595 53.2581 43.2719 48.3812 48.1488C43.5044 53.0257 36.8919 55.7685 29.995 55.7751ZM29.995 7.5C25.5919 7.5 21.2876 8.80559 17.6265 11.2518C13.9655 13.6981 11.1121 17.175 9.42708 21.243C7.74209 25.3109 7.30114 29.7873 8.16014 34.1058C9.01915 38.4243 11.1395 42.391 14.253 45.5045C17.3664 48.6179 21.3333 50.7383 25.6518 51.5973C29.9703 52.4563 34.4465 52.0155 38.5145 50.3305C42.5824 48.6455 46.0594 45.7921 48.5056 42.131C50.9518 38.47 52.2574 34.1657 52.2574 29.7626C52.2475 23.8624 49.8984 18.2068 45.7251 14.0359C41.5519 9.86505 35.8952 7.51912 29.995 7.51251V7.5Z" fill="#282828"/>
<path d="M19.8575 30.7002C21.0657 30.7002 22.045 29.7208 22.045 28.5127C22.045 27.3046 21.0657 26.3252 19.8575 26.3252C18.6494 26.3252 17.67 27.3046 17.67 28.5127C17.67 29.7208 18.6494 30.7002 19.8575 30.7002Z" fill="#282828"/>
<path d="M39.995 30.7002C41.2031 30.7002 42.1825 29.7208 42.1825 28.5127C42.1825 27.3046 41.2031 26.3252 39.995 26.3252C38.7869 26.3252 37.8075 27.3046 37.8075 28.5127C37.8075 29.7208 38.7869 30.7002 39.995 30.7002Z" fill="#282828"/>
</svg>
