<svg width="24" height="24" viewBox="0 0 24 24" fill="none" xmlns="http://www.w3.org/2000/svg">
<path d="M13.7793 15.6907L13.7793 15.6907L13.7806 15.6919C13.8729 15.781 13.9954 15.832 14.1236 15.8348C14.1901 15.842 14.2575 15.8361 14.322 15.8174C14.3881 15.7982 14.4497 15.7659 14.503 15.7226L14.5034 15.723L14.5108 15.7156C14.6043 15.6219 14.6568 15.4949 14.6568 15.3625C14.6568 15.2301 14.6043 15.1031 14.5108 15.0094L14.5107 15.0093L12.04 12.5386V7.39998C12.04 7.26737 11.9873 7.1402 11.8936 7.04643C11.7998 6.95268 11.6726 6.89995 11.54 6.89995C11.4074 6.89995 11.2802 6.95268 11.1865 7.04643C11.0927 7.1402 11.04 7.26737 11.04 7.39998L11.04 12.7449L11.04 12.7461C11.0416 12.8792 11.0952 13.0065 11.1893 13.1007L11.1893 13.1007L13.7793 15.6907Z" fill="#545454" stroke="#545454" stroke-width="0.2"/>
<path d="M21.99 12V11.9999C21.99 10.0229 21.4037 8.09031 20.3052 6.44653C19.2067 4.80275 17.6454 3.52164 15.8187 2.76529C13.9921 2.00894 11.9822 1.81129 10.0432 2.19736C8.10422 2.58342 6.32328 3.53588 4.92565 4.93421C3.52803 6.33254 2.57651 8.11388 2.19142 10.0531C1.80633 11.9922 2.00498 14.0021 2.76225 15.8284C3.51952 17.6546 4.80141 19.2153 6.44574 20.3129C8.09008 21.4106 10.023 21.9959 12 21.9949H12.0001C14.6492 21.9909 17.1886 20.9365 19.0614 19.0628C20.9341 17.1891 21.9873 14.6491 21.99 12ZM11.9 2.99542V3.00476L11.9998 3.00493C14.3821 3.00885 16.6657 3.95663 18.3507 5.6407C20.0357 7.32476 20.9847 9.60783 20.99 11.9901C20.9899 13.7693 20.4623 15.5085 19.4737 16.9878C18.4851 18.4671 17.08 19.62 15.4361 20.3007C13.7921 20.9814 11.9833 21.1592 10.2383 20.8117C8.49333 20.4643 6.89059 19.6071 5.63281 18.3486C4.37504 17.0902 3.51874 15.487 3.17222 13.7418C2.82571 11.9966 3.00453 10.1878 3.6861 8.54431C4.36767 6.90077 5.52137 5.49628 7.00124 4.50849C8.45339 3.5392 10.1556 3.01384 11.9 2.99542Z" fill="#545454" stroke="#545454" stroke-width="0.2"/>
</svg>
