<svg width="218" height="96" viewBox="0 0 218 96" fill="none" xmlns="http://www.w3.org/2000/svg">
<path d="M184.7 3C184.7 2.6134 184.387 2.3 184 2.3C183.613 2.3 183.3 2.6134 183.3 3H184.7ZM7.49497 53.005C7.22161 52.7317 6.77839 52.7317 6.50503 53.005L2.05025 57.4598C1.77689 57.7332 1.77689 58.1764 2.05025 58.4497C2.32362 58.7231 2.76684 58.7231 3.0402 58.4497L7 54.4899L10.9598 58.4497C11.2332 58.7231 11.6764 58.7231 11.9497 58.4497C12.2231 58.1764 12.2231 57.7332 11.9497 57.4598L7.49497 53.005ZM183.3 3V61H184.7V3H183.3ZM152 92.3H39V93.7H152V92.3ZM7.7 61V53.5H6.3V61H7.7ZM39 92.3C21.7135 92.3 7.7 78.2865 7.7 61H6.3C6.3 79.0597 20.9403 93.7 39 93.7V92.3ZM183.3 61C183.3 78.2865 169.287 92.3 152 92.3V93.7C170.06 93.7 184.7 79.0597 184.7 61H183.3Z" fill="#B579C8"/>
<path d="M196.7 3C196.7 2.6134 196.387 2.3 196 2.3C195.613 2.3 195.3 2.6134 195.3 3H196.7ZM215.495 43.495C215.768 43.2216 215.768 42.7784 215.495 42.505L211.04 38.0503C210.767 37.7769 210.324 37.7769 210.05 38.0503C209.777 38.3236 209.777 38.7668 210.05 39.0402L214.01 43L210.05 46.9598C209.777 47.2332 209.777 47.6764 210.05 47.9497C210.324 48.2231 210.767 48.2231 211.04 47.9497L215.495 43.495ZM195.3 3V27H196.7V3H195.3ZM212 43.7H215V42.3H212V43.7ZM195.3 27C195.3 36.2232 202.777 43.7 212 43.7V42.3C203.55 42.3 196.7 35.45 196.7 27H195.3Z" fill="#B579C8"/>
</svg>
