<svg width="48" height="48" viewBox="0 0 48 48" fill="none" xmlns="http://www.w3.org/2000/svg">
<path d="M21.11 12.3101C21.11 11.6901 21.11 11 21.11 10.2C21.11 7.51001 20.7 4.63002 17.71 3.71002C17.3533 3.59863 16.9753 3.57318 16.6068 3.63574C16.2384 3.69831 15.89 3.84717 15.59 4.07007C15.3774 4.23414 15.1946 4.43371 15.05 4.66003H11.32C11.2646 4.50536 11.1628 4.3715 11.0286 4.27667C10.8944 4.18185 10.7343 4.1307 10.57 4.13007H9.57001C8.77436 4.13007 8.01128 4.44612 7.44867 5.00873C6.88606 5.57134 6.57001 6.33442 6.57001 7.13007V17.4301C6.56998 18.2262 6.67077 19.0192 6.87 19.79L7.77002 23.28C7.93303 23.9341 8.01364 24.606 8.01001 25.28V41.71C8.01264 42.3457 8.26636 42.9547 8.71588 43.4042C9.1654 43.8537 9.77426 44.1074 10.41 44.11C10.5745 44.1087 10.7386 44.092 10.9 44.0601C11.4475 43.9402 11.9367 43.6348 12.2847 43.1956C12.6328 42.7564 12.8184 42.2104 12.81 41.65V25.2401C12.81 24.4439 12.7092 23.6509 12.51 22.8801L11.61 19.39C11.61 19.18 11.52 18.9601 11.49 18.7401H15.73C15.9504 18.9473 16.2039 19.1163 16.48 19.2401C16.9251 19.4445 17.4103 19.547 17.9 19.54C19.1586 19.5036 20.3676 19.0418 21.33 18.23C21.5282 18.0607 21.6897 17.8528 21.8049 17.619C21.9201 17.3851 21.9865 17.1304 22 16.8701C22.0125 16.6259 21.9745 16.3818 21.8885 16.153C21.8025 15.9242 21.6702 15.7155 21.5 15.54C21.04 15.01 21.04 14.1701 21.11 12.3101ZM11.41 14.48H12.6C12.8121 14.48 13.0157 14.3958 13.1657 14.2457C13.3157 14.0957 13.4 13.8922 13.4 13.6801C13.4 13.4679 13.3157 13.2644 13.1657 13.1144C13.0157 12.9644 12.8121 12.8801 12.6 12.8801H11.41V10.52H12.6C12.8121 10.52 13.0157 10.4357 13.1657 10.2857C13.3157 10.1357 13.4 9.93221 13.4 9.72003C13.4 9.50786 13.3157 9.30439 13.1657 9.15436C13.0157 9.00433 12.8121 8.92004 12.6 8.92004H11.41V6.26007H14.65V15.55C14.6401 16.0869 14.7074 16.6223 14.85 17.14H11.41V14.48ZM11.25 41.61C11.2566 41.7995 11.1989 41.9856 11.0864 42.1381C10.9738 42.2906 10.813 42.4005 10.63 42.45C10.5118 42.4744 10.3898 42.4727 10.2723 42.4451C10.1549 42.4174 10.0449 42.3645 9.95001 42.29C9.85752 42.2151 9.78269 42.1207 9.73083 42.0135C9.67898 41.9063 9.6514 41.7891 9.65002 41.67V25.2401C9.64911 24.4446 9.55169 23.6521 9.35999 22.8801L8.45001 19.39C8.287 18.736 8.20639 18.0641 8.21002 17.39V7.10004C8.2087 6.9206 8.24291 6.7427 8.31067 6.57654C8.37842 6.41038 8.47838 6.25925 8.6048 6.1319C8.73122 6.00455 8.88158 5.90351 9.04724 5.83453C9.2129 5.76556 9.39056 5.73004 9.57001 5.73004H9.79999V17.4301C9.8006 18.2262 9.90138 19.0191 10.1 19.79L11 23.28C11.1713 23.9327 11.2554 24.6052 11.25 25.28V41.61ZM20.34 17.0101C19.9211 17.3915 19.4137 17.6626 18.8637 17.7988C18.3137 17.935 17.7385 17.932 17.19 17.79C16.56 17.5 16.19 16.79 16.19 15.55V6.13007C16.3115 6.06464 16.4134 5.96811 16.4855 5.8504C16.5575 5.7327 16.597 5.59799 16.6 5.46002C16.6057 5.42023 16.6057 5.37982 16.6 5.34003C16.7258 5.25081 16.8758 5.20197 17.03 5.20001C17.106 5.18567 17.184 5.18567 17.26 5.20001C18.89 5.70001 19.53 7.09001 19.53 10.2C19.53 10.98 19.53 11.6601 19.53 12.2601C19.46 14.2601 19.41 15.61 20.43 16.66C20.4472 16.7017 20.4472 16.7484 20.43 16.79C20.4327 16.8303 20.427 16.8706 20.4132 16.9084C20.3994 16.9463 20.3779 16.981 20.35 17.0101H20.34Z" fill="#CECECE"/>
<path d="M41.37 39.03L39.66 17.73C39.6291 17.339 39.5203 16.9582 39.34 16.61L37.28 12.61C37.0885 12.223 36.8155 11.8819 36.48 11.61C36.6519 11.3056 36.735 10.9592 36.72 10.61L36.51 6.03998C36.4869 5.55448 36.2776 5.09656 35.9256 4.76135C35.5736 4.42615 35.1061 4.23944 34.62 4.23999H30.96C30.475 4.23955 30.0085 4.42658 29.6582 4.76203C29.3078 5.09747 29.1007 5.55537 29.08 6.03998L28.86 10.61C28.848 10.9602 28.9346 11.3067 29.11 11.61C28.7674 11.8826 28.4849 12.2231 28.28 12.61L26.22 16.61C26.0909 16.8689 26 17.1451 25.95 17.43C25.95 17.43 25.95 17.5 25.95 17.54C25.946 17.6032 25.946 17.6667 25.95 17.73L24.24 39.01C24.235 39.0899 24.235 39.1701 24.24 39.25V41C24.24 41.7957 24.5561 42.5587 25.1187 43.1213C25.6813 43.6839 26.4444 44 27.24 44H38.5C39.2957 44 40.0587 43.6839 40.6213 43.1213C41.184 42.5587 41.5 41.7957 41.5 41V39.25C41.4616 39.1739 41.4182 39.1003 41.37 39.03ZM30.74 11.03C30.678 11.0309 30.6177 11.0096 30.57 10.97C30.5319 10.9458 30.5014 10.9115 30.4819 10.8708C30.4625 10.8301 30.4549 10.7848 30.46 10.74L30.68 6.15997C30.6826 6.08746 30.7132 6.01881 30.7655 5.96845C30.8177 5.91808 30.8875 5.88991 30.96 5.88995H34.62C34.6936 5.88978 34.7645 5.91758 34.8183 5.96771C34.8722 6.01785 34.9049 6.08658 34.91 6.15997L35.12 10.74C35.1232 10.7787 35.1177 10.8177 35.1039 10.8541C35.09 10.8904 35.0682 10.9232 35.04 10.95C35.0139 10.9763 34.9827 10.997 34.9483 11.0108C34.9139 11.0246 34.8771 11.0311 34.84 11.03H30.74ZM38.41 42.41H27.15C26.7867 42.41 26.4382 42.2657 26.1813 42.0087C25.9244 41.7518 25.78 41.4033 25.78 41.04V39.9H36.34C36.5522 39.9 36.7557 39.8157 36.9057 39.6656C37.0557 39.5156 37.14 39.3121 37.14 39.1C37.14 38.8878 37.0557 38.6843 36.9057 38.5343C36.7557 38.3843 36.5522 38.3 36.34 38.3H25.86L27.45 18.38H34.45C34.6622 18.38 34.8657 18.2957 35.0157 18.1457C35.1657 17.9957 35.25 17.7921 35.25 17.58C35.25 17.3678 35.1657 17.1643 35.0157 17.0143C34.8657 16.8643 34.6622 16.78 34.45 16.78H27.95L29.7 13.37C29.8175 13.1479 29.993 12.9618 30.2078 12.8315C30.4227 12.7012 30.6687 12.6316 30.92 12.63H34.64C34.8915 12.6305 35.1381 12.6997 35.3531 12.8301C35.5681 12.9605 35.7434 13.1472 35.86 13.37L37.92 17.37C37.9986 17.5338 38.0493 17.7095 38.07 17.89L39.78 39.18V41.03C39.7774 41.3916 39.6319 41.7375 39.3753 41.9922C39.1186 42.247 38.7716 42.39 38.41 42.39V42.41Z" fill="#CECECE"/>
</svg>
